%!PS-Adobe-3.0 EPSF-3.0
%%BoundingBox: 0 0 504 360
%%Title: Graphics produced by IDL
%%For: Aaron@Aaron, /home/Aaron
%%Creator: IDL Version 7.1 (linux x86 m32)
%%CreationDate: Tue Feb 22 13:06:54 2011
%%DocumentData: Clean7bit
%%LanguageLevel: 1
%%PageOrder: Ascend
%%Pages: (atend)
%%DocumentNeededResources: (atend)
%%EndComments
%%BeginProlog
%+ prolog.ps -- Prolog for IDL generated PostScript files
%+ Copyright (c) 1988-2009 ITT Visual Information Solutions. All Rights Reserved.
%v 5
/$IDL_DICT 40 dict def $IDL_DICT begin /bdef { bind def } bind def /C
{currentpoint newpath moveto} bdef /CP {currentpoint} bdef /D {currentpoint
stroke moveto} bdef /F {closepath fill} bdef /K { setgray } bdef /M {moveto}
bdef /N {rmoveto} bdef /P {lineto} bdef /R {rlineto} bdef /S {gsave show
grestore} bdef /X {currentpoint pop} bdef /Z {gsave currentpoint lineto 20
setlinewidth 1 setlinecap stroke grestore} bdef /L0 {[] 0 setdash} bdef /L1
{[40 100] 0 setdash} bdef /L2 {[200 200] 0 setdash} bdef /L3 {[200 100 50
100] 0 setdash} bdef /L4 {[300 100 50 100 50 100 50 100] 0 setdash} bdef /L5
{[400 200] 0 setdash} bdef /STDFONT { findfont exch scalefont setfont } bdef
/ISOFONT { findfont dup length dict begin { 1 index /FID ne {def} {pop pop}
ifelse } forall /Encoding ISOLatin1Encoding def currentdict end /idltmpfont
exch definefont exch scalefont setfont } bdef /ISOBULLET { gsave /Helvetica
findfont exch scalefont setfont (\267) show currentpoint grestore moveto}
bdef /MITERLIMIT { 2.5 setmiterlimit } bdef end
%%EndProlog
%%Page: 0 1
%%PageResources: (atend)
%%PageOrientation: Portrait
%%PageBoundingBox: 0 0 504 360
%%BeginPageSetup
$IDL_DICT begin 0.0283465 dup scale MITERLIMIT
%%IncludeResource: font Helvetica
423.333 /Helvetica STDFONT
%%EndPageSetup
10 setlinewidth L0 0.000 K 2220 1408 M 14894 0 R D 2220 1408 M 0 212 R D
2021 1125 M -35 -11 R -23 -35 R -12 -59 R 0 -35 R 12 -58 R 23 -35 R 35 -12 R
24 0 R 35 12 R 23 35 R 12 58 R 0 35 R -12 59 R -23 35 R -35 11 R -24 0 R
-23 -11 R -12 -12 R -11 -23 R -12 -59 R 0 -35 R 12 -58 R 11 -24 R 12 -11 R
23 -12 R D 2045 880 M 23 12 R 12 11 R 12 24 R 11 58 R 0 35 R -11 59 R
-12 23 R -12 12 R -23 11 R D 2208 903 M -11 -11 R 11 -12 R 12 12 R -12 11 R
D 2442 1090 M -12 -11 R 12 -12 R 12 12 R 0 11 R -12 24 R -23 11 R -35 0 R
-35 -11 R -24 -24 R -11 -23 R -12 -47 R 0 -70 R 12 -35 R 23 -23 R 35 -12 R
23 0 R 35 12 R 24 23 R 11 35 R 0 12 R -11 35 R -24 23 R -35 12 R -11 0 R
-35 -12 R -24 -23 R -11 -35 R D 2384 1125 M -24 -11 R -23 -24 R -12 -23 R
-11 -47 R 0 -70 R 11 -35 R 24 -23 R 23 -12 R D 2395 880 M 24 12 R 23 23 R
12 35 R 0 12 R -12 35 R -23 23 R -24 12 R D 5944 1408 M 0 212 R D
5745 1125 M -35 -11 R -23 -35 R -12 -59 R 0 -35 R 12 -58 R 23 -35 R 35 -12 R
23 0 R 35 12 R 24 35 R 11 58 R 0 35 R -11 59 R -24 35 R -35 11 R -23 0 R
-23 -11 R -12 -12 R -12 -23 R -11 -59 R 0 -35 R 11 -58 R 12 -24 R 12 -11 R
23 -12 R D 5768 880 M 24 12 R 11 11 R 12 24 R 12 58 R 0 35 R -12 59 R
-12 23 R -11 12 R -24 11 R D 5932 903 M -12 -11 R 12 -12 R 12 12 R -12 11 R
D 6084 1125 M -35 -11 R -12 -24 R 0 -35 R 12 -23 R 35 -12 R 47 0 R 35 12 R
11 23 R 0 35 R -11 24 R -35 11 R -47 0 R -24 -11 R -11 -24 R 0 -35 R
11 -23 R 24 -12 R D 6131 1020 M 23 12 R 12 23 R 0 35 R -12 24 R -23 11 R D
6084 1020 M -35 -11 R -12 -12 R -12 -23 R 0 -47 R 12 -24 R 12 -11 R 35 -12 R
47 0 R 35 12 R 11 11 R 12 24 R 0 47 R -12 23 R -11 12 R -35 11 R D
6084 1020 M -24 -11 R -11 -12 R -12 -23 R 0 -47 R 12 -24 R 11 -11 R 24 -12 R
D 6131 880 M 23 12 R 12 11 R 11 24 R 0 47 R -11 23 R -12 12 R -23 11 R D
9667 1408 M 0 212 R D 9433 1079 M 24 11 R 35 35 R 0 -245 R D 9480 1114 M
0 -234 R D 9433 880 M 106 0 R D 9655 903 M -11 -11 R 11 -12 R 12 12 R
-12 11 R D 9819 1125 M -35 -11 R -23 -35 R -12 -59 R 0 -35 R 12 -58 R
23 -35 R 35 -12 R 23 0 R 35 12 R 24 35 R 11 58 R 0 35 R -11 59 R -24 35 R
-35 11 R -23 0 R -23 -11 R -12 -12 R -12 -23 R -11 -59 R 0 -35 R 11 -58 R
12 -24 R 12 -11 R 23 -12 R D 9842 880 M 24 12 R 11 11 R 12 24 R 12 58 R
0 35 R -12 59 R -12 23 R -11 12 R -24 11 R D 13391 1408 M 0 212 R D
13157 1079 M 23 11 R 35 35 R 0 -245 R D 13204 1114 M 0 -234 R D 13157 880 M
105 0 R D 13379 903 M -12 -11 R 12 -12 R 12 12 R -12 11 R D 13484 1079 M
12 -12 R -12 -12 R -12 12 R 0 12 R 12 23 R 12 12 R 35 11 R 47 0 R 35 -11 R
11 -12 R 12 -23 R 0 -24 R -12 -23 R -35 -23 R -58 -24 R -24 -11 R -23 -24 R
-12 -35 R 0 -35 R D 13578 1125 M 23 -11 R 12 -12 R 11 -23 R 0 -24 R
-11 -23 R -35 -23 R -47 -24 R D 13472 903 M 12 12 R 23 0 R 59 -23 R 35 0 R
23 11 R 12 12 R D 13507 915 M 59 -35 R 47 0 R 11 12 R 12 23 R 0 23 R D
17114 1408 M 0 212 R D 16880 1079 M 24 11 R 35 35 R 0 -245 R D 16927 1114 M
0 -234 R D 16880 880 M 106 0 R D 17102 903 M -11 -11 R 11 -12 R 12 12 R
-12 11 R D 17301 1102 M 0 -222 R D 17313 1125 M 0 -245 R D 17313 1125 M
-129 -175 R 187 0 R D 17266 880 M 82 0 R D 3151 1408 M 0 106 R D 4082 1408 M
0 106 R D 5013 1408 M 0 106 R D 6874 1408 M 0 106 R D 7805 1408 M 0 106 R D
8736 1408 M 0 106 R D 10598 1408 M 0 106 R D 11529 1408 M 0 106 R D
12460 1408 M 0 106 R D 14321 1408 M 0 106 R D 15252 1408 M 0 106 R D
16183 1408 M 0 106 R D 2220 11996 M 14894 0 R D 2220 11996 M 0 -212 R D
5944 11996 M 0 -212 R D 9667 11996 M 0 -212 R D 13391 11996 M 0 -212 R D
17114 11996 M 0 -212 R D 3151 11996 M 0 -106 R D 4082 11996 M 0 -106 R D
5013 11996 M 0 -106 R D 6874 11996 M 0 -106 R D 7805 11996 M 0 -106 R D
8736 11996 M 0 -106 R D 10598 11996 M 0 -106 R D 11529 11996 M 0 -106 R D
12460 11996 M 0 -106 R D 14321 11996 M 0 -106 R D 15252 11996 M 0 -106 R D
16183 11996 M 0 -106 R D 2220 1408 M 0 10588 R D 2220 1408 M 298 0 R D
1969 1653 M -35 -11 R -24 -35 R -11 -59 R 0 -35 R 11 -58 R 24 -35 R 35 -12 R
23 0 R 35 12 R 24 35 R 11 58 R 0 35 R -11 59 R -24 35 R -35 11 R -23 0 R
-23 -11 R -12 -12 R -12 -23 R -12 -59 R 0 -35 R 12 -58 R 12 -24 R 12 -11 R
23 -12 R D 1992 1408 M 24 12 R 11 11 R 12 24 R 12 58 R 0 35 R -12 59 R
-12 23 R -11 12 R -24 11 R D 2220 3526 M 298 0 R D 1688 3630 M -23 -117 R
23 24 R 36 11 R 35 0 R 35 -11 R 23 -24 R 12 -35 R 0 -23 R -12 -35 R
-23 -23 R -35 -12 R -35 0 R -36 12 R -11 11 R -12 24 R 0 11 R 12 12 R
11 -12 R -11 -11 R D 1759 3548 M 23 -11 R 23 -24 R 12 -35 R 0 -23 R
-12 -35 R -23 -23 R -23 -12 R D 1688 3630 M 117 0 R D 1688 3619 M 59 0 R
58 11 R D 1969 3630 M -35 -11 R -24 -36 R -11 -58 R 0 -35 R 11 -58 R
24 -35 R 35 -12 R 23 0 R 35 12 R 24 35 R 11 58 R 0 35 R -11 58 R -24 36 R
-35 11 R -23 0 R -23 -11 R -12 -12 R -12 -24 R -12 -58 R 0 -35 R 12 -58 R
12 -24 R 12 -11 R 23 -12 R D 1992 3385 M 24 12 R 11 11 R 12 24 R 12 58 R
0 35 R -12 58 R -12 24 R -11 12 R -24 11 R D 2220 5643 M 298 0 R D
1466 5701 M 24 12 R 35 35 R 0 -246 R D 1513 5736 M 0 -234 R D 1466 5502 M
106 0 R D 1735 5748 M -35 -12 R -23 -35 R -12 -58 R 0 -35 R 12 -59 R
23 -35 R 35 -12 R 24 0 R 35 12 R 23 35 R 12 59 R 0 35 R -12 58 R -23 35 R
-35 12 R -24 0 R -23 -12 R -12 -12 R -12 -23 R -11 -58 R 0 -35 R 11 -59 R
12 -23 R 12 -12 R 23 -12 R D 1759 5502 M 23 12 R 12 12 R 11 23 R 12 59 R
0 35 R -12 58 R -11 23 R -12 12 R -23 12 R D 1969 5748 M -35 -12 R -24 -35 R
-11 -58 R 0 -35 R 11 -59 R 24 -35 R 35 -12 R 23 0 R 35 12 R 24 35 R 11 59 R
0 35 R -11 58 R -24 35 R -35 12 R -23 0 R -23 -12 R -12 -12 R -12 -23 R
-12 -58 R 0 -35 R 12 -59 R 12 -23 R 12 -12 R 23 -12 R D 1992 5502 M 24 12 R
11 12 R 12 23 R 12 59 R 0 35 R -12 58 R -12 23 R -11 12 R -24 12 R D
2220 7761 M 298 0 R D 1466 7819 M 24 11 R 35 35 R 0 -245 R D 1513 7854 M
0 -234 R D 1466 7620 M 106 0 R D 1688 7865 M -23 -116 R 23 23 R 36 12 R
35 0 R 35 -12 R 23 -23 R 12 -35 R 0 -24 R -12 -35 R -23 -23 R -35 -12 R
-35 0 R -36 12 R -11 11 R -12 24 R 0 11 R 12 12 R 11 -12 R -11 -11 R D
1759 7784 M 23 -12 R 23 -23 R 12 -35 R 0 -24 R -12 -35 R -23 -23 R -23 -12 R
D 1688 7865 M 117 0 R D 1688 7854 M 59 0 R 58 11 R D 1969 7865 M -35 -11 R
-24 -35 R -11 -59 R 0 -35 R 11 -58 R 24 -35 R 35 -12 R 23 0 R 35 12 R
24 35 R 11 58 R 0 35 R -11 59 R -24 35 R -35 11 R -23 0 R -23 -11 R
-12 -12 R -12 -23 R -12 -59 R 0 -35 R 12 -58 R 12 -24 R 12 -11 R 23 -12 R D
1992 7620 M 24 12 R 11 11 R 12 24 R 12 58 R 0 35 R -12 59 R -12 23 R
-11 12 R -24 11 R D 2220 9878 M 298 0 R D 1443 9936 M 12 -11 R -12 -12 R
-12 12 R 0 11 R 12 24 R 12 11 R 35 12 R 47 0 R 35 -12 R 11 -11 R 12 -24 R
0 -23 R -12 -23 R -35 -24 R -58 -23 R -24 -12 R -23 -23 R -12 -35 R 0 -35 R
D 1537 9983 M 23 -12 R 12 -11 R 11 -24 R 0 -23 R -11 -23 R -35 -24 R
-47 -23 R D 1431 9761 M 12 12 R 23 0 R 59 -24 R 35 0 R 23 12 R 12 12 R D
1466 9773 M 59 -35 R 47 0 R 11 11 R 12 24 R 0 23 R D 1735 9983 M -35 -12 R
-23 -35 R -12 -58 R 0 -35 R 12 -59 R 23 -35 R 35 -11 R 24 0 R 35 11 R
23 35 R 12 59 R 0 35 R -12 58 R -23 35 R -35 12 R -24 0 R -23 -12 R
-12 -11 R -12 -24 R -11 -58 R 0 -35 R 11 -59 R 12 -23 R 12 -12 R 23 -11 R D
1759 9738 M 23 11 R 12 12 R 11 23 R 12 59 R 0 35 R -12 58 R -11 24 R
-12 11 R -23 12 R D 1969 9983 M -35 -12 R -24 -35 R -11 -58 R 0 -35 R
11 -59 R 24 -35 R 35 -11 R 23 0 R 35 11 R 24 35 R 11 59 R 0 35 R -11 58 R
-24 35 R -35 12 R -23 0 R -23 -12 R -12 -11 R -12 -24 R -12 -58 R 0 -35 R
12 -59 R 12 -23 R 12 -12 R 23 -11 R D 1992 9738 M 24 11 R 11 12 R 12 23 R
12 59 R 0 35 R -12 58 R -12 24 R -11 11 R -24 12 R D 2220 11996 M 298 0 R D
1443 11948 M 12 -11 R -12 -12 R -12 12 R 0 11 R 12 24 R 12 11 R 35 12 R
47 0 R 35 -12 R 11 -11 R 12 -24 R 0 -23 R -12 -23 R -35 -24 R -58 -23 R
-24 -12 R -23 -23 R -12 -35 R 0 -35 R D 1537 11995 M 23 -12 R 12 -11 R
11 -24 R 0 -23 R -11 -23 R -35 -24 R -47 -23 R D 1431 11773 M 12 12 R 23 0 R
59 -24 R 35 0 R 23 12 R 12 12 R D 1466 11785 M 59 -35 R 47 0 R 11 11 R
12 24 R 0 23 R D 1688 11995 M -23 -117 R 23 24 R 36 11 R 35 0 R 35 -11 R
23 -24 R 12 -35 R 0 -23 R -12 -35 R -23 -24 R -35 -11 R -35 0 R -36 11 R
-11 12 R -12 23 R 0 12 R 12 12 R 11 -12 R -11 -12 R D 1759 11913 M 23 -11 R
23 -24 R 12 -35 R 0 -23 R -12 -35 R -23 -24 R -23 -11 R D 1688 11995 M
117 0 R D 1688 11983 M 59 0 R 58 12 R D 1969 11995 M -35 -12 R -24 -35 R
-11 -58 R 0 -35 R 11 -59 R 24 -35 R 35 -11 R 23 0 R 35 11 R 24 35 R 11 59 R
0 35 R -11 58 R -24 35 R -35 12 R -23 0 R -23 -12 R -12 -11 R -12 -24 R
-12 -58 R 0 -35 R 12 -59 R 12 -23 R 12 -12 R 23 -11 R D 1992 11750 M 24 11 R
11 12 R 12 23 R 12 59 R 0 35 R -12 58 R -12 24 R -11 11 R -24 12 R D
2220 1832 M 149 0 R D 2220 2255 M 149 0 R D 2220 2679 M 149 0 R D
2220 3102 M 149 0 R D 2220 3949 M 149 0 R D 2220 4373 M 149 0 R D
2220 4796 M 149 0 R D 2220 5220 M 149 0 R D 2220 6067 M 149 0 R D
2220 6490 M 149 0 R D 2220 6914 M 149 0 R D 2220 7337 M 149 0 R D
2220 8184 M 149 0 R D 2220 8608 M 149 0 R D 2220 9031 M 149 0 R D
2220 9455 M 149 0 R D 2220 10302 M 149 0 R D 2220 10726 M 149 0 R D
2220 11149 M 149 0 R D 2220 11573 M 149 0 R D 17114 1408 M 0 10588 R D
17114 1408 M -298 0 R D 17114 3526 M -298 0 R D 17114 5643 M -298 0 R D
17114 7761 M -298 0 R D 17114 9878 M -298 0 R D 17114 11996 M -298 0 R D
17114 1832 M -149 0 R D 17114 2255 M -149 0 R D 17114 2679 M -149 0 R D
17114 3102 M -149 0 R D 17114 3949 M -149 0 R D 17114 4373 M -149 0 R D
17114 4796 M -149 0 R D 17114 5220 M -149 0 R D 17114 6067 M -149 0 R D
17114 6490 M -149 0 R D 17114 6914 M -149 0 R D 17114 7337 M -149 0 R D
17114 8184 M -149 0 R D 17114 8608 M -149 0 R D 17114 9031 M -149 0 R D
17114 9455 M -149 0 R D 17114 10302 M -149 0 R D 17114 10726 M -149 0 R D
17114 11149 M -149 0 R D 17114 11573 M -149 0 R D 4530 2721 M 102 0 R
0 -1186 R 103 0 R 102 0 R 0 -85 R 103 0 R 102 0 R 103 0 R 102 0 R 0 127 R
103 0 R 102 0 R 0 85 R 103 0 R 102 0 R 0 -127 R 103 0 R 102 0 R 0 -42 R
103 0 R 102 0 R 0 127 R 103 0 R 102 0 R 0 -170 R 103 0 R 102 0 R 0 212 R
103 0 R 102 0 R 103 0 R 102 0 R 0 127 R 103 0 R 102 0 R 0 170 R 103 0 R
102 0 R 0 -212 R 103 0 R 102 0 R 0 127 R 103 0 R 102 0 R 0 169 R 103 0 R
102 0 R 0 43 R 103 0 R 102 0 R 0 -254 R 102 0 R 103 0 R 0 550 R 102 0 R
103 0 R 0 -42 R 102 0 R 103 0 R 0 212 R 102 0 R 103 0 R 0 592 R 102 0 R
103 0 R 0 805 R 102 0 R 103 0 R 0 127 R 102 0 R 103 0 R 0 1313 R 102 0 R
103 0 R 0 4193 R 102 0 R 103 0 R 0 254 R 102 0 R 103 0 R 0 -2414 R 102 0 R
103 0 R 0 -3176 R 102 0 R 103 0 R 0 550 R 102 0 R 103 0 R 0 -1228 R 102 0 R
103 0 R 0 -635 R 102 0 R 103 0 R 0 -254 R 102 0 R 103 0 R 0 -297 R 102 0 R
103 0 R 0 -381 R 102 0 R 103 0 R 0 254 R 102 0 R 103 0 R 0 -423 R 102 0 R
103 0 R 0 211 R 102 0 R 103 0 R 102 0 R 102 0 R 0 -296 R 103 0 R 102 0 R
0 42 R 103 0 R 102 0 R 0 -127 R 103 0 R 102 0 R 0 254 R 103 0 R 102 0 R
0 -296 R 103 0 R 102 0 R 0 42 R 103 0 R 102 0 R 0 -127 R 103 0 R 102 0 R
0 170 R 103 0 R 102 0 R 0 -85 R 103 0 R 102 0 R 0 -43 R 103 0 R 102 0 R
0 -42 R 103 0 R 102 0 R 0 -85 R 103 0 R 102 0 R 0 170 R 103 0 R 102 0 R
0 -85 R 103 0 R 102 0 R 0 2499 R 103 0 R D 4427 1423 M 205 205 R D
4632 1878 M -205 -204 R D 4427 1924 M 205 204 R D 4632 2379 M -205 -205 R D
4427 2425 M 205 204 R D 4472 2720 M -45 -45 R D 4661 1407 M 128 127 R D
4954 1450 M -42 -43 R D 5162 1407 M 42 42 R D 5452 1447 M -40 -40 R D
5247 1493 M 84 83 R D 5657 1652 M -204 -205 R D 5663 1408 M 126 126 R D
5998 1493 M -84 -85 R D 6164 1408 M 107 107 R D 6125 1619 M -57 -57 R D
6414 1408 M 41 41 R D 6681 1425 M -17 -17 R D 6477 1471 M 190 190 R D
6887 1630 M -205 -204 R D 6914 1407 M 178 178 R D 7045 1788 M -158 -157 R D
7164 1407 M 133 132 R D 7297 1790 M -205 -205 R D 7092 1836 M 123 122 R D
7502 1494 M -87 -87 R D 7297 1539 M 205 205 R D 7707 1449 M -42 -42 R D
7502 1495 M 205 204 R D 7630 1873 M -128 -128 R D 7707 1449 M 205 205 R D
7912 1904 M -205 -205 R D 7707 1949 M 92 93 R D 8117 1609 M -202 -202 R D
7913 1655 M 204 204 R D 8093 2085 M -180 -180 R D 8166 1407 M 156 156 R D
8322 1814 M -205 -205 R D 8416 1407 M 111 111 R D 8527 1768 M -205 -205 R D
8322 1814 M 205 205 R D 8527 2269 M -205 -205 R D 8322 2314 M 67 68 R D
8732 1473 M -66 -66 R D 8527 1518 M 205 205 R D 8732 1974 M -205 -206 R D
8527 2019 M 205 205 R D 8597 2339 M -70 -70 R D 8917 1407 M 20 21 R D
8937 1678 M -205 -205 R D 8732 1723 M 205 205 R D 8937 2179 M -205 -205 R D
8732 2224 M 205 205 R D 8809 2551 M -77 -77 R D 8937 1428 M 205 205 R D
9142 1883 M -205 -205 R D 8937 1928 M 205 205 R D 9142 2384 M -205 -205 R D
8937 2429 M 205 205 R D 9142 2884 M -205 -205 R D 8937 2930 M 205 205 R D
9347 1587 M -180 -180 R D 9142 1633 M 205 205 R D 9347 2088 M -205 -205 R D
9142 2133 M 205 205 R D 9347 2589 M -205 -205 R D 9142 2634 M 205 205 R D
9347 3089 M -205 -205 R D 9142 3135 M 205 205 R D 9347 3590 M -205 -205 R D
9142 3635 M 205 205 R D 9205 3948 M -63 -62 R D 9417 1407 M 135 134 R D
9552 1792 M -205 -205 R D 9347 1838 M 205 204 R D 9552 2292 M -205 -204 R D
9347 2338 M 205 205 R D 9552 2793 M -205 -204 R D 9347 2839 M 205 204 R D
9551 3293 M -204 -204 R D 9347 3339 M 204 204 R D 9551 3794 M -204 -205 R D
9347 3840 M 204 204 R D 9757 1497 M -89 -90 R D 9552 1542 M 205 205 R D
9757 1998 M -205 -205 R D 9552 2043 M 205 205 R D 9757 2498 M -205 -205 R D
9552 2543 M 205 206 R D 9757 2999 M -205 -205 R D 9552 3044 M 205 205 R D
9757 3499 M -205 -205 R D 9552 3545 M 205 205 R D 9757 4000 M -205 -205 R D
9552 4045 M 205 205 R D 9757 4501 M -205 -205 R D 9552 4546 M 205 205 R D
9757 5001 M -205 -205 R D 9552 5047 M 205 205 R D 9644 5388 M -92 -91 R D
9918 1407 M 44 45 R D 9962 1702 M -205 -205 R D 9757 1747 M 205 205 R D
9962 2203 M -205 -205 R D 9757 2248 M 205 205 R D 9962 2703 M -205 -205 R D
9757 2749 M 205 205 R D 9962 3204 M -205 -205 R D 9757 3249 M 205 205 R D
9962 3705 M -205 -206 R D 9757 3750 M 205 205 R D 9962 4205 M -205 -205 R D
9757 4250 M 205 205 R D 9962 4706 M -205 -205 R D 9757 4751 M 205 205 R D
9962 5206 M -205 -205 R D 9757 5252 M 205 205 R D 9962 5707 M -205 -205 R D
9757 5752 M 205 205 R D 9962 6208 M -205 -205 R D 9757 6253 M 205 205 R D
9962 6708 M -205 -205 R D 9757 6754 M 205 205 R D 9962 7209 M -205 -205 R D
9757 7254 M 205 205 R D 9962 7710 M -205 -205 R D 9757 7755 M 205 205 R D
9962 8210 M -205 -205 R D 9757 8255 M 205 206 R D 9962 8711 M -205 -205 R D
9757 8756 M 205 205 R D 9962 9211 M -205 -205 R D 9757 9257 M 205 205 R D
9832 9581 M -75 -74 R D 9962 1452 M 205 205 R D 10167 1907 M -205 -205 R D
9962 1952 M 205 205 R D 10167 2408 M -205 -205 R D 9962 2453 M 205 205 R D
10167 2908 M -205 -205 R D 9962 2954 M 205 205 R D 10167 3409 M -205 -205 R
D 9962 3454 M 205 205 R D 10167 3910 M -205 -205 R D 9962 3955 M 205 205 R D
10167 4410 M -205 -205 R D 9962 4455 M 205 206 R D 10167 4911 M -205 -205 R
D 9962 4956 M 205 205 R D 10167 5411 M -205 -205 R D 9962 5457 M 205 205 R D
10167 5912 M -205 -205 R D 9962 5957 M 205 205 R D 10167 6413 M -205 -205 R
D 9962 6458 M 205 205 R D 10167 6913 M -205 -205 R D 9962 6959 M 205 205 R D
10167 7414 M -205 -205 R D 9962 7459 M 205 205 R D 10167 7915 M -205 -205 R
D 9962 7960 M 205 205 R D 10167 8415 M -205 -205 R D 9962 8461 M 205 205 R D
10167 8916 M -205 -205 R D 9962 8961 M 205 205 R D 10167 9417 M -205 -206 R
D 9962 9462 M 205 205 R D 10085 9835 M -123 -123 R D 10168 1407 M 205 204 R
D 10373 1862 M -206 -205 R D 10167 1907 M 206 205 R D 10373 2362 M
-206 -205 R D 10167 2408 M 206 205 R D 10373 2863 M -206 -205 R D
10167 2908 M 206 205 R D 10373 3364 M -206 -205 R D 10167 3409 M 206 205 R D
10373 3864 M -206 -205 R D 10167 3910 M 206 205 R D 10373 4365 M -206 -205 R
D 10167 4410 M 206 205 R D 10373 4866 M -206 -205 R D 10167 4911 M 206 205 R
D 10373 5366 M -206 -205 R D 10167 5411 M 206 206 R D 10373 5867 M
-206 -205 R D 10167 5912 M 206 205 R D 10373 6367 M -206 -205 R D
10167 6413 M 206 205 R D 10373 6868 M -206 -205 R D 10167 6913 M 206 205 R D
10373 7369 M -206 -205 R D 10167 7414 M 8 7 R D 10577 1566 M -158 -158 R D
10373 1611 M 204 205 R D 10577 2066 M -204 -204 R D 10373 2112 M 204 204 R D
10577 2567 M -204 -205 R D 10373 2613 M 204 204 R D 10577 3067 M -205 -205 R
D 10372 3113 M 205 205 R D 10577 3568 M -205 -205 R D 10372 3613 M 205 205 R
D 10577 4069 M -205 -205 R D 10372 4114 M 131 131 R D 10782 1520 M
-112 -112 R D 10577 1566 M 205 205 R D 10782 2021 M -205 -205 R D
10577 2066 M 205 205 R D 10782 2522 M -205 -206 R D 10577 2567 M 205 205 R D
10782 3022 M -205 -205 R D 10577 3067 M 205 205 R D 10782 3523 M -205 -205 R
D 10577 3568 M 205 205 R D 10782 4023 M -205 -205 R D 10577 4069 M 205 205 R
D 10782 4524 M -205 -205 R D 10577 4569 M 205 205 R D 10987 1475 M -67 -67 R
D 10782 1520 M 205 205 R D 10987 1976 M -205 -205 R D 10782 2021 M 205 205 R
D 10987 2476 M -205 -205 R D 10782 2522 M 205 205 R D 10987 2977 M
-205 -205 R D 10782 3022 M 205 205 R D 10987 3478 M -205 -206 R D
10782 3523 M 45 44 R D 11192 1430 M -22 -22 R D 10987 1475 M 205 205 R D
11192 1930 M -205 -205 R D 10987 1976 M 205 205 R D 11192 2431 M -205 -205 R
D 10987 2476 M 205 205 R D 11192 2932 M -205 -205 R D 11192 1430 M 205 205 R
D 11397 1885 M -205 -205 R D 11192 1930 M 205 205 R D 11397 2386 M
-205 -205 R D 11192 2431 M 205 205 R D 11602 1589 M -182 -181 R D
11397 1635 M 205 204 R D 11602 2090 M -205 -205 R D 11397 2135 M 205 205 R D
11807 1544 M -137 -137 R D 11602 1590 M 205 204 R D 11763 2000 M -161 -160 R
D 11920 1407 M 92 91 R D 12012 1749 M -205 -205 R D 11807 1794 M 205 205 R D
12012 2249 M -205 -205 R D 12171 1407 M 46 46 R D 12217 1703 M -205 -205 R D
12012 1749 M 82 82 R D 12422 1408 M -1 -1 R D 12217 1453 M 205 205 R D
12422 1908 M -205 -205 R D 12217 1954 M 88 88 R D 12626 1612 M -204 -204 R D
12422 1658 M 204 205 R D 12555 2042 M -133 -134 R D 12672 1408 M 158 158 R D
12760 1746 M -134 -134 R D 12922 1407 M 114 114 R D 13036 1772 M -205 -205 R
D 13172 1407 M 69 69 R D 13176 1661 M -140 -139 R D 13422 1407 M 24 23 R D
13446 1681 M -205 -205 R D 13241 1727 M 189 189 R D 13634 1619 M -188 -189 R
D 13673 1407 M 183 183 R D 13676 1661 M -25 -25 R D 13923 1407 M 127 127 R D
14266 1500 M -93 -93 R D 14061 1545 M 159 159 R D 14471 1455 M -47 -48 R D
14266 1500 M 119 119 R D 14676 1409 M -2 -2 R D 14471 1455 M 122 122 R D
14801 1534 M -125 -125 R D 14924 1407 M 43 43 R D 15291 1524 M -116 -117 R D
15086 1569 M 50 50 R D 15496 1479 M -71 -72 R D 15291 1524 M 11 10 R D
15701 1433 M -26 -26 R D 15496 1479 M 205 205 R D 15701 1934 M -205 -205 R D
15496 1979 M 205 205 R D 15701 2435 M -205 -205 R D 15496 2480 M 205 205 R D
15701 2935 M -205 -205 R D 15496 2980 M 205 206 R D 15701 3436 M -205 -205 R
D 15496 3481 M 205 205 R D 15701 3936 M -205 -205 R D 15496 3982 M 52 51 R D
4427 1408 M 57 0 R 57 0 R 56 0 R 57 0 R 57 0 R 56 0 R 57 0 R 57 0 R 56 0 R
57 0 R 57 0 R 56 0 R 57 0 R 57 0 R 56 0 R 57 0 R 57 0 R 56 0 R 57 0 R 56 0 R
57 0 R 57 0 R 56 0 R 57 0 R 57 0 R 56 0 R 57 0 R 57 0 R 56 0 R 57 0 R 57 0 R
56 0 R 57 0 R 57 0 R 56 0 R 57 0 R 57 0 R 56 0 R 57 0 R 57 0 R 56 0 R 57 0 R
56 0 R 57 0 R 57 0 R 56 0 R 57 0 R 57 0 R 56 0 R 57 0 R 57 0 R 56 0 R 57 0 R
57 0 R 56 0 R 57 0 R 57 0 R 56 0 R 57 0 R 57 1 R 56 0 R 57 1 R 56 0 R 57 2 R
57 2 R 56 3 R 57 4 R 57 6 R 56 9 R 57 12 R 57 18 R 56 23 R 57 31 R 57 42 R
56 55 R 57 70 R 57 90 R 56 112 R 57 139 R 57 169 R 56 202 R 57 239 R
57 277 R 56 317 R 57 356 R 56 394 R 57 426 R 57 454 R 56 473 R 57 482 R
57 480 R 56 465 R 57 436 R 57 394 R 56 339 R 57 272 R 57 195 R 56 112 R
57 23 R 57 -65 R 56 -151 R 57 -232 R 57 -305 R 56 -366 R 57 -416 R 57 -451 R
56 -474 R 57 -482 R 56 -480 R 57 -465 R 57 -442 R 56 -411 R 57 -376 R
57 -338 R 56 -299 R 57 -259 R 57 -221 R 56 -186 R 57 -155 R 57 -126 R
56 -101 R 57 -80 R 57 -63 R 56 -48 R 57 -36 R 57 -28 R 56 -20 R 57 -15 R
57 -10 R 56 -8 R 57 -5 R 56 -4 R 57 -2 R 57 -2 R 56 -1 R 57 -1 R 57 0 R
56 0 R 57 -1 R 57 0 R 56 0 R 57 0 R 57 0 R 56 0 R 57 0 R 57 0 R 56 0 R
57 0 R 57 0 R 56 0 R 57 0 R 57 0 R 56 0 R 57 0 R 56 0 R 57 0 R 57 0 R 56 0 R
57 0 R 57 0 R 56 0 R 57 0 R 57 0 R 56 0 R 57 0 R 57 0 R 56 0 R 57 0 R 57 0 R
56 0 R 57 0 R 57 0 R 56 0 R 57 0 R 57 0 R 56 0 R 57 0 R 56 0 R 57 0 R 57 0 R
56 0 R 57 0 R 57 0 R 56 0 R 57 0 R 57 0 R 56 0 R 57 0 R 57 0 R 56 0 R 57 0 R
57 0 R 56 0 R 57 0 R 57 0 R 56 0 R 57 0 R 57 0 R 56 0 R D 3061 11737 M
-67 -278 R D 3118 11737 M -67 -278 R D 2994 11632 M 134 0 R D 2984 11574 M
134 0 R D 3204 11536 M -9 9 R 9 10 R 10 -10 R 0 -28 R -10 -20 R -9 -9 R D
3473 11670 M -58 -211 R D 3482 11670 M -57 -211 R D 3473 11641 M -10 -57 R
0 -29 R 19 -19 R 19 0 R 19 9 R 20 19 R 19 29 R D 3578 11670 M -29 -106 R
0 -19 R 10 -9 R 29 0 R 19 19 R 9 19 R D 3588 11670 M -29 -106 R 0 -19 R
9 -9 R D 3674 11536 M -10 9 R 10 10 R 9 -10 R 0 -28 R -9 -20 R -10 -9 R D
4057 11670 M -96 0 R -29 -10 R -19 -28 R -9 -29 R 0 -29 R 9 -19 R 10 -10 R
19 -9 R 19 0 R 29 9 R 19 29 R 10 29 R 0 29 R -10 19 R -9 9 R -20 10 R D
3961 11670 M -19 -10 R -19 -28 R -10 -29 R 0 -39 R 10 -19 R D 3961 11536 M
19 9 R 20 29 R 9 29 R 0 38 R -9 19 R 57 0 R D 4115 11651 M 172 0 R D
4115 11593 M 172 0 R D 4689 11699 M 20 9 R 28 29 R 0 -201 R D 4967 11737 M
-96 0 R -9 -86 R 9 9 R 29 10 R 29 0 R 29 -10 R 19 -19 R 9 -29 R 0 -19 R
-9 -29 R -19 -19 R -29 -9 R -29 0 R -29 9 R -9 10 R -10 19 R D 5073 11699 M
19 9 R 29 29 R 0 -201 R D 5350 11737 M -95 0 R -10 -86 R 10 9 R 28 10 R
29 0 R 29 -10 R 19 -19 R 10 -29 R 0 -19 R -10 -29 R -19 -19 R -29 -9 R
-29 0 R -28 9 R -10 10 R -10 19 R D 5456 11545 M -10 -9 R -9 9 R 9 10 R
10 -10 R 0 -28 R -10 -20 R -9 -9 R D 6012 11699 M 19 9 R 28 29 R 0 -201 R D
6194 11555 M -10 -10 R 10 -9 R 9 9 R -9 10 R D 6328 11737 M -29 -10 R
-19 -28 R -10 -48 R 0 -29 R 10 -48 R 19 -29 R 29 -9 R 19 0 R 29 9 R 19 29 R
9 48 R 0 29 R -9 48 R -19 28 R -29 10 R -19 0 R D 6491 11699 M 19 9 R
29 29 R 0 -201 R D 6778 11670 M -10 -29 R -19 -19 R -28 -10 R -10 0 R
-29 10 R -19 19 R -10 29 R 0 9 R 10 29 R 19 19 R 29 10 R 10 0 R 28 -10 R
19 -19 R 10 -38 R 0 -48 R -10 -48 R -19 -29 R -28 -9 R -20 0 R -28 9 R
-10 19 R D 6874 11699 M 19 9 R 29 29 R 0 -201 R D 7065 11545 M -9 -9 R
-10 9 R 10 10 R 9 -10 R 0 -28 R -9 -20 R -10 -9 R D 7650 11737 M -29 -10 R
-19 -28 R -10 -48 R 0 -29 R 10 -48 R 19 -29 R 29 -9 R 19 0 R 29 9 R 19 29 R
10 48 R 0 29 R -10 48 R -19 28 R -29 10 R -19 0 R D 7803 11555 M -9 -10 R
9 -9 R 10 9 R -10 10 R D 7937 11737 M -28 -10 R -20 -28 R -9 -48 R 0 -29 R
9 -48 R 20 -29 R 28 -9 R 20 0 R 28 9 R 19 29 R 10 48 R 0 29 R -10 48 R
-19 28 R -28 10 R -20 0 R D 8081 11689 M 0 10 R 10 19 R 9 9 R 19 10 R 39 0 R
19 -10 R 9 -9 R 10 -19 R 0 -20 R -10 -19 R -19 -28 R -96 -96 R 135 0 R D
8397 11737 M -96 -201 R D 8263 11737 M 134 0 R D 8464 11689 M 0 10 R 10 19 R
9 9 R 20 10 R 38 0 R 19 -10 R 10 -9 R 9 -19 R 0 -20 R -9 -19 R -19 -28 R
-96 -96 R 134 0 R D
%%PageTrailer
end
%%PageResources: font Helvetica
%%Trailer
%%Pages: 1
%%DocumentNeededResources: font Helvetica
%%EOF
