%!PS-Adobe-3.0 EPSF-3.0
%%BoundingBox: 0 0 504 360
%%Title: Graphics produced by IDL
%%For: Aaron@Aaron, /home/Aaron
%%Creator: IDL Version 7.1 (linux x86 m32)
%%CreationDate: Tue Feb 22 13:06:06 2011
%%DocumentData: Clean7bit
%%LanguageLevel: 1
%%PageOrder: Ascend
%%Pages: (atend)
%%DocumentNeededResources: (atend)
%%EndComments
%%BeginProlog
%+ prolog.ps -- Prolog for IDL generated PostScript files
%+ Copyright (c) 1988-2009 ITT Visual Information Solutions. All Rights Reserved.
%v 5
/$IDL_DICT 40 dict def $IDL_DICT begin /bdef { bind def } bind def /C
{currentpoint newpath moveto} bdef /CP {currentpoint} bdef /D {currentpoint
stroke moveto} bdef /F {closepath fill} bdef /K { setgray } bdef /M {moveto}
bdef /N {rmoveto} bdef /P {lineto} bdef /R {rlineto} bdef /S {gsave show
grestore} bdef /X {currentpoint pop} bdef /Z {gsave currentpoint lineto 20
setlinewidth 1 setlinecap stroke grestore} bdef /L0 {[] 0 setdash} bdef /L1
{[40 100] 0 setdash} bdef /L2 {[200 200] 0 setdash} bdef /L3 {[200 100 50
100] 0 setdash} bdef /L4 {[300 100 50 100 50 100 50 100] 0 setdash} bdef /L5
{[400 200] 0 setdash} bdef /STDFONT { findfont exch scalefont setfont } bdef
/ISOFONT { findfont dup length dict begin { 1 index /FID ne {def} {pop pop}
ifelse } forall /Encoding ISOLatin1Encoding def currentdict end /idltmpfont
exch definefont exch scalefont setfont } bdef /ISOBULLET { gsave /Helvetica
findfont exch scalefont setfont (\267) show currentpoint grestore moveto}
bdef /MITERLIMIT { 2.5 setmiterlimit } bdef end
%%EndProlog
%%Page: 0 1
%%PageResources: (atend)
%%PageOrientation: Portrait
%%PageBoundingBox: 0 0 504 360
%%BeginPageSetup
$IDL_DICT begin 0.0283465 dup scale MITERLIMIT
%%IncludeResource: font Helvetica
423.333 /Helvetica STDFONT
%%EndPageSetup
10 setlinewidth L0 0.000 K 2220 1408 M 14894 0 R D 2220 1408 M 0 212 R D
2021 1125 M -35 -11 R -23 -35 R -12 -59 R 0 -35 R 12 -58 R 23 -35 R 35 -12 R
24 0 R 35 12 R 23 35 R 12 58 R 0 35 R -12 59 R -23 35 R -35 11 R -24 0 R
-23 -11 R -12 -12 R -11 -23 R -12 -59 R 0 -35 R 12 -58 R 11 -24 R 12 -11 R
23 -12 R D 2045 880 M 23 12 R 12 11 R 12 24 R 11 58 R 0 35 R -11 59 R
-12 23 R -12 12 R -23 11 R D 2208 903 M -11 -11 R 11 -12 R 12 12 R -12 11 R
D 2442 1090 M -12 -11 R 12 -12 R 12 12 R 0 11 R -12 24 R -23 11 R -35 0 R
-35 -11 R -24 -24 R -11 -23 R -12 -47 R 0 -70 R 12 -35 R 23 -23 R 35 -12 R
23 0 R 35 12 R 24 23 R 11 35 R 0 12 R -11 35 R -24 23 R -35 12 R -11 0 R
-35 -12 R -24 -23 R -11 -35 R D 2384 1125 M -24 -11 R -23 -24 R -12 -23 R
-11 -47 R 0 -70 R 11 -35 R 24 -23 R 23 -12 R D 2395 880 M 24 12 R 23 23 R
12 35 R 0 12 R -12 35 R -23 23 R -24 12 R D 5199 1408 M 0 212 R D
5000 1125 M -35 -11 R -23 -35 R -12 -59 R 0 -35 R 12 -58 R 23 -35 R 35 -12 R
24 0 R 35 12 R 23 35 R 12 58 R 0 35 R -12 59 R -23 35 R -35 11 R -24 0 R
-23 -11 R -12 -12 R -11 -23 R -12 -59 R 0 -35 R 12 -58 R 11 -24 R 12 -11 R
23 -12 R D 5024 880 M 23 12 R 12 11 R 11 24 R 12 58 R 0 35 R -12 59 R
-11 23 R -12 12 R -23 11 R D 5187 903 M -11 -11 R 11 -12 R 12 12 R -12 11 R
D 5339 1125 M -35 -11 R -12 -24 R 0 -35 R 12 -23 R 35 -12 R 47 0 R 35 12 R
12 23 R 0 35 R -12 24 R -35 11 R -47 0 R -23 -11 R -12 -24 R 0 -35 R
12 -23 R 23 -12 R D 5386 1020 M 23 12 R 12 23 R 0 35 R -12 24 R -23 11 R D
5339 1020 M -35 -11 R -12 -12 R -11 -23 R 0 -47 R 11 -24 R 12 -11 R 35 -12 R
47 0 R 35 12 R 12 11 R 11 24 R 0 47 R -11 23 R -12 12 R -35 11 R D
5339 1020 M -23 -11 R -12 -12 R -12 -23 R 0 -47 R 12 -24 R 12 -11 R 23 -12 R
D 5386 880 M 23 12 R 12 11 R 12 24 R 0 47 R -12 23 R -12 12 R -23 11 R D
8178 1408 M 0 212 R D 7944 1079 M 23 11 R 35 35 R 0 -245 R D 7991 1114 M
0 -234 R D 7944 880 M 105 0 R D 8166 903 M -12 -11 R 12 -12 R 12 12 R
-12 11 R D 8330 1125 M -35 -11 R -24 -35 R -12 -59 R 0 -35 R 12 -58 R
24 -35 R 35 -12 R 23 0 R 35 12 R 23 35 R 12 58 R 0 35 R -12 59 R -23 35 R
-35 11 R -23 0 R -24 -11 R -11 -12 R -12 -23 R -12 -59 R 0 -35 R 12 -58 R
12 -24 R 11 -11 R 24 -12 R D 8353 880 M 23 12 R 12 11 R 12 24 R 11 58 R
0 35 R -11 59 R -12 23 R -12 12 R -23 11 R D 11156 1408 M 0 212 R D
10923 1079 M 23 11 R 35 35 R 0 -245 R D 10970 1114 M 0 -234 R D 10923 880 M
105 0 R D 11145 903 M -12 -11 R 12 -12 R 11 12 R -11 11 R D 11250 1079 M
12 -12 R -12 -12 R -12 12 R 0 12 R 12 23 R 12 12 R 35 11 R 46 0 R 35 -11 R
12 -12 R 12 -23 R 0 -24 R -12 -23 R -35 -23 R -58 -24 R -24 -11 R -23 -24 R
-12 -35 R 0 -35 R D 11343 1125 M 24 -11 R 11 -12 R 12 -23 R 0 -24 R
-12 -23 R -35 -23 R -46 -24 R D 11238 903 M 12 12 R 23 0 R 59 -23 R 35 0 R
23 11 R 12 12 R D 11273 915 M 59 -35 R 46 0 R 12 12 R 12 23 R 0 23 R D
14135 1408 M 0 212 R D 13902 1079 M 23 11 R 35 35 R 0 -245 R D 13948 1114 M
0 -234 R D 13902 880 M 105 0 R D 14124 903 M -12 -11 R 12 -12 R 11 12 R
-11 11 R D 14322 1102 M 0 -222 R D 14334 1125 M 0 -245 R D 14334 1125 M
-129 -175 R 187 0 R D 14287 880 M 82 0 R D 17114 1408 M 0 212 R D
16880 1079 M 24 11 R 35 35 R 0 -245 R D 16927 1114 M 0 -234 R D 16880 880 M
106 0 R D 17102 903 M -11 -11 R 11 -12 R 12 12 R -12 11 R D 17336 1090 M
-12 -11 R 12 -12 R 12 12 R 0 11 R -12 24 R -23 11 R -35 0 R -35 -11 R
-24 -24 R -11 -23 R -12 -47 R 0 -70 R 12 -35 R 23 -23 R 35 -12 R 23 0 R
35 12 R 24 23 R 11 35 R 0 12 R -11 35 R -24 23 R -35 12 R -11 0 R -35 -12 R
-24 -23 R -11 -35 R D 17278 1125 M -24 -11 R -23 -24 R -12 -23 R -11 -47 R
0 -70 R 11 -35 R 24 -23 R 23 -12 R D 17289 880 M 24 12 R 23 23 R 12 35 R
0 12 R -12 35 R -23 23 R -24 12 R D 2965 1408 M 0 106 R D 3709 1408 M
0 106 R D 4454 1408 M 0 106 R D 5944 1408 M 0 106 R D 6688 1408 M 0 106 R D
7433 1408 M 0 106 R D 8922 1408 M 0 106 R D 9667 1408 M 0 106 R D
10412 1408 M 0 106 R D 11901 1408 M 0 106 R D 12646 1408 M 0 106 R D
13391 1408 M 0 106 R D 14880 1408 M 0 106 R D 15625 1408 M 0 106 R D
16369 1408 M 0 106 R D 2220 11996 M 14894 0 R D 2220 11996 M 0 -212 R D
5199 11996 M 0 -212 R D 8178 11996 M 0 -212 R D 11156 11996 M 0 -212 R D
14135 11996 M 0 -212 R D 17114 11996 M 0 -212 R D 2965 11996 M 0 -106 R D
3709 11996 M 0 -106 R D 4454 11996 M 0 -106 R D 5944 11996 M 0 -106 R D
6688 11996 M 0 -106 R D 7433 11996 M 0 -106 R D 8922 11996 M 0 -106 R D
9667 11996 M 0 -106 R D 10412 11996 M 0 -106 R D 11901 11996 M 0 -106 R D
12646 11996 M 0 -106 R D 13391 11996 M 0 -106 R D 14880 11996 M 0 -106 R D
15625 11996 M 0 -106 R D 16369 11996 M 0 -106 R D 2220 1408 M 0 10588 R D
2220 1408 M 298 0 R D 1969 1653 M -35 -11 R -24 -35 R -11 -59 R 0 -35 R
11 -58 R 24 -35 R 35 -12 R 23 0 R 35 12 R 24 35 R 11 58 R 0 35 R -11 59 R
-24 35 R -35 11 R -23 0 R -23 -11 R -12 -12 R -12 -23 R -12 -59 R 0 -35 R
12 -58 R 12 -24 R 12 -11 R 23 -12 R D 1992 1408 M 24 12 R 11 11 R 12 24 R
12 58 R 0 35 R -12 59 R -12 23 R -11 12 R -24 11 R D 2220 3173 M 298 0 R D
1688 3277 M -23 -117 R 23 24 R 36 12 R 35 0 R 35 -12 R 23 -24 R 12 -35 R
0 -23 R -12 -35 R -23 -23 R -35 -12 R -35 0 R -36 12 R -11 11 R -12 24 R
0 11 R 12 12 R 11 -12 R -11 -11 R D 1759 3196 M 23 -12 R 23 -24 R 12 -35 R
0 -23 R -12 -35 R -23 -23 R -23 -12 R D 1688 3277 M 117 0 R D 1688 3266 M
59 0 R 58 11 R D 1969 3277 M -35 -11 R -24 -35 R -11 -59 R 0 -35 R 11 -58 R
24 -35 R 35 -12 R 23 0 R 35 12 R 24 35 R 11 58 R 0 35 R -11 59 R -24 35 R
-35 11 R -23 0 R -23 -11 R -12 -12 R -12 -23 R -12 -59 R 0 -35 R 12 -58 R
12 -24 R 12 -11 R 23 -12 R D 1992 3032 M 24 12 R 11 11 R 12 24 R 12 58 R
0 35 R -12 59 R -12 23 R -11 12 R -24 11 R D 2220 4937 M 298 0 R D
1466 4995 M 24 12 R 35 35 R 0 -245 R D 1513 5030 M 0 -233 R D 1466 4797 M
106 0 R D 1735 5042 M -35 -12 R -23 -35 R -12 -58 R 0 -35 R 12 -59 R
23 -35 R 35 -11 R 24 0 R 35 11 R 23 35 R 12 59 R 0 35 R -12 58 R -23 35 R
-35 12 R -24 0 R -23 -12 R -12 -11 R -12 -24 R -11 -58 R 0 -35 R 11 -59 R
12 -23 R 12 -12 R 23 -11 R D 1759 4797 M 23 11 R 12 12 R 11 23 R 12 59 R
0 35 R -12 58 R -11 24 R -12 11 R -23 12 R D 1969 5042 M -35 -12 R -24 -35 R
-11 -58 R 0 -35 R 11 -59 R 24 -35 R 35 -11 R 23 0 R 35 11 R 24 35 R 11 59 R
0 35 R -11 58 R -24 35 R -35 12 R -23 0 R -23 -12 R -12 -11 R -12 -24 R
-12 -58 R 0 -35 R 12 -59 R 12 -23 R 12 -12 R 23 -11 R D 1992 4797 M 24 11 R
11 12 R 12 23 R 12 59 R 0 35 R -12 58 R -12 24 R -11 11 R -24 12 R D
2220 6702 M 298 0 R D 1466 6760 M 24 12 R 35 35 R 0 -246 R D 1513 6795 M
0 -234 R D 1466 6561 M 106 0 R D 1688 6807 M -23 -117 R 23 23 R 36 12 R
35 0 R 35 -12 R 23 -23 R 12 -35 R 0 -24 R -12 -35 R -23 -23 R -35 -12 R
-35 0 R -36 12 R -11 12 R -12 23 R 0 12 R 12 11 R 11 -11 R -11 -12 R D
1759 6725 M 23 -12 R 23 -23 R 12 -35 R 0 -24 R -12 -35 R -23 -23 R -23 -12 R
D 1688 6807 M 117 0 R D 1688 6795 M 59 0 R 58 12 R D 1969 6807 M -35 -12 R
-24 -35 R -11 -59 R 0 -35 R 11 -58 R 24 -35 R 35 -12 R 23 0 R 35 12 R
24 35 R 11 58 R 0 35 R -11 59 R -24 35 R -35 12 R -23 0 R -23 -12 R
-12 -12 R -12 -23 R -12 -59 R 0 -35 R 12 -58 R 12 -23 R 12 -12 R 23 -12 R D
1992 6561 M 24 12 R 11 12 R 12 23 R 12 58 R 0 35 R -12 59 R -12 23 R
-11 12 R -24 12 R D 2220 8467 M 298 0 R D 1443 8525 M 12 -12 R -12 -12 R
-12 12 R 0 12 R 12 23 R 12 12 R 35 11 R 47 0 R 35 -11 R 11 -12 R 12 -23 R
0 -24 R -12 -23 R -35 -24 R -58 -23 R -24 -12 R -23 -23 R -12 -35 R 0 -35 R
D 1537 8571 M 23 -11 R 12 -12 R 11 -23 R 0 -24 R -11 -23 R -35 -24 R
-47 -23 R D 1431 8349 M 12 12 R 23 0 R 59 -23 R 35 0 R 23 11 R 12 12 R D
1466 8361 M 59 -35 R 47 0 R 11 12 R 12 23 R 0 23 R D 1735 8571 M -35 -11 R
-23 -35 R -12 -59 R 0 -35 R 12 -58 R 23 -35 R 35 -12 R 24 0 R 35 12 R
23 35 R 12 58 R 0 35 R -12 59 R -23 35 R -35 11 R -24 0 R -23 -11 R
-12 -12 R -12 -23 R -11 -59 R 0 -35 R 11 -58 R 12 -24 R 12 -11 R 23 -12 R D
1759 8326 M 23 12 R 12 11 R 11 24 R 12 58 R 0 35 R -12 59 R -11 23 R
-12 12 R -23 11 R D 1969 8571 M -35 -11 R -24 -35 R -11 -59 R 0 -35 R
11 -58 R 24 -35 R 35 -12 R 23 0 R 35 12 R 24 35 R 11 58 R 0 35 R -11 59 R
-24 35 R -35 11 R -23 0 R -23 -11 R -12 -12 R -12 -23 R -12 -59 R 0 -35 R
12 -58 R 12 -24 R 12 -11 R 23 -12 R D 1992 8326 M 24 12 R 11 11 R 12 24 R
12 58 R 0 35 R -12 59 R -12 23 R -11 12 R -24 11 R D 2220 10231 M 298 0 R D
1443 10289 M 12 -11 R -12 -12 R -12 12 R 0 11 R 12 24 R 12 11 R 35 12 R
47 0 R 35 -12 R 11 -11 R 12 -24 R 0 -23 R -12 -24 R -35 -23 R -58 -23 R
-24 -12 R -23 -23 R -12 -35 R 0 -35 R D 1537 10336 M 23 -12 R 12 -11 R
11 -24 R 0 -23 R -11 -24 R -35 -23 R -47 -23 R D 1431 10114 M 12 12 R 23 0 R
59 -24 R 35 0 R 23 12 R 12 12 R D 1466 10126 M 59 -35 R 47 0 R 11 11 R
12 24 R 0 23 R D 1688 10336 M -23 -117 R 23 23 R 36 12 R 35 0 R 35 -12 R
23 -23 R 12 -35 R 0 -23 R -12 -35 R -23 -24 R -35 -11 R -35 0 R -36 11 R
-11 12 R -12 23 R 0 12 R 12 12 R 11 -12 R -11 -12 R D 1759 10254 M 23 -12 R
23 -23 R 12 -35 R 0 -23 R -12 -35 R -23 -24 R -23 -11 R D 1688 10336 M
117 0 R D 1688 10324 M 59 0 R 58 12 R D 1969 10336 M -35 -12 R -24 -35 R
-11 -58 R 0 -35 R 11 -59 R 24 -35 R 35 -11 R 23 0 R 35 11 R 24 35 R 11 59 R
0 35 R -11 58 R -24 35 R -35 12 R -23 0 R -23 -12 R -12 -11 R -12 -24 R
-12 -58 R 0 -35 R 12 -59 R 12 -23 R 12 -12 R 23 -11 R D 1992 10091 M 24 11 R
11 12 R 12 23 R 12 59 R 0 35 R -12 58 R -12 24 R -11 11 R -24 12 R D
2220 11996 M 298 0 R D 1443 11948 M 12 -11 R -12 -12 R -12 12 R 0 11 R
12 24 R 12 11 R 35 12 R 47 0 R 35 -12 R 11 -23 R 0 -35 R -11 -23 R -35 -12 R
-35 0 R D 1537 11995 M 23 -12 R 12 -23 R 0 -35 R -12 -23 R -23 -12 R
23 -12 R 23 -23 R 12 -24 R 0 -35 R -12 -23 R -11 -12 R -35 -11 R -47 0 R
-35 11 R -12 12 R -12 23 R 0 12 R 12 12 R 12 -12 R -12 -12 R D 1572 11867 M
11 -36 R 0 -35 R -11 -23 R -12 -12 R -23 -11 R D 1735 11995 M -35 -12 R
-23 -35 R -12 -58 R 0 -35 R 12 -59 R 23 -35 R 35 -11 R 24 0 R 35 11 R
23 35 R 12 59 R 0 35 R -12 58 R -23 35 R -35 12 R -24 0 R -23 -12 R
-12 -11 R -12 -24 R -11 -58 R 0 -35 R 11 -59 R 12 -23 R 12 -12 R 23 -11 R D
1759 11750 M 23 11 R 12 12 R 11 23 R 12 59 R 0 35 R -12 58 R -11 24 R
-12 11 R -23 12 R D 1969 11995 M -35 -12 R -24 -35 R -11 -58 R 0 -35 R
11 -59 R 24 -35 R 35 -11 R 23 0 R 35 11 R 24 35 R 11 59 R 0 35 R -11 58 R
-24 35 R -35 12 R -23 0 R -23 -12 R -12 -11 R -12 -24 R -12 -58 R 0 -35 R
12 -59 R 12 -23 R 12 -12 R 23 -11 R D 1992 11750 M 24 11 R 11 12 R 12 23 R
12 59 R 0 35 R -12 58 R -12 24 R -11 11 R -24 12 R D 2220 1761 M 149 0 R D
2220 2114 M 149 0 R D 2220 2467 M 149 0 R D 2220 2820 M 149 0 R D
2220 3526 M 149 0 R D 2220 3879 M 149 0 R D 2220 4232 M 149 0 R D
2220 4584 M 149 0 R D 2220 5290 M 149 0 R D 2220 5643 M 149 0 R D
2220 5996 M 149 0 R D 2220 6349 M 149 0 R D 2220 7055 M 149 0 R D
2220 7408 M 149 0 R D 2220 7761 M 149 0 R D 2220 8114 M 149 0 R D
2220 8820 M 149 0 R D 2220 9173 M 149 0 R D 2220 9526 M 149 0 R D
2220 9878 M 149 0 R D 2220 10584 M 149 0 R D 2220 10937 M 149 0 R D
2220 11290 M 149 0 R D 2220 11643 M 149 0 R D 17114 1408 M 0 10588 R D
17114 1408 M -298 0 R D 17114 3173 M -298 0 R D 17114 4937 M -298 0 R D
17114 6702 M -298 0 R D 17114 8467 M -298 0 R D 17114 10231 M -298 0 R D
17114 11996 M -298 0 R D 17114 1761 M -149 0 R D 17114 2114 M -149 0 R D
17114 2467 M -149 0 R D 17114 2820 M -149 0 R D 17114 3526 M -149 0 R D
17114 3879 M -149 0 R D 17114 4232 M -149 0 R D 17114 4584 M -149 0 R D
17114 5290 M -149 0 R D 17114 5643 M -149 0 R D 17114 5996 M -149 0 R D
17114 6349 M -149 0 R D 17114 7055 M -149 0 R D 17114 7408 M -149 0 R D
17114 7761 M -149 0 R D 17114 8114 M -149 0 R D 17114 8820 M -149 0 R D
17114 9173 M -149 0 R D 17114 9526 M -149 0 R D 17114 9878 M -149 0 R D
17114 10584 M -149 0 R D 17114 10937 M -149 0 R D 17114 11290 M -149 0 R D
17114 11643 M -149 0 R D 2594 2608 M 106 0 R 0 -1200 R 106 0 R 105 0 R
106 0 R 106 0 R 0 71 R 106 0 R 105 0 R 0 -36 R 106 0 R 106 0 R 105 0 R
106 0 R 106 0 R 106 0 R 0 36 R 105 0 R 106 0 R 106 0 R 106 0 R 0 35 R
105 0 R 106 0 R 0 35 R 106 0 R 105 0 R 0 -70 R 106 0 R 106 0 R 0 141 R
106 0 R 105 0 R 106 0 R 106 0 R 0 -141 R 106 0 R 105 0 R 0 317 R 106 0 R
106 0 R 0 -70 R 106 0 R 105 0 R 0 70 R 106 0 R 106 0 R 0 71 R 105 0 R
106 0 R 0 353 R 106 0 R 106 0 R 0 35 R 105 0 R 106 0 R 0 -106 R 106 0 R
106 0 R 0 318 R 105 0 R 106 0 R 0 459 R 106 0 R 106 0 R 0 564 R 105 0 R
106 0 R 0 -211 R 106 0 R 105 0 R 0 705 R 106 0 R 106 0 R 0 2295 R 106 0 R
105 0 R 0 2329 R 106 0 R 106 0 R 0 1129 R 106 0 R 105 0 R 0 -4058 R 106 0 R
106 0 R 0 -530 R 106 0 R 105 0 R 0 -847 R 106 0 R 106 0 R 0 -635 R 105 0 R
106 0 R 0 -141 R 106 0 R 106 0 R 0 -565 R 105 0 R 106 0 R 0 -318 R 106 0 R
106 0 R 0 71 R 105 0 R 106 0 R 0 -106 R 106 0 R 105 0 R 0 -494 R 106 0 R
106 0 R 0 -35 R 106 0 R 105 0 R 0 -247 R 106 0 R 106 0 R 0 35 R 106 0 R
105 0 R 0 -35 R 106 0 R 106 0 R 0 -106 R 106 0 R 105 0 R 0 106 R 106 0 R
106 0 R 0 -177 R 105 0 R 106 0 R 0 -176 R 106 0 R 106 0 R 0 211 R 105 0 R
106 0 R 106 0 R 106 0 R 0 106 R 105 0 R 106 0 R 0 -141 R 106 0 R 106 0 R
0 -176 R 105 0 R 106 0 R 0 -36 R 106 0 R 105 0 R 0 177 R 106 0 R 106 0 R
0 -141 R 106 0 R 105 0 R 106 0 R 106 0 R 0 70 R 106 0 R 105 0 R 106 0 R
106 0 R 0 2753 R 106 0 R D 2659 1407 M 41 41 R D 2700 1698 M -212 -211 R D
2488 1737 M 212 212 R D 2700 2199 M -212 -211 R D 2488 2238 M 212 211 R D
2607 2607 M -119 -119 R D 3159 1407 M 71 71 R D 3445 1442 M -35 -35 R D
3660 1407 M 35 35 R D 3946 1442 M -36 -35 R D 4161 1407 M 19 19 R D
3981 1478 M -12 -12 R D 4180 1427 M 51 51 R D 4517 1513 M -106 -106 R D
4662 1408 M 140 140 R D 4983 1479 M -71 -71 R D 5163 1408 M 75 75 R D
5124 1619 M -98 -97 R D 5413 1408 M 36 36 R D 5374 1619 M -136 -136 R D
5449 1444 M 35 35 R D 5872 1616 M -209 -209 R D 5660 1655 M 140 140 R D
6083 1578 M -170 -171 R D 5873 1617 M 108 108 R D 6295 1539 M -132 -132 R D
6083 1578 M 212 211 R D 6506 1500 M -93 -93 R D 6295 1539 M 211 211 R D
6372 1866 M -77 -76 R D 6664 1407 M 54 55 R D 6718 1712 M -212 -212 R D
6506 1750 M 212 212 R D 6718 2213 M -212 -213 R D 6914 1407 M 15 15 R D
6929 1672 M -211 -210 R D 6718 1712 M 211 211 R D 6929 2173 M -211 -211 R D
6718 2213 M 42 41 R D 7141 1634 M -212 -212 R D 6929 1672 M 212 212 R D
7141 2135 M -212 -212 R D 7164 1407 M 188 188 R D 7352 1845 M -211 -211 R D
7141 1884 M 211 211 R D 7352 2345 M -211 -210 R D 7141 2385 M 81 81 R D
7564 1556 M -149 -149 R D 7352 1595 M 212 212 R D 7564 2057 M -212 -211 R D
7352 2096 M 212 211 R D 7564 2558 M -212 -212 R D 7352 2596 M 212 212 R D
7431 2925 M -79 -78 R D 7665 1407 M 110 110 R D 7775 1767 M -211 -211 R D
7564 1807 M 211 210 R D 7775 2268 M -211 -211 R D 7564 2307 M 211 211 R D
7775 2768 M -211 -210 R D 7564 2808 M 211 211 R D 7775 3269 M -211 -211 R D
7564 3309 M 180 180 R D 7986 1478 M -70 -70 R D 7775 1517 M 211 211 R D
7986 1978 M -211 -211 R D 7775 2017 M 211 212 R D 7986 2479 M -211 -211 R D
7775 2518 M 211 211 R D 7986 2980 M -211 -212 R D 7775 3019 M 211 211 R D
7784 3278 M -9 -9 R D 8166 1408 M 31 31 R D 8197 1689 M -211 -211 R D
7986 1728 M 211 212 R D 8197 2190 M -211 -212 R D 7986 2229 M 211 211 R D
8197 2691 M -211 -212 R D 7986 2729 M 211 212 R D 8197 3191 M -211 -211 R D
7986 3230 M 211 211 R D 8197 3692 M -211 -212 R D 7986 3731 M 212 212 R D
7988 3983 M -2 -2 R D 8198 1440 M 211 210 R D 8409 1901 M -211 -211 R D
8198 1940 M 211 211 R D 8409 2401 M -211 -210 R D 8198 2441 M 211 211 R D
8409 2902 M -211 -211 R D 8198 2942 M 211 210 R D 8409 3403 M -211 -211 R D
8198 3442 M 211 211 R D 8409 3903 M -211 -210 R D 8198 3943 M 211 211 R D
8409 4404 M -211 -211 R D 8198 4443 M 211 211 R D 8409 4904 M -211 -210 R D
8198 4944 M 211 211 R D 8409 5405 M -211 -211 R D 8198 5445 M 211 210 R D
8409 5906 M -211 -211 R D 8198 5945 M 211 211 R D 8281 6278 M -83 -82 R D
8417 1408 M 204 204 R D 8621 1863 M -212 -213 R D 8409 1901 M 212 212 R D
8621 2363 M -212 -212 R D 8409 2401 M 212 212 R D 8621 2864 M -212 -212 R D
8409 2902 M 212 212 R D 8621 3364 M -212 -212 R D 8409 3403 M 212 212 R D
8621 3865 M -212 -212 R D 8409 3903 M 212 212 R D 8621 4366 M -212 -212 R D
8409 4404 M 212 212 R D 8621 4866 M -212 -212 R D 8409 4904 M 212 213 R D
8621 5367 M -212 -212 R D 8409 5405 M 212 212 R D 8621 5868 M -212 -213 R D
8409 5906 M 212 212 R D 8621 6368 M -212 -212 R D 8409 6406 M 212 213 R D
8621 6869 M -212 -212 R D 8409 6907 M 212 212 R D 8621 7369 M -212 -212 R D
8409 7408 M 212 212 R D 8621 7870 M -212 -212 R D 8409 7908 M 212 212 R D
8621 8371 M -212 -212 R D 8409 8409 M 199 199 R D 8832 1573 M -165 -165 R D
8621 1612 M 211 212 R D 8832 2074 M -211 -211 R D 8621 2113 M 211 211 R D
8832 2575 M -211 -212 R D 8621 2613 M 211 212 R D 8832 3075 M -211 -211 R D
8621 3114 M 211 212 R D 8832 3576 M -211 -212 R D 8621 3615 M 211 211 R D
8832 4076 M -211 -211 R D 8621 4115 M 211 212 R D 8832 4577 M -211 -211 R D
8621 4616 M 211 211 R D 8832 5078 M -211 -212 R D 8621 5117 M 211 211 R D
8832 5578 M -211 -211 R D 8621 5617 M 211 212 R D 8832 6079 M -211 -211 R D
8621 6118 M 211 211 R D 8832 6580 M -211 -212 R D 8621 6619 M 211 211 R D
8832 7080 M -211 -211 R D 8621 7119 M 211 212 R D 8832 7581 M -211 -212 R D
8621 7620 M 211 211 R D 8832 8082 M -211 -212 R D 8621 8120 M 211 212 R D
8832 8582 M -211 -211 R D 8621 8621 M 211 211 R D 8832 9083 M -211 -212 R D
8621 9122 M 211 211 R D 8832 9583 M -211 -211 R D 8621 9622 M 114 114 R D
9044 1534 M -127 -126 R D 8832 1573 M 212 212 R D 9044 2035 M -212 -211 R D
8832 2074 M 212 211 R D 9044 2536 M -212 -212 R D 8832 2575 M 212 211 R D
9044 3036 M -212 -211 R D 8832 3075 M 212 212 R D 9044 3537 M -212 -211 R D
8832 3576 M 212 211 R D 9044 4038 M -212 -212 R D 8832 4076 M 212 212 R D
9044 4538 M -212 -211 R D 8832 4577 M 212 212 R D 9044 5039 M -212 -212 R D
8832 5078 M 212 211 R D 9044 5539 M -212 -211 R D 8832 5578 M 100 100 R D
9255 1495 M -87 -87 R D 9044 1534 M 211 211 R D 9255 1995 M -211 -210 R D
9044 2035 M 211 211 R D 9255 2496 M -211 -211 R D 9044 2536 M 211 210 R D
9255 2997 M -211 -211 R D 9044 3036 M 211 211 R D 9255 3497 M -211 -210 R D
9044 3537 M 211 211 R D 9255 3998 M -211 -211 R D 9044 4038 M 211 210 R D
9255 4499 M -211 -211 R D 9044 4538 M 211 211 R D 9255 4999 M -211 -210 R D
9044 5039 M 109 109 R D 9467 1457 M -50 -50 R D 9255 1496 M 212 211 R D
9467 1957 M -212 -211 R D 9255 1996 M 212 212 R D 9467 2458 M -212 -212 R D
9255 2497 M 212 211 R D 9467 2959 M -212 -212 R D 9255 2997 M 212 212 R D
9466 3458 M -211 -210 R D 9255 3497 M 211 212 R D 9466 3959 M -211 -211 R D
9255 3998 M 211 211 R D 9308 4301 M -53 -53 R D 9668 1407 M 9 10 R D
9677 1667 M -210 -210 R D 9467 1708 M 210 210 R D 9677 2168 M -210 -210 R D
9467 2208 M 210 210 R D 9677 2669 M -210 -210 R D 9467 2709 M 210 210 R D
9677 3169 M -210 -210 R D 9467 3210 M 210 209 R D 9674 3666 M -207 -207 R D
9678 1418 M 212 212 R D 9890 1880 M -212 -212 R D 9678 1918 M 212 213 R D
9890 2381 M -212 -212 R D 9678 2419 M 212 212 R D 9890 2881 M -212 -212 R D
9678 2920 M 212 212 R D 9890 3382 M -212 -212 R D 9678 3420 M 106 106 R D
10101 1590 M -183 -183 R D 9890 1630 M 211 211 R D 10101 2091 M -211 -211 R
D 9890 2131 M 211 210 R D 10101 2592 M -211 -211 R D 9890 2631 M 211 211 R D
9969 2960 M -79 -79 R D 10168 1407 M 145 145 R D 10313 1802 M -212 -212 R D
10101 1841 M 212 212 R D 10313 2303 M -212 -212 R D 10101 2341 M 212 212 R D
10151 2642 M -50 -50 R D 10419 1407 M 105 106 R D 10524 1763 M -211 -211 R D
10313 1802 M 211 211 R D 10524 2263 M -211 -210 R D 10313 2303 M 211 211 R D
10473 2713 M -160 -160 R D 10669 1407 M 66 66 R D 10735 1723 M -211 -210 R D
10524 1763 M 211 211 R D 10735 2224 M -211 -211 R D 10524 2263 M 211 211 R D
10617 2607 M -93 -93 R D 10919 1407 M 28 28 R D 10947 1685 M -212 -211 R D
10735 1724 M 212 211 R D 10875 2114 M -140 -140 R D 10947 1435 M 211 211 R D
11158 1896 M -211 -210 R D 10947 1936 M 143 142 R D 11370 1607 M -200 -199 R
D 11158 1646 M 185 185 R D 11581 1568 M -161 -160 R D 11370 1608 M 211 211 R
D 11378 1866 M -8 -8 R D 11671 1408 M 121 121 R D 11792 1780 M -211 -212 R D
11581 1819 M 12 12 R D 12005 1491 M -84 -83 R D 11793 1530 M 195 195 R D
12216 1452 M -45 -44 R D 12005 1491 M 211 212 R D 12094 1831 M -89 -89 R D
12422 1408 M 5 5 R D 12418 1654 M -202 -202 R D 12427 1414 M 65 65 R D
12850 1585 M -179 -178 R D 12640 1626 M 63 63 R D 13062 1547 M -140 -140 R D
12850 1586 M 103 103 R D 13272 1508 M -100 -101 R D 13062 1548 M 210 210 R D
13485 1470 M -63 -63 R D 13273 1508 M 146 147 R D 13696 1430 M -23 -23 R D
13485 1470 M 8 8 R D 13708 1442 M -12 -12 R D 13923 1407 M 196 196 R D
14244 1478 M -71 -71 R D 14424 1407 M 71 72 R D 14753 1486 M -78 -78 R D
14542 1525 M 22 23 R D 14965 1447 M -40 -39 R D 14753 1486 M 62 62 R D
15176 1409 M -1 -1 R D 14965 1448 M 211 211 R D 15176 1909 M -211 -211 R D
14965 1949 M 211 211 R D 15176 2410 M -211 -211 R D 14965 2449 M 211 211 R D
15176 2910 M -211 -210 R D 14966 2951 M 210 210 R D 15176 3411 M -210 -210 R
D 14966 3451 M 210 210 R D 15176 3912 M -210 -210 R D 14966 3952 M 210 210 R
D 15065 4301 M -99 -99 R D 2488 1408 M 64 0 R 64 0 R 64 0 R 63 0 R 64 0 R
64 0 R 64 0 R 63 0 R 64 0 R 64 0 R 64 0 R 63 0 R 64 0 R 64 0 R 64 0 R 64 0 R
63 0 R 64 0 R 64 0 R 64 0 R 63 0 R 64 0 R 64 0 R 64 0 R 63 0 R 64 0 R 64 0 R
64 0 R 63 0 R 64 0 R 64 0 R 64 0 R 63 0 R 64 0 R 64 0 R 64 0 R 63 0 R 64 0 R
64 0 R 64 0 R 63 0 R 64 0 R 64 0 R 64 0 R 63 0 R 64 0 R 64 0 R 64 0 R 64 0 R
63 0 R 64 0 R 64 0 R 64 1 R 63 0 R 64 0 R 64 1 R 64 0 R 63 2 R 64 1 R 64 2 R
64 3 R 63 5 R 64 6 R 64 8 R 64 10 R 63 15 R 64 18 R 64 24 R 64 31 R 63 40 R
64 49 R 64 62 R 64 75 R 63 92 R 64 109 R 64 131 R 64 152 R 64 177 R 63 203 R
64 228 R 64 255 R 64 281 R 63 305 R 64 326 R 64 344 R 64 356 R 63 364 R
64 365 R 64 358 R 64 343 R 63 320 R 64 290 R 64 252 R 64 207 R 63 156 R
64 101 R 64 43 R 64 -15 R 63 -75 R 64 -131 R 64 -184 R 64 -232 R 63 -273 R
64 -307 R 64 -334 R 64 -351 R 63 -363 R 64 -365 R 64 -361 R 64 -350 R
64 -335 R 63 -315 R 64 -292 R 64 -267 R 64 -241 R 63 -215 R 64 -189 R
64 -163 R 64 -141 R 63 -119 R 64 -100 R 64 -82 R 64 -68 R 63 -55 R 64 -43 R
64 -35 R 64 -27 R 63 -21 R 64 -16 R 64 -13 R 64 -9 R 63 -7 R 64 -5 R 64 -3 R
64 -3 R 63 -2 R 64 -1 R 64 -1 R 64 -1 R 64 0 R 63 0 R 64 -1 R 64 0 R 64 0 R
63 0 R 64 0 R 64 0 R 64 0 R 63 0 R 64 0 R 64 0 R 64 0 R 63 0 R 64 0 R 64 0 R
64 0 R 63 0 R 64 0 R 64 0 R 64 0 R 63 0 R 64 0 R 64 0 R 64 0 R 63 0 R 64 0 R
64 0 R 64 0 R 63 0 R 64 0 R 64 0 R 64 0 R 64 0 R 63 0 R 64 0 R 64 0 R 64 0 R
63 0 R 64 0 R 64 0 R 64 0 R 63 0 R 64 0 R 64 0 R 64 0 R 63 0 R 64 0 R 64 0 R
64 0 R 63 0 R 64 0 R 64 0 R 64 0 R 63 0 R 64 0 R 64 0 R 64 0 R 63 0 R 64 0 R
D 3061 11737 M -67 -278 R D 3118 11737 M -67 -278 R D 2994 11632 M 134 0 R D
2984 11574 M 134 0 R D 3204 11536 M -9 9 R 9 10 R 10 -10 R 0 -28 R -10 -20 R
-9 -9 R D 3473 11670 M -58 -211 R D 3482 11670 M -57 -211 R D 3473 11641 M
-10 -57 R 0 -29 R 19 -19 R 19 0 R 19 9 R 20 19 R 19 29 R D 3578 11670 M
-29 -106 R 0 -19 R 10 -9 R 29 0 R 19 19 R 9 19 R D 3588 11670 M -29 -106 R
0 -19 R 9 -9 R D 3674 11536 M -10 9 R 10 10 R 9 -10 R 0 -28 R -9 -20 R
-10 -9 R D 4057 11670 M -96 0 R -29 -10 R -19 -28 R -9 -29 R 0 -29 R 9 -19 R
10 -10 R 19 -9 R 19 0 R 29 9 R 19 29 R 10 29 R 0 29 R -10 19 R -9 9 R
-20 10 R D 3961 11670 M -19 -10 R -19 -28 R -10 -29 R 0 -39 R 10 -19 R D
3961 11536 M 19 9 R 20 29 R 9 29 R 0 38 R -9 19 R 57 0 R D 4115 11651 M
172 0 R D 4115 11593 M 172 0 R D 4689 11699 M 20 9 R 28 29 R 0 -201 R D
4900 11737 M -29 -10 R -9 -19 R 0 -19 R 9 -19 R 20 -10 R 38 -9 R 29 -10 R
19 -19 R 9 -19 R 0 -29 R -9 -19 R -10 -10 R -29 -9 R -38 0 R -29 9 R -9 10 R
-10 19 R 0 29 R 10 19 R 19 19 R 29 10 R 38 9 R 19 10 R 10 19 R 0 19 R
-10 19 R -29 10 R -38 0 R D 5140 11737 M -96 -134 R 144 0 R D 5140 11737 M
0 -201 R D 5293 11737 M -29 -10 R -19 -28 R -10 -48 R 0 -29 R 10 -48 R
19 -29 R 29 -9 R 19 0 R 29 9 R 19 29 R 10 48 R 0 29 R -10 48 R -19 28 R
-29 10 R -19 0 R D 5456 11545 M -10 -9 R -9 9 R 9 10 R 10 -10 R 0 -28 R
-10 -20 R -9 -9 R D 6012 11699 M 19 9 R 28 29 R 0 -201 R D 6194 11555 M
-10 -10 R 10 -9 R 9 9 R -9 10 R D 6328 11737 M -29 -10 R -19 -28 R -10 -48 R
0 -29 R 10 -48 R 19 -29 R 29 -9 R 19 0 R 29 9 R 19 29 R 9 48 R 0 29 R
-9 48 R -19 28 R -29 10 R -19 0 R D 6481 11737 M 105 0 R -57 -77 R 29 0 R
19 -9 R 9 -10 R 10 -29 R 0 -19 R -10 -29 R -19 -19 R -28 -9 R -29 0 R
-29 9 R -10 10 R -9 19 R D 6749 11737 M -96 -134 R 144 0 R D 6749 11737 M
0 -201 R D 6855 11689 M 0 10 R 9 19 R 10 9 R 19 10 R 38 0 R 20 -10 R 9 -9 R
10 -19 R 0 -20 R -10 -19 R -19 -28 R -96 -96 R 134 0 R D 7065 11545 M
-9 -9 R -10 9 R 10 10 R 9 -10 R 0 -28 R -9 -20 R -10 -9 R D 7650 11737 M
-29 -10 R -19 -28 R -10 -48 R 0 -29 R 10 -48 R 19 -29 R 29 -9 R 19 0 R
29 9 R 19 29 R 10 48 R 0 29 R -10 48 R -19 28 R -29 10 R -19 0 R D
7803 11555 M -9 -10 R 9 -9 R 10 9 R -10 10 R D 7937 11737 M -28 -10 R
-20 -28 R -9 -48 R 0 -29 R 9 -48 R 20 -29 R 28 -9 R 20 0 R 28 9 R 19 29 R
10 48 R 0 29 R -10 48 R -19 28 R -28 10 R -20 0 R D 8167 11737 M -96 -134 R
144 0 R D 8167 11737 M 0 -201 R D 8282 11737 M 106 0 R -58 -77 R 29 0 R
19 -9 R 10 -10 R 9 -29 R 0 -19 R -9 -29 R -19 -19 R -29 -9 R -29 0 R -29 9 R
-9 10 R -10 19 R D 8551 11737 M -96 -134 R 143 0 R D 8551 11737 M 0 -201 R D
%%PageTrailer
end
%%PageResources: font Helvetica
%%Trailer
%%Pages: 1
%%DocumentNeededResources: font Helvetica
%%EOF
