%!PS-Adobe-3.0 EPSF-3.0
%%BoundingBox: 0 0 504 360
%%Title: Graphics produced by IDL
%%For: Aaron@Aaron, /home/Aaron
%%Creator: IDL Version 7.1 (linux x86 m32)
%%CreationDate: Tue Feb 22 13:09:25 2011
%%DocumentData: Clean7bit
%%LanguageLevel: 1
%%PageOrder: Ascend
%%Pages: (atend)
%%DocumentNeededResources: (atend)
%%EndComments
%%BeginProlog
%+ prolog.ps -- Prolog for IDL generated PostScript files
%+ Copyright (c) 1988-2009 ITT Visual Information Solutions. All Rights Reserved.
%v 5
/$IDL_DICT 40 dict def $IDL_DICT begin /bdef { bind def } bind def /C
{currentpoint newpath moveto} bdef /CP {currentpoint} bdef /D {currentpoint
stroke moveto} bdef /F {closepath fill} bdef /K { setgray } bdef /M {moveto}
bdef /N {rmoveto} bdef /P {lineto} bdef /R {rlineto} bdef /S {gsave show
grestore} bdef /X {currentpoint pop} bdef /Z {gsave currentpoint lineto 20
setlinewidth 1 setlinecap stroke grestore} bdef /L0 {[] 0 setdash} bdef /L1
{[40 100] 0 setdash} bdef /L2 {[200 200] 0 setdash} bdef /L3 {[200 100 50
100] 0 setdash} bdef /L4 {[300 100 50 100 50 100 50 100] 0 setdash} bdef /L5
{[400 200] 0 setdash} bdef /STDFONT { findfont exch scalefont setfont } bdef
/ISOFONT { findfont dup length dict begin { 1 index /FID ne {def} {pop pop}
ifelse } forall /Encoding ISOLatin1Encoding def currentdict end /idltmpfont
exch definefont exch scalefont setfont } bdef /ISOBULLET { gsave /Helvetica
findfont exch scalefont setfont (\267) show currentpoint grestore moveto}
bdef /MITERLIMIT { 2.5 setmiterlimit } bdef end
%%EndProlog
%%Page: 0 1
%%PageResources: (atend)
%%PageOrientation: Portrait
%%PageBoundingBox: 0 0 504 360
%%BeginPageSetup
$IDL_DICT begin 0.0283465 dup scale MITERLIMIT
%%IncludeResource: font Helvetica
423.333 /Helvetica STDFONT
%%EndPageSetup
10 setlinewidth L0 0.000 K 2220 1408 M 14894 0 R D 2220 1408 M 0 212 R D
2021 1125 M -35 -11 R -23 -35 R -12 -59 R 0 -35 R 12 -58 R 23 -35 R 35 -12 R
24 0 R 35 12 R 23 35 R 12 58 R 0 35 R -12 59 R -23 35 R -35 11 R -24 0 R
-23 -11 R -12 -12 R -11 -23 R -12 -59 R 0 -35 R 12 -58 R 11 -24 R 12 -11 R
23 -12 R D 2045 880 M 23 12 R 12 11 R 12 24 R 11 58 R 0 35 R -11 59 R
-12 23 R -12 12 R -23 11 R D 2208 903 M -11 -11 R 11 -12 R 12 12 R -12 11 R
D 2442 1090 M -12 -11 R 12 -12 R 12 12 R 0 11 R -12 24 R -23 11 R -35 0 R
-35 -11 R -24 -24 R -11 -23 R -12 -47 R 0 -70 R 12 -35 R 23 -23 R 35 -12 R
23 0 R 35 12 R 24 23 R 11 35 R 0 12 R -11 35 R -24 23 R -35 12 R -11 0 R
-35 -12 R -24 -23 R -11 -35 R D 2384 1125 M -24 -11 R -23 -24 R -12 -23 R
-11 -47 R 0 -70 R 11 -35 R 24 -23 R 23 -12 R D 2395 880 M 24 12 R 23 23 R
12 35 R 0 12 R -12 35 R -23 23 R -24 12 R D 5944 1408 M 0 212 R D
5745 1125 M -35 -11 R -23 -35 R -12 -59 R 0 -35 R 12 -58 R 23 -35 R 35 -12 R
23 0 R 35 12 R 24 35 R 11 58 R 0 35 R -11 59 R -24 35 R -35 11 R -23 0 R
-23 -11 R -12 -12 R -12 -23 R -11 -59 R 0 -35 R 11 -58 R 12 -24 R 12 -11 R
23 -12 R D 5768 880 M 24 12 R 11 11 R 12 24 R 12 58 R 0 35 R -12 59 R
-12 23 R -11 12 R -24 11 R D 5932 903 M -12 -11 R 12 -12 R 12 12 R -12 11 R
D 6084 1125 M -35 -11 R -12 -24 R 0 -35 R 12 -23 R 35 -12 R 47 0 R 35 12 R
11 23 R 0 35 R -11 24 R -35 11 R -47 0 R -24 -11 R -11 -24 R 0 -35 R
11 -23 R 24 -12 R D 6131 1020 M 23 12 R 12 23 R 0 35 R -12 24 R -23 11 R D
6084 1020 M -35 -11 R -12 -12 R -12 -23 R 0 -47 R 12 -24 R 12 -11 R 35 -12 R
47 0 R 35 12 R 11 11 R 12 24 R 0 47 R -12 23 R -11 12 R -35 11 R D
6084 1020 M -24 -11 R -11 -12 R -12 -23 R 0 -47 R 12 -24 R 11 -11 R 24 -12 R
D 6131 880 M 23 12 R 12 11 R 11 24 R 0 47 R -11 23 R -12 12 R -23 11 R D
9667 1408 M 0 212 R D 9433 1079 M 24 11 R 35 35 R 0 -245 R D 9480 1114 M
0 -234 R D 9433 880 M 106 0 R D 9655 903 M -11 -11 R 11 -12 R 12 12 R
-12 11 R D 9819 1125 M -35 -11 R -23 -35 R -12 -59 R 0 -35 R 12 -58 R
23 -35 R 35 -12 R 23 0 R 35 12 R 24 35 R 11 58 R 0 35 R -11 59 R -24 35 R
-35 11 R -23 0 R -23 -11 R -12 -12 R -12 -23 R -11 -59 R 0 -35 R 11 -58 R
12 -24 R 12 -11 R 23 -12 R D 9842 880 M 24 12 R 11 11 R 12 24 R 12 58 R
0 35 R -12 59 R -12 23 R -11 12 R -24 11 R D 13391 1408 M 0 212 R D
13157 1079 M 23 11 R 35 35 R 0 -245 R D 13204 1114 M 0 -234 R D 13157 880 M
105 0 R D 13379 903 M -12 -11 R 12 -12 R 12 12 R -12 11 R D 13484 1079 M
12 -12 R -12 -12 R -12 12 R 0 12 R 12 23 R 12 12 R 35 11 R 47 0 R 35 -11 R
11 -12 R 12 -23 R 0 -24 R -12 -23 R -35 -23 R -58 -24 R -24 -11 R -23 -24 R
-12 -35 R 0 -35 R D 13578 1125 M 23 -11 R 12 -12 R 11 -23 R 0 -24 R
-11 -23 R -35 -23 R -47 -24 R D 13472 903 M 12 12 R 23 0 R 59 -23 R 35 0 R
23 11 R 12 12 R D 13507 915 M 59 -35 R 47 0 R 11 12 R 12 23 R 0 23 R D
17114 1408 M 0 212 R D 16880 1079 M 24 11 R 35 35 R 0 -245 R D 16927 1114 M
0 -234 R D 16880 880 M 106 0 R D 17102 903 M -11 -11 R 11 -12 R 12 12 R
-12 11 R D 17301 1102 M 0 -222 R D 17313 1125 M 0 -245 R D 17313 1125 M
-129 -175 R 187 0 R D 17266 880 M 82 0 R D 3151 1408 M 0 106 R D 4082 1408 M
0 106 R D 5013 1408 M 0 106 R D 6874 1408 M 0 106 R D 7805 1408 M 0 106 R D
8736 1408 M 0 106 R D 10598 1408 M 0 106 R D 11529 1408 M 0 106 R D
12460 1408 M 0 106 R D 14321 1408 M 0 106 R D 15252 1408 M 0 106 R D
16183 1408 M 0 106 R D 2220 11996 M 14894 0 R D 2220 11996 M 0 -212 R D
5944 11996 M 0 -212 R D 9667 11996 M 0 -212 R D 13391 11996 M 0 -212 R D
17114 11996 M 0 -212 R D 3151 11996 M 0 -106 R D 4082 11996 M 0 -106 R D
5013 11996 M 0 -106 R D 6874 11996 M 0 -106 R D 7805 11996 M 0 -106 R D
8736 11996 M 0 -106 R D 10598 11996 M 0 -106 R D 11529 11996 M 0 -106 R D
12460 11996 M 0 -106 R D 14321 11996 M 0 -106 R D 15252 11996 M 0 -106 R D
16183 11996 M 0 -106 R D 2220 1408 M 0 10588 R D 2220 1408 M 298 0 R D
1969 1653 M -35 -11 R -24 -35 R -11 -59 R 0 -35 R 11 -58 R 24 -35 R 35 -12 R
23 0 R 35 12 R 24 35 R 11 58 R 0 35 R -11 59 R -24 35 R -35 11 R -23 0 R
-23 -11 R -12 -12 R -12 -23 R -12 -59 R 0 -35 R 12 -58 R 12 -24 R 12 -11 R
23 -12 R D 1992 1408 M 24 12 R 11 11 R 12 24 R 12 58 R 0 35 R -12 59 R
-12 23 R -11 12 R -24 11 R D 2220 4055 M 298 0 R D 1688 4160 M -23 -117 R
23 23 R 36 12 R 35 0 R 35 -12 R 23 -23 R 12 -35 R 0 -24 R -12 -35 R
-23 -23 R -35 -12 R -35 0 R -36 12 R -11 12 R -12 23 R 0 12 R 12 11 R
11 -11 R -11 -12 R D 1759 4078 M 23 -12 R 23 -23 R 12 -35 R 0 -24 R
-12 -35 R -23 -23 R -23 -12 R D 1688 4160 M 117 0 R D 1688 4148 M 59 0 R
58 12 R D 1969 4160 M -35 -12 R -24 -35 R -11 -59 R 0 -35 R 11 -58 R
24 -35 R 35 -12 R 23 0 R 35 12 R 24 35 R 11 58 R 0 35 R -11 59 R -24 35 R
-35 12 R -23 0 R -23 -12 R -12 -12 R -12 -23 R -12 -59 R 0 -35 R 12 -58 R
12 -23 R 12 -12 R 23 -12 R D 1992 3914 M 24 12 R 11 12 R 12 23 R 12 58 R
0 35 R -12 59 R -12 23 R -11 12 R -24 12 R D 2220 6702 M 298 0 R D
1466 6760 M 24 12 R 35 35 R 0 -246 R D 1513 6795 M 0 -234 R D 1466 6561 M
106 0 R D 1735 6807 M -35 -12 R -23 -35 R -12 -59 R 0 -35 R 12 -58 R
23 -35 R 35 -12 R 24 0 R 35 12 R 23 35 R 12 58 R 0 35 R -12 59 R -23 35 R
-35 12 R -24 0 R -23 -12 R -12 -12 R -12 -23 R -11 -59 R 0 -35 R 11 -58 R
12 -23 R 12 -12 R 23 -12 R D 1759 6561 M 23 12 R 12 12 R 11 23 R 12 58 R
0 35 R -12 59 R -11 23 R -12 12 R -23 12 R D 1969 6807 M -35 -12 R -24 -35 R
-11 -59 R 0 -35 R 11 -58 R 24 -35 R 35 -12 R 23 0 R 35 12 R 24 35 R 11 58 R
0 35 R -11 59 R -24 35 R -35 12 R -23 0 R -23 -12 R -12 -12 R -12 -23 R
-12 -59 R 0 -35 R 12 -58 R 12 -23 R 12 -12 R 23 -12 R D 1992 6561 M 24 12 R
11 12 R 12 23 R 12 58 R 0 35 R -12 59 R -12 23 R -11 12 R -24 12 R D
2220 9349 M 298 0 R D 1466 9407 M 24 12 R 35 35 R 0 -246 R D 1513 9442 M
0 -234 R D 1466 9208 M 106 0 R D 1688 9454 M -23 -117 R 23 23 R 36 12 R
35 0 R 35 -12 R 23 -23 R 12 -35 R 0 -24 R -12 -35 R -23 -23 R -35 -12 R
-35 0 R -36 12 R -11 12 R -12 23 R 0 12 R 12 11 R 11 -11 R -11 -12 R D
1759 9372 M 23 -12 R 23 -23 R 12 -35 R 0 -24 R -12 -35 R -23 -23 R -23 -12 R
D 1688 9454 M 117 0 R D 1688 9442 M 59 0 R 58 12 R D 1969 9454 M -35 -12 R
-24 -35 R -11 -59 R 0 -35 R 11 -58 R 24 -35 R 35 -12 R 23 0 R 35 12 R
24 35 R 11 58 R 0 35 R -11 59 R -24 35 R -35 12 R -23 0 R -23 -12 R
-12 -12 R -12 -23 R -12 -59 R 0 -35 R 12 -58 R 12 -23 R 12 -12 R 23 -12 R D
1992 9208 M 24 12 R 11 12 R 12 23 R 12 58 R 0 35 R -12 59 R -12 23 R
-11 12 R -24 12 R D 2220 11996 M 298 0 R D 1443 11948 M 12 -11 R -12 -12 R
-12 12 R 0 11 R 12 24 R 12 11 R 35 12 R 47 0 R 35 -12 R 11 -11 R 12 -24 R
0 -23 R -12 -23 R -35 -24 R -58 -23 R -24 -12 R -23 -23 R -12 -35 R 0 -35 R
D 1537 11995 M 23 -12 R 12 -11 R 11 -24 R 0 -23 R -11 -23 R -35 -24 R
-47 -23 R D 1431 11773 M 12 12 R 23 0 R 59 -24 R 35 0 R 23 12 R 12 12 R D
1466 11785 M 59 -35 R 47 0 R 11 11 R 12 24 R 0 23 R D 1735 11995 M -35 -12 R
-23 -35 R -12 -58 R 0 -35 R 12 -59 R 23 -35 R 35 -11 R 24 0 R 35 11 R
23 35 R 12 59 R 0 35 R -12 58 R -23 35 R -35 12 R -24 0 R -23 -12 R
-12 -11 R -12 -24 R -11 -58 R 0 -35 R 11 -59 R 12 -23 R 12 -12 R 23 -11 R D
1759 11750 M 23 11 R 12 12 R 11 23 R 12 59 R 0 35 R -12 58 R -11 24 R
-12 11 R -23 12 R D 1969 11995 M -35 -12 R -24 -35 R -11 -58 R 0 -35 R
11 -59 R 24 -35 R 35 -11 R 23 0 R 35 11 R 24 35 R 11 59 R 0 35 R -11 58 R
-24 35 R -35 12 R -23 0 R -23 -12 R -12 -11 R -12 -24 R -12 -58 R 0 -35 R
12 -59 R 12 -23 R 12 -12 R 23 -11 R D 1992 11750 M 24 11 R 11 12 R 12 23 R
12 59 R 0 35 R -12 58 R -12 24 R -11 11 R -24 12 R D 2220 1937 M 149 0 R D
2220 2467 M 149 0 R D 2220 2996 M 149 0 R D 2220 3526 M 149 0 R D
2220 4584 M 149 0 R D 2220 5114 M 149 0 R D 2220 5643 M 149 0 R D
2220 6173 M 149 0 R D 2220 7231 M 149 0 R D 2220 7761 M 149 0 R D
2220 8290 M 149 0 R D 2220 8820 M 149 0 R D 2220 9878 M 149 0 R D
2220 10408 M 149 0 R D 2220 10937 M 149 0 R D 2220 11467 M 149 0 R D
17114 1408 M 0 10588 R D 17114 1408 M -298 0 R D 17114 4055 M -298 0 R D
17114 6702 M -298 0 R D 17114 9349 M -298 0 R D 17114 11996 M -298 0 R D
17114 1937 M -149 0 R D 17114 2467 M -149 0 R D 17114 2996 M -149 0 R D
17114 3526 M -149 0 R D 17114 4584 M -149 0 R D 17114 5114 M -149 0 R D
17114 5643 M -149 0 R D 17114 6173 M -149 0 R D 17114 7231 M -149 0 R D
17114 7761 M -149 0 R D 17114 8290 M -149 0 R D 17114 8820 M -149 0 R D
17114 9878 M -149 0 R D 17114 10408 M -149 0 R D 17114 10937 M -149 0 R D
17114 11467 M -149 0 R D 4283 3314 M 126 0 R 0 -1853 R 125 0 R 125 0 R
0 53 R 126 0 R 125 0 R 0 -53 R 125 0 R 125 0 R 0 -53 R 126 0 R 125 0 R
125 0 R 126 0 R 125 0 R 125 0 R 0 318 R 125 0 R 126 0 R 0 -212 R 125 0 R
125 0 R 126 0 R 125 0 R 0 -53 R 125 0 R 125 0 R 0 212 R 126 0 R 125 0 R
0 317 R 125 0 R 126 0 R 0 -53 R 125 0 R 125 0 R 0 -105 R 125 0 R 126 0 R
0 264 R 125 0 R 125 0 R 0 159 R 126 0 R 125 0 R 0 159 R 125 0 R 125 0 R
0 -159 R 126 0 R 125 0 R 0 1271 R 125 0 R 126 0 R 0 1006 R 125 0 R 125 0 R
0 3494 R 125 0 R 126 0 R 0 2488 R 125 0 R 125 0 R 0 -2171 R 126 0 R 125 0 R
0 -3123 R 125 0 R 125 0 R 0 -53 R 126 0 R 125 0 R 0 -2012 R 125 0 R 126 0 R
0 -476 R 125 0 R 125 0 R 0 317 R 125 0 R 126 0 R 0 -476 R 125 0 R 125 0 R
0 -371 R 126 0 R 125 0 R 0 -53 R 125 0 R 125 0 R 126 0 R 125 0 R 0 -53 R
125 0 R 126 0 R 0 -211 R 125 0 R 125 0 R 0 -53 R 125 0 R 126 0 R 0 -53 R
125 0 R 125 0 R 0 -53 R 126 0 R 125 0 R 125 0 R 125 0 R 126 0 R 125 0 R
0 106 R 125 0 R 126 0 R 0 -265 R 125 0 R 125 0 R 0 265 R 125 0 R 126 0 R
0 106 R 125 0 R 125 0 R 0 -318 R 126 0 R 125 0 R 0 106 R 125 0 R 125 0 R
0 4500 R 126 0 R D 4161 1407 M 248 248 R D 4409 1906 M -251 -251 R D
4158 1906 M 251 250 R D 4409 2406 M -251 -250 R D 4158 2406 M 251 251 R D
4409 2907 M -251 -250 R D 4158 2907 M 251 250 R D 4315 3314 M -157 -157 R D
4411 1407 M 53 53 R D 4767 1513 M -106 -106 R D 4913 1409 M 52 51 R D
6162 1657 M -249 -250 R D 5912 1657 M 69 68 R D 6269 1513 M -104 -104 R D
6664 1407 M 0 1 R D 6520 1513 M -107 -106 R D 6664 1408 M 53 52 R D
7164 1657 M -248 -248 R D 6914 1657 M 15 15 R D 7416 1409 M -1 -1 R D
7165 1408 M 251 251 R D 7416 1909 M -251 -251 R D 7165 1908 M 81 81 R D
7666 1408 M Z 7416 1409 M 250 249 R D 7666 1908 M -250 -249 R D 7416 1909 M
27 27 R D 7917 1409 M -2 -2 R D 7666 1408 M 251 252 R D 7839 1831 M
-173 -173 R D 8166 1408 M 1 1 R D 8167 1659 M -250 -250 R D 7917 1660 M
250 249 R D 8103 2095 M -186 -185 R D 8417 1408 M 1 1 R D 8418 1660 M
-251 -251 R D 8167 1659 M 251 251 R D 8418 2160 M -251 -251 R D 8167 2160 M
95 94 R D 8668 1409 M -2 -2 R D 8418 1409 M 250 250 R D 8668 1909 M
-250 -249 R D 8418 1910 M 250 250 R D 8667 2409 M -249 -249 R D 8417 2410 M
4 3 R D 8919 1409 M -2 -2 R D 8668 1409 M 251 251 R D 8919 1910 M
-251 -250 R D 8668 1910 M 251 250 R D 8762 2254 M -94 -94 R D 9167 1407 M
3 3 R D 9170 1660 M -251 -251 R D 8919 1660 M 251 251 R D 9170 2161 M
-251 -251 R D 8919 2160 M 251 251 R D 9170 2662 M -251 -251 R D 8919 2661 M
251 251 R D 9170 3162 M -251 -251 R D 8919 3161 M 250 251 R D 9032 3525 M
-113 -113 R D 9418 1408 M 2 2 R D 9420 1660 M -250 -249 R D 9170 1661 M
250 250 R D 9420 2161 M -250 -250 R D 9170 2162 M 250 249 R D 9420 2662 M
-250 -250 R D 9170 2662 M 250 250 R D 9420 3162 M -250 -249 R D 9170 3163 M
250 249 R D 9420 3663 M -250 -250 R D 9170 3664 M 250 249 R D 9420 4163 M
-250 -249 R D 9170 4164 M 250 250 R D 9287 4531 M -117 -117 R D 9668 1408 M
3 3 R D 9671 1661 M -251 -251 R D 9420 1660 M 251 251 R D 9671 2162 M
-251 -251 R D 9420 2161 M 251 251 R D 9671 2662 M -251 -251 R D 9420 2662 M
251 251 R D 9671 3163 M -251 -251 R D 9420 3162 M 251 251 R D 9671 3664 M
-251 -252 R D 9420 3663 M 251 251 R D 9671 4164 M -251 -251 R D 9420 4163 M
251 251 R D 9671 4665 M -251 -251 R D 9420 4664 M 251 251 R D 9671 5165 M
-251 -251 R D 9420 5165 M 251 251 R D 9671 5666 M -251 -251 R D 9420 5665 M
251 251 R D 9671 6167 M -251 -251 R D 9420 6166 M 251 251 R D 9671 6667 M
-251 -251 R D 9420 6667 M 251 251 R D 9671 7168 M -251 -251 R D 9420 7167 M
251 251 R D 9671 7669 M -251 -251 R D 9420 7668 M 251 251 R D 9527 8025 M
-107 -107 R D 9918 1407 M 3 4 R D 9921 1661 M -250 -250 R D 9671 1661 M
250 250 R D 9921 2162 M -250 -251 R D 9671 2162 M 250 250 R D 9921 2662 M
-250 -250 R D 9671 2662 M 250 251 R D 9921 3163 M -250 -250 R D 9671 3163 M
250 250 R D 9921 3664 M -250 -251 R D 9671 3664 M 250 250 R D 9921 4164 M
-250 -250 R D 9671 4164 M 250 250 R D 9921 4665 M -250 -251 R D 9671 4665 M
250 250 R D 9921 5165 M -250 -250 R D 9671 5165 M 250 251 R D 9921 5666 M
-250 -250 R D 9671 5666 M 250 250 R D 9921 6167 M -250 -251 R D 9671 6167 M
250 250 R D 9921 6667 M -250 -250 R D 9671 6667 M 250 251 R D 9921 7168 M
-250 -250 R D 9671 7168 M 250 250 R D 9921 7669 M -250 -251 R D 9671 7669 M
250 250 R D 9921 8169 M -250 -250 R D 9671 8169 M 250 251 R D 9921 8670 M
-250 -250 R D 9671 8670 M 250 250 R D 9921 9170 M -250 -250 R D 9671 9170 M
250 251 R D 9921 9671 M -250 -250 R D 9671 9671 M 250 250 R D 9921 10172 M
-250 -251 R D 9671 10172 M 250 250 R D 9762 10513 M -91 -91 R D 10168 1407 M
4 4 R D 10172 1661 M -251 -250 R D 9921 1661 M 251 250 R D 10172 2162 M
-251 -251 R D 9921 2162 M 251 250 R D 10172 2662 M -251 -250 R D 9921 2662 M
251 251 R D 10172 3163 M -251 -250 R D 9921 3163 M 251 250 R D 10172 3664 M
-251 -251 R D 9921 3664 M 251 250 R D 10172 4164 M -251 -250 R D 9921 4164 M
251 250 R D 10172 4665 M -251 -251 R D 9921 4665 M 251 250 R D 10172 5165 M
-251 -250 R D 9921 5165 M 251 251 R D 10172 5666 M -251 -250 R D 9921 5666 M
251 250 R D 10172 6167 M -251 -251 R D 9921 6167 M 251 250 R D 10172 6667 M
-251 -250 R D 9921 6667 M 251 251 R D 10172 7168 M -251 -250 R D 9921 7168 M
251 250 R D 10172 7669 M -251 -251 R D 9921 7669 M 251 250 R D 10172 8169 M
-251 -250 R D 9921 8169 M 174 173 R D 10422 1411 M -3 -4 R D 10172 1411 M
250 250 R D 10422 1911 M -250 -249 R D 10172 1912 M 250 250 R D 10422 2412 M
-250 -250 R D 10172 2413 M 250 249 R D 10422 2913 M -250 -250 R D
10172 2913 M 250 250 R D 10422 3413 M -250 -249 R D 10172 3414 M 250 250 R D
10422 3914 M -250 -250 R D 10172 3915 M 250 249 R D 10422 4414 M -250 -249 R
D 10172 4415 M 250 250 R D 10422 4915 M -250 -250 R D 10172 4916 M 250 249 R
D 10225 5219 M -53 -53 R D 10670 1408 M 3 3 R D 10673 1662 M -251 -251 R D
10422 1661 M 251 251 R D 10673 2162 M -251 -251 R D 10422 2162 M 251 251 R D
10673 2663 M -251 -251 R D 10422 2662 M 251 251 R D 10673 3164 M -251 -251 R
D 10422 3163 M 251 251 R D 10673 3664 M -251 -251 R D 10422 3664 M 251 251 R
D 10673 4165 M -251 -251 R D 10422 4164 M 251 251 R D 10673 4665 M
-251 -251 R D 10422 4665 M 251 251 R D 10673 5166 M -251 -251 R D
10422 5165 M Z 10924 1412 M -4 -4 R D 10673 1411 M 251 251 R D 10924 1913 M
-251 -251 R D 10673 1912 M 251 251 R D 10924 2413 M -251 -251 R D
10673 2413 M 251 251 R D 10924 2914 M -251 -251 R D 10673 2913 M 240 241 R D
11174 1412 M -5 -5 R D 10924 1412 M 250 250 R D 11174 1913 M -250 -251 R D
10924 1913 M 250 250 R D 11174 2413 M -250 -250 R D 10924 2413 M 250 251 R D
10939 2679 M -15 -15 R D 11420 1407 M 5 5 R D 11425 1662 M -251 -250 R D
11174 1662 M 251 251 R D 11425 2163 M -251 -250 R D 11174 2163 M 251 250 R D
11425 2664 M -251 -251 R D 11174 2664 M 251 250 R D 11256 2995 M -82 -81 R D
11670 1407 M 5 5 R D 11675 1662 M -250 -249 R D 11425 1663 M 250 250 R D
11675 2163 M -250 -250 R D 11425 2164 M 250 249 R D 11530 2519 M -105 -105 R
D 11921 1408 M 5 5 R D 11926 1663 M -251 -251 R D 11675 1662 M 251 251 R D
11911 2148 M -236 -235 R D 12171 1408 M 5 4 R D 12176 1662 M -250 -249 R D
11926 1663 M 250 250 R D 12108 2095 M -182 -182 R D 12421 1407 M 6 6 R D
12427 1663 M -251 -250 R D 12176 1663 M 251 250 R D 12358 2095 M -182 -182 R
D 12671 1407 M 7 7 R D 12678 1664 M -251 -250 R D 12427 1664 M 251 250 R D
12555 2042 M -128 -128 R D 12922 1407 M 6 7 R D 12928 1664 M -250 -250 R D
12678 1664 M 167 167 R D 13179 1414 M -6 -6 R D 12928 1414 M 251 251 R D
13042 1778 M -114 -114 R D 13423 1408 M 6 6 R D 13429 1664 M -250 -250 R D
13179 1665 M 61 60 R D 13680 1414 M -7 -7 R D 13429 1414 M 251 251 R D
13437 1672 M -8 -7 R D 13924 1408 M 6 6 R D 13930 1665 M -250 -250 R D
13680 1665 M 7 7 R D 14180 1414 M -6 -6 R D 13930 1414 M 250 251 R D
13938 1672 M -8 -7 R D 14424 1408 M 8 8 R D 14432 1666 M -251 -251 R D
14181 1665 M 112 113 R D 14682 1415 M -7 -7 R D 14432 1416 M 98 97 R D
14933 1416 M -9 -9 R D 14682 1416 M 251 250 R D 14795 1778 M -113 -112 R D
15175 1408 M 8 8 R D 15183 1666 M -250 -250 R D 14933 1667 M 218 217 R D
15434 1416 M -8 -8 R D 15183 1416 M 151 150 R D 15684 1416 M -9 -9 R D
15434 1416 M 250 250 R D 15440 1672 M -6 -5 R D 15925 1407 M 10 9 R D
15935 1667 M -251 -251 R D 15684 1667 M 251 250 R D 15935 2167 M -251 -250 R
D 15684 2167 M 251 251 R D 15935 2668 M -251 -250 R D 15684 2668 M 251 250 R
D 15935 3169 M -251 -251 R D 15684 3169 M 251 250 R D 15935 3669 M
-251 -250 R D 15684 3669 M 251 250 R D 15935 4170 M -251 -251 R D
15684 4170 M 251 250 R D 15935 4670 M -251 -250 R D 15684 4670 M 251 251 R D
15935 5171 M -251 -250 R D 15684 5171 M 251 250 R D 15935 5672 M -251 -251 R
D 15684 5672 M 251 250 R D 15935 6172 M -251 -250 R D 15684 6172 M Z
4158 1408 M 59 0 R 59 0 R 60 0 R 59 0 R 59 0 R 59 0 R 59 0 R 60 0 R 59 0 R
59 0 R 59 0 R 59 0 R 59 0 R 60 0 R 59 0 R 59 0 R 59 0 R 59 0 R 60 0 R 59 0 R
59 0 R 59 0 R 59 0 R 59 0 R 60 0 R 59 0 R 59 0 R 59 0 R 59 0 R 59 0 R 60 0 R
59 0 R 59 0 R 59 0 R 59 0 R 60 0 R 59 0 R 59 0 R 59 0 R 59 0 R 59 0 R 60 0 R
59 0 R 59 0 R 59 0 R 59 0 R 60 0 R 59 0 R 59 0 R 59 0 R 59 0 R 59 0 R 60 0 R
59 0 R 59 0 R 59 0 R 59 0 R 60 0 R 59 1 R 59 0 R 59 0 R 59 1 R 59 2 R 60 2 R
59 3 R 59 5 R 59 7 R 59 10 R 60 14 R 59 20 R 59 28 R 59 38 R 59 52 R 59 67 R
60 89 R 59 113 R 59 142 R 59 177 R 59 216 R 60 258 R 59 305 R 59 352 R
59 401 R 59 446 R 59 488 R 60 522 R 59 546 R 59 558 R 59 553 R 59 534 R
60 497 R 59 441 R 59 371 R 59 285 R 59 188 R 59 84 R 60 -24 R 59 -131 R
59 -233 R 59 -324 R 59 -404 R 60 -468 R 59 -516 R 59 -544 R 59 -558 R
59 -554 R 59 -537 R 60 -507 R 59 -471 R 59 -426 R 59 -379 R 59 -331 R
59 -284 R 60 -239 R 59 -198 R 59 -161 R 59 -129 R 59 -101 R 60 -79 R
59 -60 R 59 -45 R 59 -33 R 59 -25 R 59 -17 R 60 -12 R 59 -9 R 59 -6 R
59 -4 R 59 -2 R 60 -2 R 59 -1 R 59 -1 R 59 0 R 59 -1 R 59 0 R 60 0 R 59 0 R
59 0 R 59 0 R 59 0 R 60 0 R 59 0 R 59 0 R 59 0 R 59 0 R 59 0 R 60 0 R 59 0 R
59 0 R 59 0 R 59 0 R 60 0 R 59 0 R 59 0 R 59 0 R 59 0 R 59 0 R 60 0 R 59 0 R
59 0 R 59 0 R 59 0 R 60 0 R 59 0 R 59 0 R 59 0 R 59 0 R 59 0 R 60 0 R 59 0 R
59 0 R 59 0 R 59 0 R 60 0 R 59 0 R 59 0 R 59 0 R 59 0 R 59 0 R 60 0 R 59 0 R
59 0 R 59 0 R 59 0 R 60 0 R 59 0 R 59 0 R 59 0 R 59 0 R 59 0 R 60 0 R 59 0 R
59 0 R 59 0 R 59 0 R 60 0 R 59 0 R 59 0 R 59 0 R D 3061 11737 M -67 -278 R D
3118 11737 M -67 -278 R D 2994 11632 M 134 0 R D 2984 11574 M 134 0 R D
3204 11536 M -9 9 R 9 10 R 10 -10 R 0 -28 R -10 -20 R -9 -9 R D 3473 11670 M
-58 -211 R D 3482 11670 M -57 -211 R D 3473 11641 M -10 -57 R 0 -29 R
19 -19 R 19 0 R 19 9 R 20 19 R 19 29 R D 3578 11670 M -29 -106 R 0 -19 R
10 -9 R 29 0 R 19 19 R 9 19 R D 3588 11670 M -29 -106 R 0 -19 R 9 -9 R D
3674 11536 M -10 9 R 10 10 R 9 -10 R 0 -28 R -9 -20 R -10 -9 R D
4057 11670 M -96 0 R -29 -10 R -19 -28 R -9 -29 R 0 -29 R 9 -19 R 10 -10 R
19 -9 R 19 0 R 29 9 R 19 29 R 10 29 R 0 29 R -10 19 R -9 9 R -20 10 R D
3961 11670 M -19 -10 R -19 -28 R -10 -29 R 0 -39 R 10 -19 R D 3961 11536 M
19 9 R 20 29 R 9 29 R 0 38 R -9 19 R 57 0 R D 4115 11651 M 172 0 R D
4115 11593 M 172 0 R D 4689 11699 M 20 9 R 28 29 R 0 -201 R D 4881 11699 M
19 9 R 29 29 R 0 -201 R D 5063 11737 M 105 0 R -57 -77 R 29 0 R 19 -9 R
9 -10 R 10 -29 R 0 -19 R -10 -29 R -19 -19 R -28 -9 R -29 0 R -29 9 R
-10 10 R -9 19 R D 5283 11737 M -28 -10 R -10 -19 R 0 -19 R 10 -19 R
19 -10 R 38 -9 R 29 -10 R 19 -19 R 10 -19 R 0 -29 R -10 -19 R -10 -10 R
-28 -9 R -39 0 R -28 9 R -10 10 R -10 19 R 0 29 R 10 19 R 19 19 R 29 10 R
38 9 R 19 10 R 10 19 R 0 19 R -10 19 R -28 10 R -39 0 R D 5456 11545 M
-10 -9 R -9 9 R 9 10 R 10 -10 R 0 -28 R -10 -20 R -9 -9 R D 6012 11699 M
19 9 R 28 29 R 0 -201 R D 6194 11555 M -10 -10 R 10 -9 R 9 9 R -9 10 R D
6328 11737 M -29 -10 R -19 -28 R -10 -48 R 0 -29 R 10 -48 R 19 -29 R 29 -9 R
19 0 R 29 9 R 19 29 R 9 48 R 0 29 R -9 48 R -19 28 R -29 10 R -19 0 R D
6491 11699 M 19 9 R 29 29 R 0 -201 R D 6711 11737 M -29 -10 R -19 -28 R
-10 -48 R 0 -29 R 10 -48 R 19 -29 R 29 -9 R 19 0 R 29 9 R 19 29 R 10 48 R
0 29 R -10 48 R -19 28 R -29 10 R -19 0 R D 6874 11699 M 19 9 R 29 29 R
0 -201 R D 7065 11545 M -9 -9 R -10 9 R 10 10 R 9 -10 R 0 -28 R -9 -20 R
-10 -9 R D 7650 11737 M -29 -10 R -19 -28 R -10 -48 R 0 -29 R 10 -48 R
19 -29 R 29 -9 R 19 0 R 29 9 R 19 29 R 10 48 R 0 29 R -10 48 R -19 28 R
-29 10 R -19 0 R D 7803 11555 M -9 -10 R 9 -9 R 10 9 R -10 10 R D
7937 11737 M -28 -10 R -20 -28 R -9 -48 R 0 -29 R 9 -48 R 20 -29 R 28 -9 R
20 0 R 28 9 R 19 29 R 10 48 R 0 29 R -10 48 R -19 28 R -28 10 R -20 0 R D
8081 11689 M 0 10 R 10 19 R 9 9 R 19 10 R 39 0 R 19 -10 R 9 -9 R 10 -19 R
0 -20 R -10 -19 R -19 -28 R -96 -96 R 135 0 R D 8397 11737 M -96 -201 R D
8263 11737 M 134 0 R D 8512 11737 M -29 -10 R -19 -28 R -9 -48 R 0 -29 R
9 -48 R 19 -29 R 29 -9 R 19 0 R 29 9 R 19 29 R 10 48 R 0 29 R -10 48 R
-19 28 R -29 10 R -19 0 R D
%%PageTrailer
end
%%PageResources: font Helvetica
%%Trailer
%%Pages: 1
%%DocumentNeededResources: font Helvetica
%%EOF
