\relax 
\citation{1997AJ....113.1733H}
\citation{1997AJ....113.1733H}
\citation{DaRio10}
\citation{DaRio12}
\citation{1987ApJ...312L..45B}
\citation{Scandariato11}
\citation{1986ApJ...307..609H}
\citation{1997AJ....113.1733H}
\citation{DaRio10}
\citation{Reggiani11}
\citation{1994AJ....108.1382M}
\citation{1998ApJ...492..540H}
\citation{2008hsf1.book..483M}
\citation{2008hsf1.book..544O}
\citation{2008hsf1.book..459B}
\citation{Scandariato11}
\citation{DaRio12}
\citation{1988AJ.....95.1755J}
\citation{Tobin09}
\citation{2007MNRAS.376.1109J}
\citation{2007A&A...466..649K}
\citation{2007PASJ...59..897H}
\citation{2007ApJ...667.1161S}
\citation{2007A&A...474..515M}
\citation{1995ApJ...438..784W}
\citation{1997AJ....113.1733H}
\citation{2000ApJ...540.1016L}
\citation{2004ApJ...610.1045S}
\citation{2007MNRAS.381.1077R}
\citation{2009MNRAS.392..817W}
\citation{DaRio10}
\citation{DaRio12}
\citation{HC00}
\citation{2002ApJ...573..366M}
\citation{2005MNRAS.361..211L}
\@writefile{toc}{\contentsline {section}{\numberline {1}Introduction}{2}}
\@writefile{toc}{\contentsline {subsection}{\numberline {1.1}The Orion Nebula Cluster}{2}}
\citation{Megeath12}
\citation{Mann09}
\citation{2008AJ....136.2136R}
\citation{2005AJ....129..363S}
\citation{2012ApJ...753..149M}
\citation{2001AJ....122.3258R}
\citation{2001AJ....121.3160C}
\citation{2002A&A...396..513H}
\citation{2005ApJ...633..967H}
\citation{2006ApJ...646..297R}
\citation{2007ApJ...671..605C}
\citation{2007ApJ...659L..41P}
\citation{2002ApJ...574..258F}
\citation{2008ApJ...688..418G}
\citation{2008ApJ...677..401P}
\citation{2005ApJ...626..425C}
\citation{2008MNRAS.387L..23P}
\citation{1999AJ....117.1375S}
\citation{2007AJ....134.2272R}
\citation{2006A&A...458..461K}
\citation{DaRio10}
\@writefile{toc}{\contentsline {subsection}{\numberline {1.2}Motivation for Further Spectroscopic Study}{3}}
\citation{Megeath12}
\citation{2012ApJ...753..149M}
\@writefile{toc}{\contentsline {subsection}{\numberline {1.3}Optical Spectral Typing and Challenges in the ONC}{4}}
\@writefile{toc}{\contentsline {section}{\numberline {2}New Optical Spectroscopic Observations}{5}}
\@writefile{toc}{\contentsline {section}{\numberline {3}Raw Data Processing and Spectral Extraction}{6}}
\@writefile{toc}{\contentsline {section}{\numberline {4}Analysis}{6}}
\citation{2007MNRAS.381.1067R}
\citation{1995AJ....109.1379A}
\citation{1991ApJS...77..417K}
\citation{1999ApJ...519..834K}
\@writefile{toc}{\contentsline {subsection}{\numberline {4.1}Spectral Classification Procedure}{7}}
\citation{2004ApJ...610.1045S}
\citation{2008ApJ...689.1295K}
\citation{2004ApJ...610.1045S}
\@writefile{toc}{\contentsline {subsection}{\numberline {4.2}Spectral Classification Quality Control}{9}}
\@writefile{toc}{\contentsline {subsection}{\numberline {4.3}Spectral Type Results}{10}}
\citation{1998AJ....116.1816H}
\citation{1980ApJ...242..628H}
\citation{1993ApJS...85..315S}
\citation{1992ApJS...82..247H}
\citation{2011MNRAS.411.2383K}
\citation{2011MNRAS.411.2383K}
\citation{1998AJ....116.1816H}
\citation{2004ApJ...610.1045S}
\@writefile{toc}{\contentsline {subsection}{\numberline {4.4}CaII Emission Line Results}{11}}
\@writefile{toc}{\contentsline {section}{\numberline {5}Comparison with Previous ONC Spectral Classification Efforts}{12}}
\@writefile{toc}{\contentsline {subsection}{\numberline {5.1}Hillenbrand Spectral Typing}{12}}
\citation{DaRio10}
\citation{DaRio12}
\citation{DaRio12}
\citation{DaRio12}
\citation{DaRio12}
\citation{DaRio12}
\citation{DaRio10}
\citation{DaRio12}
\@writefile{toc}{\contentsline {subsection}{\numberline {5.2}da Rio Photometric Classification}{13}}
\citation{DaRio09}
\bibcite{1995AJ....109.1379A}{{1}{1995}{{Allen \& Strom}}{{}}}
\@writefile{toc}{\contentsline {section}{\numberline {6}Summary}{14}}
\bibcite{2008hsf1.book..459B}{{2}{2008}{{Bally}}{{}}}
\bibcite{1987ApJ...312L..45B}{{3}{1987}{{Bally et al.}}{{}}}
\bibcite{1995SPIE.2476...56B}{{4}{1995}{{Barden \& Armandroff}}{{}}}
\bibcite{2001AJ....121.3160C}{{5}{2001}{{Carpenter et al.}}{{}}}
\bibcite{2007ApJ...671..605C}{{6}{2007}{{Cieza \& Baliber}}{{}}}
\bibcite{2005ApJ...626..425C}{{7}{2005}{{Cunha \& Smith}}{{}}}
\bibcite{2008AJ....136..521D}{{8}{2008}{{Dahm}}{{}}}
\bibcite{2002ApJ...574..258F}{{9}{2002}{{Feigelson et al.}}{{}}}
\bibcite{1981ApJ...247.1039G}{{10}{1981}{{Genzel et al.}}{{}}}
\bibcite{2008ApJ...688..418G}{{11}{2008}{{Getman et al.}}{{}}}
\bibcite{2004MNRAS.350..615G}{{12}{2004}{{Gualandris et al.}}{{}}}
\bibcite{1992ApJS...82..247H}{{13}{1992}{{Hamann \& Persson}}{{}}}
\bibcite{1993PASP..105.1308H}{{14}{1993}{{Hamilton et al.}}{{}}}
\bibcite{1980ApJ...242..628H}{{15}{1980}{{Herbig \& Soderblom}}{{}}}
\bibcite{1986ApJ...307..609H}{{16}{1986}{{Herbig \& Terndrup}}{{}}}
\bibcite{2002A&A...396..513H}{{17}{2002}{{Herbst et al.}}{{}}}
\bibcite{2005ApJ...633..967H}{{18}{2005}{{Herbst \& Mundt}}{{}}}
\bibcite{2008ApJ...681..594H}{{19}{2008}{{Herczeg \& Hillenbrand}}{{}}}
\bibcite{1997AJ....113.1733H}{{20}{1997}{{Hillenbrand}}{{}}}
\bibcite{1998ApJ...492..540H}{{21}{1998}{{Hillenbrand \& Hartmann}}{{}}}
\bibcite{1998AJ....116.1816H}{{22}{1998}{{Hillenbrand et al.}}{{}}}
\bibcite{HC00}{{23}{2000}{{Hillenbrand \& Carpenter}}{{}}}
\bibcite{2007PASJ...59..897H}{{24}{2007}{{Hirota et al.}}{{}}}
\bibcite{2007MNRAS.376.1109J}{{25}{2007}{{Jeffries}}{{}}}
\bibcite{1988AJ.....95.1755J}{{26}{1988}{{Jones \& Walker}}{{}}}
\bibcite{2011MNRAS.411.2383K}{{27}{2011}{{Kwan \& Fischer}}{{}}}
\bibcite{1991ApJS...77..417K}{{28}{1991}{{Kirkpatrick et al.}}{{}}}
\bibcite{1999ApJ...519..834K}{{29}{1999}{{Kirkpatrick et al.}}{{}}}
\bibcite{2008ApJ...689.1295K}{{30}{2008}{{Kirkpatrick et al.}}{{}}}
\bibcite{2006A&A...458..461K}{{31}{2006}{{Kohler et al.}}{{}}}
\bibcite{2007A&A...466..649K}{{32}{2007}{{{Kraus} {et~al.}}}{{{Kraus}, {Balega}, {Berger}, {Hofmann}, {Millan-Gabet}, {Monnier}, {Ohnaka}, {Pedretti}, {Preibisch}, {Schertl}, {Schloerb}, {Traub}, \& {Weigelt}}}}
\bibcite{2000ApJ...540.1016L}{{33}{2000}{{Luhman et al.}}{{}}}
\bibcite{2005MNRAS.361..211L}{{34}{2005}{{Lucas et al.}}{{}}}
\bibcite{Mann09}{{35}{2009}{{Mann \& Williams}}{{}}}
\bibcite{1994AJ....108.1382M}{{36}{1994}{{McCaughrean \& Stauffer}}{{}}}
\bibcite{Megeath12}{{37}{2012}{{Megeath et al.}}{{}}}
\bibcite{2007A&A...474..515M}{{38}{2007}{{Menten et al.}}{{}}}
\bibcite{2012ApJ...753..149M}{{39}{2012}{{Morales-Calder{\'o}n et al.}}{{}}}
\bibcite{2002ApJ...573..366M}{{40}{2002}{{Muench et al.}}{{}}}
\bibcite{2008hsf1.book..483M}{{41}{2008}{{Muench et al.}}{{}}}
\bibcite{1998AJ....116..455M}{{42}{1998}{{Muzerolle et al.}}{{}}}
\bibcite{1973AJ.....78.1074O}{{43}{1973}{{O'Connell}}{{}}}
\bibcite{2008hsf1.book..544O}{{44}{2008}{{O'Dell et al.}}{{}}}
\bibcite{1999ApJ...525..772P}{{45}{1999}{{Palla \& Stahler}}{{}}}
\bibcite{2007ApJ...659L..41P}{{46}{2007}{{Palla et al.}}{{}}}
\bibcite{2008MNRAS.387L..23P}{{47}{2008}{{Petit et al.}}{{}}}
\bibcite{2008ApJ...677..401P}{{48}{2008}{{Prisinzano et al.}}{{}}}
\bibcite{1994ApJ...421..517P}{{49}{1994}{{Prosser et al.}}{{}}}
\bibcite{2006ApJ...646..297R}{{50}{2006}{{Rebull et al.}}{{}}}
\bibcite{Reggiani11}{{51}{2011}{{Reggiani et al.}}{{}}}
\bibcite{2007AJ....134.2272R}{{52}{2007}{{Reipurth et al.}}{{}}}
\bibcite{2001AJ....122.3258R}{{53}{2001}{{Rhode et al.}}{{}}}
\bibcite{2008AJ....136.2136R}{{54}{2008}{{Ricci et al.}}{{}}}
\bibcite{2007MNRAS.381.1067R}{{55}{2007a}{{Riddick et al.}}{{}}}
\bibcite{2007MNRAS.381.1077R}{{56}{2007b}{{Riddick et al.}}{{}}}
\bibcite{DaRio09}{{57}{2009}{{da Rio et al.}}{{}}}
\bibcite{DaRio10}{{58}{2010}{{da Rio et al.}}{{}}}
\bibcite{DaRio12}{{59}{2012}{{da Rio et al.}}{{}}}
\bibcite{2007ApJ...667.1161S}{{60}{2007}{{Sandstrom et al.}}{{}}}
\bibcite{Scandariato11}{{61}{2011}{{Scandariato et al.}}{{}}}
\bibcite{2005AJ....129..363S}{{62}{2005}{{Sicilia-Aguilar et al.}}{{}}}
\bibcite{1999AJ....117.1375S}{{63}{1999}{{Simon et al.}}{{}}}
\bibcite{2004ApJ...610.1045S}{{64}{2004}{{Slesnick et al.}}{{}}}
\bibcite{1993ApJS...85..315S}{{65}{1993}{{Soderblom et al.}}{{}}}
\bibcite{Tobin09}{{66}{2009}{{Tobin et al.}}{{}}}
\bibcite{2009MNRAS.392..817W}{{67}{2009}{{Weights et al.}}{{}}}
\bibcite{1995ApJ...438..784W}{{68}{1995}{{Wen \& O'Dell}}{{}}}
