\relax 
\providecommand\HyperFirstAtBeginDocument{\AtBeginDocument}
\HyperFirstAtBeginDocument{\ifx\hyper@anchor\@undefined
\global\let\oldcontentsline\contentsline
\gdef\contentsline#1#2#3#4{\oldcontentsline{#1}{#2}{#3}}
\global\let\oldnewlabel\newlabel
\gdef\newlabel#1#2{\newlabelxx{#1}#2}
\gdef\newlabelxx#1#2#3#4#5#6{\oldnewlabel{#1}{{#2}{#3}}}
\AtEndDocument{\ifx\hyper@anchor\@undefined
\let\contentsline\oldcontentsline
\let\newlabel\oldnewlabel
\fi}
\fi}
\global\let\hyper@last\relax 
\gdef\HyperFirstAtBeginDocument#1{#1}
\providecommand\HyField@AuxAddToFields[1]{}
\newlabel{FirstPage}{{}{1}{\relax }{section*.1}{}}
\citation{2007A&A...469..363B}
\citation{2003SPIE.4841..286W}
\citation{2001SPIE.4477...76F}
\citation{2006MNRAS.371..829S}
\bibdata{RXCJ2014Notes,RXCJ2014}
\bibcite{2007A&A...469..363B}{{1}{2007}{{{B{\"o}hringer} {et~al.}}}{{{B{\"o}hringer}, {Schuecker}, {Pratt}, {Arnaud}, {Ponman}, {Croston}, {Borgani}, {Bower}, {Briel}, {Collins}, {Donahue}, {Forman}, {Finoguenov}, {Geller}, {Guzzo}, {Henry}, {Kneissl}, {Mohr}, {Matsushita}, {Mullis}, {Ohashi}, {Pedersen}, {Pierini}, {Quintana}, {Raychaudhury}, {Reiprich}, {Romer}, {Rosati}, {Sabirli}, {Temple}, {Viana}, {Vikhlinin}, {Voit}, \& {Zhang}}}}
\bibcite{2001SPIE.4477...76F}{{2}{2001}{{{Freeman} {et~al.}}}{{{Freeman}, {Doe}, \& {Siemiginowska}}}}
\bibcite{2006MNRAS.371..829S}{{3}{2006}{{Sanders}}{{}}}
\bibcite{2003SPIE.4841..286W}{{4}{2003}{{{Walker} {et~al.}}}{{{Walker}, {Boccas}, {Bonati}, {Galvez}, {Martinez}, {Schurter}, {Schmidt}, {Ashe}, {Delgado}, \& {Tighe}}}}
\@writefile{toc}{\contentsline {abstract}{ABSTRACT}{3}{section*.1}}
\@writefile{toc}{\contentsline {section}{\numberline {1}Introduction}{3}{section.1}}
\@writefile{toc}{\contentsline {section}{\numberline {2}Observation}{3}{section.2}}
\@writefile{toc}{\contentsline {subsection}{\numberline {2.1}Chandra X-ray Observation}{3}{subsection.2.1}}
\@writefile{toc}{\contentsline {subsection}{\numberline {2.2}SOAR H$\alpha $ Imaging Observation and Spectra}{3}{subsection.2.2}}
\@writefile{toc}{\contentsline {section}{\numberline {3}Analysis and Discussion}{3}{section.3}}
\@writefile{toc}{\contentsline {subsection}{\numberline {3.1}Temperature and Metallicity Profiles}{3}{subsection.3.1}}
\@writefile{toc}{\contentsline {subsection}{\numberline {3.2}X-ray Temperatures and Metallicity Maps}{3}{subsection.3.2}}
\@writefile{toc}{\contentsline {section}{\numberline {4}Conclusions}{3}{section.4}}
\bibstyle{apj}
\@writefile{lof}{\contentsline {figure}{\numberline {1}{\ignorespaces Here is SOAR Halpha image. Possibly make it composite with the xray contour image on top???}}{4}{figure.1}}
\newlabel{fig:Halpha}{{1}{4}{Here is SOAR Halpha image. Possibly make it composite with the xray contour image on top???\relax }{figure.1}{}}
\@writefile{lof}{\contentsline {figure}{\numberline {2}{\ignorespaces possibly make it composite with H$\alpha $ filaments on top????}}{5}{figure.2}}
\newlabel{fig:Xrayimg}{{2}{5}{possibly make it composite with H$\alpha $ filaments on top????\relax }{figure.2}{}}
\@writefile{lof}{\contentsline {figure}{\numberline {3}{\ignorespaces Here is the X-ray image with the regions overlaid where the surface brightness density was measured. Other plot is the surface brightness density as a function of radius. Not sure if }}{6}{figure.3}}
\newlabel{fig:panda}{{3}{6}{Here is the X-ray image with the regions overlaid where the surface brightness density was measured. Other plot is the surface brightness density as a function of radius. Not sure if\relax }{figure.3}{}}
\@writefile{lof}{\contentsline {figure}{\numberline {4}{\ignorespaces Temperature profile }}{7}{figure.4}}
\newlabel{fig:Tprofile}{{4}{7}{Temperature profile\relax }{figure.4}{}}
\newlabel{LastPage}{{}{7}{}{}{}}
