\relax 
\providecommand\HyperFirstAtBeginDocument{\AtBeginDocument}
\HyperFirstAtBeginDocument{\ifx\hyper@anchor\@undefined
\global\let\oldcontentsline\contentsline
\gdef\contentsline#1#2#3#4{\oldcontentsline{#1}{#2}{#3}}
\global\let\oldnewlabel\newlabel
\gdef\newlabel#1#2{\newlabelxx{#1}#2}
\gdef\newlabelxx#1#2#3#4#5#6{\oldnewlabel{#1}{{#2}{#3}}}
\AtEndDocument{\ifx\hyper@anchor\@undefined
\let\contentsline\oldcontentsline
\let\newlabel\oldnewlabel
\fi}
\fi}
\global\let\hyper@last\relax 
\gdef\HyperFirstAtBeginDocument#1{#1}
\providecommand\HyField@AuxAddToFields[1]{}
\citation{1975ApJ...196..261S}
\@writefile{toc}{\contentsline {section}{\numberline {1}Introduction}{1}{section.1}}
\@writefile{toc}{\contentsline {section}{\numberline {2}Observations}{2}{section.2}}
\citation{1992AJ....104.1563S}
\citation{1990AJ.....99.1243T}
\citation{1992ApJ...386..562W}
\citation{1974psns.coll.....G}
\citation{1974psns.coll..135S}
\@writefile{toc}{\contentsline {section}{\numberline {3}Calibration and Data Analysis}{3}{section.3}}
\@writefile{toc}{\contentsline {subsection}{\numberline {3.1}Dome Flats}{3}{subsection.3.1}}
\@writefile{toc}{\contentsline {subsection}{\numberline {3.2}Unpolarized Targets}{4}{subsection.3.2}}
\citation{1990ApJ...365..224H}
\citation{1979ApJ...227..106S}
\citation{1974MNRAS.166..617W}
\citation{1957BAN....13..301W}
\@writefile{toc}{\contentsline {subsection}{\numberline {3.3}Polarized Targets}{5}{subsection.3.3}}
\@writefile{toc}{\contentsline {subsection}{\numberline {3.4}Data Analysis}{5}{subsection.3.4}}
\citation{2006MNRAS.371..829S}
\citation{1999AJ....117.2185P}
\citation{1999AJ....117.2185P}
\@writefile{toc}{\contentsline {subsection}{\numberline {3.5}Upper limit estimates}{6}{subsection.3.5}}
\@writefile{toc}{\contentsline {section}{\numberline {4}Science Targets}{6}{section.4}}
\@writefile{toc}{\contentsline {subsection}{\numberline {4.1}M87 AGN Polarization}{7}{subsection.4.1}}
\@writefile{toc}{\contentsline {subsection}{\numberline {4.2}M87 H$\alpha $ Polarization}{7}{subsection.4.2}}
\@writefile{toc}{\contentsline {subsection}{\numberline {4.3}NGC4696 H$\alpha $ Polarization}{7}{subsection.4.3}}
\@writefile{toc}{\contentsline {subsection}{\numberline {4.4}Other BCG H$\alpha $ Polarization: Hydra A, Abell 133, Abell 496 }{7}{subsection.4.4}}
\@writefile{toc}{\contentsline {section}{\numberline {5}Conclusions}{7}{section.5}}
\@writefile{toc}{\contentsline {section}{\numberline {6}Polarization}{8}{section.6}}
\@writefile{toc}{\contentsline {subsection}{\numberline {6.1}Astrophysical Polarization}{8}{subsection.6.1}}
\@writefile{toc}{\contentsline {section}{\numberline {7}SOI Observations and Reduction}{8}{section.7}}
\@writefile{toc}{\contentsline {section}{\numberline {8}Calibrations}{8}{section.8}}
\@writefile{toc}{\contentsline {subsection}{\numberline {8.1}Zero Polarization Integrity}{9}{subsection.8.1}}
\@writefile{toc}{\contentsline {subsection}{\numberline {8.2}High Polarization Integrity}{9}{subsection.8.2}}
\@writefile{toc}{\contentsline {subsection}{\numberline {8.3}BCG Analysis}{9}{subsection.8.3}}
\citation{1999AJ....117.2185P}
\bibstyle{apj}
\bibdata{SoarPolarization}
\@writefile{toc}{\contentsline {subsection}{\numberline {8.4}Limits on BCG Polarization}{10}{subsection.8.4}}
\newlabel{tab:obs}{{8.4}{11}{Limits on BCG Polarization\relax }{section*.1}{}}
\@writefile{lof}{\contentsline {figure}{\numberline {1}{\ignorespaces Histograms of NGC1851 stellar fluxes. We present all of the globular cluster histograms for NGC1851. The four plots on the first column are 0-90 relative comparisons. The set on the right are 45$^{\circ }$-135$^{\circ }$ comparisons.}}{11}{figure.1}}
\newlabel{fig:histogram}{{1}{11}{Histograms of NGC1851 stellar fluxes. We present all of the globular cluster histograms for NGC1851. The four plots on the first column are 0-90 relative comparisons. The set on the right are 45$^{\circ }$-135$^{\circ }$ comparisons}{figure.1}{}}
\@writefile{lot}{\contentsline {table}{\numberline {1}{\ignorespaces \tnotemarkskip 8ptObservations}}{12}{table.1}}
\@writefile{lof}{\contentsline {figure}{\numberline {2}{\ignorespaces M87 AGN polarization map.The plot on the left is the the polarization map from \citet  {1999AJ....117.2185P}. }}{13}{figure.2}}
\newlabel{fig:AGN}{{2}{13}{M87 AGN polarization map.The plot on the left is the the polarization map from \citet {1999AJ....117.2185P}}{figure.2}{}}
\@writefile{lof}{\contentsline {figure}{\numberline {3}{\ignorespaces Polarization map of the Crab Nebula. V band image of the Crab Nebula with polarization vectors overplotted. There is a 10\% }}{13}{figure.3}}
\newlabel{fig:crab}{{3}{13}{Polarization map of the Crab Nebula. V band image of the Crab Nebula with polarization vectors overplotted. There is a 10\%\relax }{figure.3}{}}
