\relax 
\providecommand\HyperFirstAtBeginDocument{\AtBeginDocument}
\HyperFirstAtBeginDocument{\ifx\hyper@anchor\@undefined
\global\let\oldcontentsline\contentsline
\gdef\contentsline#1#2#3#4{\oldcontentsline{#1}{#2}{#3}}
\global\let\oldnewlabel\newlabel
\gdef\newlabel#1#2{\newlabelxx{#1}#2}
\gdef\newlabelxx#1#2#3#4#5#6{\oldnewlabel{#1}{{#2}{#3}}}
\AtEndDocument{\ifx\hyper@anchor\@undefined
\let\contentsline\oldcontentsline
\let\newlabel\oldnewlabel
\fi}
\fi}
\global\let\hyper@last\relax 
\gdef\HyperFirstAtBeginDocument#1{#1}
\providecommand*\HyPL@Entry[1]{}
\HyPL@Entry{0<</S/D>>}
\@writefile{toc}{\contentsline {section}{\numberline {1}Introduction}{1}{section.1}}
\@writefile{toc}{\contentsline {section}{\numberline {2}Hardware}{2}{section.2}}
\@writefile{toc}{\contentsline {subsection}{\numberline {2.1}SOAR Telescope}{2}{subsection.2.1}}
\@writefile{toc}{\contentsline {subsection}{\numberline {2.2}SOI}{2}{subsection.2.2}}
\@writefile{toc}{\contentsline {subsection}{\numberline {2.3}Polarization Filters}{2}{subsection.2.3}}
\@writefile{toc}{\contentsline {section}{\numberline {3}Observations}{3}{section.3}}
\@writefile{toc}{\contentsline {section}{\numberline {4}Data Analysis}{3}{section.4}}
\citation{1992AJ....104.1563S}
\citation{1990AJ.....99.1243T}
\@writefile{toc}{\contentsline {section}{\numberline {5}Calibration}{4}{section.5}}
\@writefile{toc}{\contentsline {subsection}{\numberline {5.1}Dome Flats}{4}{subsection.5.1}}
\@writefile{toc}{\contentsline {subsection}{\numberline {5.2}Unpolarized Targets}{5}{subsection.5.2}}
\citation{1990ApJ...365..224H}
\citation{1979ApJ...227..106S}
\citation{1974MNRAS.166..617W}
\citation{1957BAN....13..301W}
\citation{1999AJ....117.2185P}
\citation{1999AJ....117.2185P}
\@writefile{toc}{\contentsline {subsection}{\numberline {5.3}Polarized Targets}{6}{subsection.5.3}}
\@writefile{toc}{\contentsline {section}{\numberline {6}Science Targets}{6}{section.6}}
\@writefile{toc}{\contentsline {subsection}{\numberline {6.1}M87}{6}{subsection.6.1}}
\@writefile{toc}{\contentsline {subsubsection}{\numberline {6.1.1}H$\alpha $}{7}{subsubsection.6.1.1}}
\@writefile{toc}{\contentsline {subsection}{\numberline {6.2}Centaurus}{7}{subsection.6.2}}
\@writefile{toc}{\contentsline {subsection}{\numberline {6.3}Other BCGs: Hydra A, A133, A496 }{7}{subsection.6.3}}
\@writefile{toc}{\contentsline {section}{\numberline {7}Conclusions}{7}{section.7}}
\bibstyle{apj}
\bibdata{Polarization}
\@writefile{lof}{\contentsline {figure}{\numberline {1}{\ignorespaces We present all of the globular cluster histograms for NGC1851. }}{9}{figure.1}}
\newlabel{fig:histogram}{{1}{9}{We present all of the globular cluster histograms for NGC1851}{figure.1}{}}
\@writefile{lof}{\contentsline {figure}{\numberline {2}{\ignorespaces We present all of the globular cluster histograms for NGC1851. }}{10}{figure.2}}
\newlabel{fig:histogram}{{2}{10}{We present all of the globular cluster histograms for NGC1851}{figure.2}{}}
\@writefile{lof}{\contentsline {figure}{\numberline {3}{\ignorespaces We present all of the globular cluster histograms for NGC1851. }}{11}{figure.3}}
\newlabel{fig:histogram}{{3}{11}{We present all of the globular cluster histograms for NGC1851}{figure.3}{}}
\@writefile{lof}{\contentsline {figure}{\numberline {4}{\ignorespaces We present all of the globular cluster histograms for NGC1851. }}{12}{figure.4}}
\newlabel{fig:histogram}{{4}{12}{We present all of the globular cluster histograms for NGC1851}{figure.4}{}}
\@writefile{lof}{\contentsline {figure}{\numberline {5}{\ignorespaces We present all of the globular cluster histograms for NGC1851. }}{13}{figure.5}}
\newlabel{fig:histogram}{{5}{13}{We present all of the globular cluster histograms for NGC1851}{figure.5}{}}
\@writefile{lof}{\contentsline {figure}{\numberline {6}{\ignorespaces We present all of the globular cluster histograms for NGC1851. }}{14}{figure.6}}
\newlabel{fig:histogram}{{6}{14}{We present all of the globular cluster histograms for NGC1851}{figure.6}{}}
\@writefile{lof}{\contentsline {figure}{\numberline {7}{\ignorespaces We present all of the globular cluster histograms for NGC1851. }}{15}{figure.7}}
\newlabel{fig:histogram}{{7}{15}{We present all of the globular cluster histograms for NGC1851}{figure.7}{}}
\@writefile{lof}{\contentsline {figure}{\numberline {8}{\ignorespaces We present all of the globular cluster histograms for NGC1851. }}{16}{figure.8}}
\newlabel{fig:histogram}{{8}{16}{We present all of the globular cluster histograms for NGC1851}{figure.8}{}}
\@writefile{lof}{\contentsline {figure}{\numberline {9}{\ignorespaces We present all of the globular cluster histograms for NGC1851. }}{17}{figure.9}}
\newlabel{fig:histogram}{{9}{17}{We present all of the globular cluster histograms for NGC1851}{figure.9}{}}
\bibcite{1990ApJ...365..224H}{{1}{1990}{{{Hickson} \& {van den Bergh}}}{{}}}
\bibcite{1979ApJ...227..106S}{{2}{1979}{{{Schmidt} {et~al.}}}{{{Schmidt}, {Angel}, \& {Beaver}}}}
\bibcite{1992AJ....104.1563S}{{3}{1992}{{{Schmidt} {et~al.}}}{{{Schmidt}, {Elston}, \& {Lupie}}}}
\bibcite{1974MNRAS.166..617W}{{4}{1974}{{Wilson}}{{}}}
