\relax 
\@writefile{lot}{\contentsline {table}{\numberline {1}{\ignorespaces \tnotemarkskip 8ptChandra X-ray Observations}}{1}}
\citation{2012ApJS..199...25P}
\citation{2012ApJS..199...25P}
\@writefile{lot}{\contentsline {table}{\numberline {1}{\ignorespaces \tnotemarkskip 8ptChandra X-ray Observations}}{2}}
