\relax 
\@writefile{toc}{\contentsline {section}{\numberline {1}Introduction}{3}}
\@writefile{toc}{\contentsline {section}{\numberline {2}Dataset}{3}}
\@writefile{toc}{\contentsline {section}{\numberline {3}Data Reduction}{3}}
\@writefile{toc}{\contentsline {subsection}{\numberline {3.1}Cleaning Images}{3}}
\@writefile{toc}{\contentsline {subsection}{\numberline {3.2}Surface Brightness Profile}{4}}
\@writefile{toc}{\contentsline {section}{\numberline {4}Data Analysis}{6}}
