\relax 
\@writefile{lot}{\contentsline {table}{\numberline {1}{\ignorespaces \tnotemarkskip 8ptTable 1}}{1}}
\@writefile{lot}{\contentsline {table}{\numberline {1}{\ignorespaces \tnotemarkskip 8ptTable 1}}{2}}
