%!PS-Adobe-3.0 EPSF-3.0
%%BoundingBox: 0 0 504 360
%%Title: Graphics produced by IDL
%%For: Aaron@Aaron, /home/Aaron
%%Creator: IDL Version 7.1 (linux x86 m32)
%%CreationDate: Tue Feb 22 13:02:24 2011
%%DocumentData: Clean7bit
%%LanguageLevel: 1
%%PageOrder: Ascend
%%Pages: (atend)
%%DocumentNeededResources: (atend)
%%EndComments
%%BeginProlog
%+ prolog.ps -- Prolog for IDL generated PostScript files
%+ Copyright (c) 1988-2009 ITT Visual Information Solutions. All Rights Reserved.
%v 5
/$IDL_DICT 40 dict def $IDL_DICT begin /bdef { bind def } bind def /C
{currentpoint newpath moveto} bdef /CP {currentpoint} bdef /D {currentpoint
stroke moveto} bdef /F {closepath fill} bdef /K { setgray } bdef /M {moveto}
bdef /N {rmoveto} bdef /P {lineto} bdef /R {rlineto} bdef /S {gsave show
grestore} bdef /X {currentpoint pop} bdef /Z {gsave currentpoint lineto 20
setlinewidth 1 setlinecap stroke grestore} bdef /L0 {[] 0 setdash} bdef /L1
{[40 100] 0 setdash} bdef /L2 {[200 200] 0 setdash} bdef /L3 {[200 100 50
100] 0 setdash} bdef /L4 {[300 100 50 100 50 100 50 100] 0 setdash} bdef /L5
{[400 200] 0 setdash} bdef /STDFONT { findfont exch scalefont setfont } bdef
/ISOFONT { findfont dup length dict begin { 1 index /FID ne {def} {pop pop}
ifelse } forall /Encoding ISOLatin1Encoding def currentdict end /idltmpfont
exch definefont exch scalefont setfont } bdef /ISOBULLET { gsave /Helvetica
findfont exch scalefont setfont (\267) show currentpoint grestore moveto}
bdef /MITERLIMIT { 2.5 setmiterlimit } bdef end
%%EndProlog
%%Page: 0 1
%%PageResources: (atend)
%%PageOrientation: Portrait
%%PageBoundingBox: 0 0 504 360
%%BeginPageSetup
$IDL_DICT begin 0.0283465 dup scale MITERLIMIT
%%IncludeResource: font Helvetica
423.333 /Helvetica STDFONT
%%EndPageSetup
10 setlinewidth L0 0.000 K 2220 1408 M 14894 0 R D 2220 1408 M 0 212 R D
2021 1125 M -35 -11 R -23 -35 R -12 -59 R 0 -35 R 12 -58 R 23 -35 R 35 -12 R
24 0 R 35 12 R 23 35 R 12 58 R 0 35 R -12 59 R -23 35 R -35 11 R -24 0 R
-23 -11 R -12 -12 R -11 -23 R -12 -59 R 0 -35 R 12 -58 R 11 -24 R 12 -11 R
23 -12 R D 2045 880 M 23 12 R 12 11 R 12 24 R 11 58 R 0 35 R -11 59 R
-12 23 R -12 12 R -23 11 R D 2208 903 M -11 -11 R 11 -12 R 12 12 R -12 11 R
D 2407 1102 M 0 -222 R D 2419 1125 M 0 -245 R D 2419 1125 M -129 -175 R
187 0 R D 2372 880 M 82 0 R D 5199 1408 M 0 212 R D 5000 1125 M -35 -11 R
-23 -35 R -12 -59 R 0 -35 R 12 -58 R 23 -35 R 35 -12 R 24 0 R 35 12 R
23 35 R 12 58 R 0 35 R -12 59 R -23 35 R -35 11 R -24 0 R -23 -11 R
-12 -12 R -11 -23 R -12 -59 R 0 -35 R 12 -58 R 11 -24 R 12 -11 R 23 -12 R D
5024 880 M 23 12 R 12 11 R 11 24 R 12 58 R 0 35 R -12 59 R -11 23 R -12 12 R
-23 11 R D 5187 903 M -11 -11 R 11 -12 R 12 12 R -12 11 R D 5421 1090 M
-12 -11 R 12 -12 R 12 12 R 0 11 R -12 24 R -23 11 R -36 0 R -35 -11 R
-23 -24 R -12 -23 R -11 -47 R 0 -70 R 11 -35 R 24 -23 R 35 -12 R 23 0 R
35 12 R 24 23 R 11 35 R 0 12 R -11 35 R -24 23 R -35 12 R -12 0 R -35 -12 R
-23 -23 R -12 -35 R D 5362 1125 M -23 -11 R -23 -24 R -12 -23 R -12 -47 R
0 -70 R 12 -35 R 23 -23 R 24 -12 R D 5374 880 M 24 12 R 23 23 R 12 35 R
0 12 R -12 35 R -23 23 R -24 12 R D 8178 1408 M 0 212 R D 7979 1125 M
-35 -11 R -23 -35 R -12 -59 R 0 -35 R 12 -58 R 23 -35 R 35 -12 R 23 0 R
35 12 R 24 35 R 12 58 R 0 35 R -12 59 R -24 35 R -35 11 R -23 0 R -23 -11 R
-12 -12 R -12 -23 R -11 -59 R 0 -35 R 11 -58 R 12 -24 R 12 -11 R 23 -12 R D
8002 880 M 24 12 R 11 11 R 12 24 R 12 58 R 0 35 R -12 59 R -12 23 R -11 12 R
-24 11 R D 8166 903 M -12 -11 R 12 -12 R 12 12 R -12 11 R D 8318 1125 M
-35 -11 R -12 -24 R 0 -35 R 12 -23 R 35 -12 R 47 0 R 35 12 R 11 23 R 0 35 R
-11 24 R -35 11 R -47 0 R -23 -11 R -12 -24 R 0 -35 R 12 -23 R 23 -12 R D
8365 1020 M 23 12 R 12 23 R 0 35 R -12 24 R -23 11 R D 8318 1020 M -35 -11 R
-12 -12 R -12 -23 R 0 -47 R 12 -24 R 12 -11 R 35 -12 R 47 0 R 35 12 R
11 11 R 12 24 R 0 47 R -12 23 R -11 12 R -35 11 R D 8318 1020 M -23 -11 R
-12 -12 R -12 -23 R 0 -47 R 12 -24 R 12 -11 R 23 -12 R D 8365 880 M 23 12 R
12 11 R 11 24 R 0 47 R -11 23 R -12 12 R -23 11 R D 11156 1408 M 0 212 R D
10923 1079 M 23 11 R 35 35 R 0 -245 R D 10970 1114 M 0 -234 R D 10923 880 M
105 0 R D 11145 903 M -12 -11 R 12 -12 R 11 12 R -11 11 R D 11308 1125 M
-35 -11 R -23 -35 R -12 -59 R 0 -35 R 12 -58 R 23 -35 R 35 -12 R 24 0 R
35 12 R 23 35 R 12 58 R 0 35 R -12 59 R -23 35 R -35 11 R -24 0 R -23 -11 R
-12 -12 R -11 -23 R -12 -59 R 0 -35 R 12 -58 R 11 -24 R 12 -11 R 23 -12 R D
11332 880 M 23 12 R 12 11 R 11 24 R 12 58 R 0 35 R -12 59 R -11 23 R
-12 12 R -23 11 R D 14135 1408 M 0 212 R D 13902 1079 M 23 11 R 35 35 R
0 -245 R D 13948 1114 M 0 -234 R D 13902 880 M 105 0 R D 14124 903 M
-12 -11 R 12 -12 R 11 12 R -11 11 R D 14229 1079 M 11 -12 R -11 -12 R
-12 12 R 0 12 R 12 23 R 11 12 R 35 11 R 47 0 R 35 -11 R 12 -12 R 12 -23 R
0 -24 R -12 -23 R -35 -23 R -59 -24 R -23 -11 R -23 -24 R -12 -35 R 0 -35 R
D 14322 1125 M 24 -11 R 11 -12 R 12 -23 R 0 -24 R -12 -23 R -35 -23 R
-47 -24 R D 14217 903 M 12 12 R 23 0 R 59 -23 R 35 0 R 23 11 R 12 12 R D
14252 915 M 59 -35 R 46 0 R 12 12 R 12 23 R 0 23 R D 17114 1408 M 0 212 R D
16880 1079 M 24 11 R 35 35 R 0 -245 R D 16927 1114 M 0 -234 R D 16880 880 M
106 0 R D 17102 903 M -11 -11 R 11 -12 R 12 12 R -12 11 R D 17301 1102 M
0 -222 R D 17313 1125 M 0 -245 R D 17313 1125 M -129 -175 R 187 0 R D
17266 880 M 82 0 R D 2965 1408 M 0 106 R D 3709 1408 M 0 106 R D 4454 1408 M
0 106 R D 5944 1408 M 0 106 R D 6688 1408 M 0 106 R D 7433 1408 M 0 106 R D
8922 1408 M 0 106 R D 9667 1408 M 0 106 R D 10412 1408 M 0 106 R D
11901 1408 M 0 106 R D 12646 1408 M 0 106 R D 13391 1408 M 0 106 R D
14880 1408 M 0 106 R D 15625 1408 M 0 106 R D 16369 1408 M 0 106 R D
2220 11996 M 14894 0 R D 2220 11996 M 0 -212 R D 5199 11996 M 0 -212 R D
8178 11996 M 0 -212 R D 11156 11996 M 0 -212 R D 14135 11996 M 0 -212 R D
17114 11996 M 0 -212 R D 2965 11996 M 0 -106 R D 3709 11996 M 0 -106 R D
4454 11996 M 0 -106 R D 5944 11996 M 0 -106 R D 6688 11996 M 0 -106 R D
7433 11996 M 0 -106 R D 8922 11996 M 0 -106 R D 9667 11996 M 0 -106 R D
10412 11996 M 0 -106 R D 11901 11996 M 0 -106 R D 12646 11996 M 0 -106 R D
13391 11996 M 0 -106 R D 14880 11996 M 0 -106 R D 15625 11996 M 0 -106 R D
16369 11996 M 0 -106 R D 2220 1408 M 0 10588 R D 2220 1408 M 298 0 R D
1969 1653 M -35 -11 R -24 -35 R -11 -59 R 0 -35 R 11 -58 R 24 -35 R 35 -12 R
23 0 R 35 12 R 24 35 R 11 58 R 0 35 R -11 59 R -24 35 R -35 11 R -23 0 R
-23 -11 R -12 -12 R -12 -23 R -12 -59 R 0 -35 R 12 -58 R 12 -24 R 12 -11 R
23 -12 R D 1992 1408 M 24 12 R 11 11 R 12 24 R 12 58 R 0 35 R -12 59 R
-12 23 R -11 12 R -24 11 R D 2220 3526 M 298 0 R D 1688 3630 M -23 -117 R
23 24 R 36 11 R 35 0 R 35 -11 R 23 -24 R 12 -35 R 0 -23 R -12 -35 R
-23 -23 R -35 -12 R -35 0 R -36 12 R -11 11 R -12 24 R 0 11 R 12 12 R
11 -12 R -11 -11 R D 1759 3548 M 23 -11 R 23 -24 R 12 -35 R 0 -23 R
-12 -35 R -23 -23 R -23 -12 R D 1688 3630 M 117 0 R D 1688 3619 M 59 0 R
58 11 R D 1969 3630 M -35 -11 R -24 -36 R -11 -58 R 0 -35 R 11 -58 R
24 -35 R 35 -12 R 23 0 R 35 12 R 24 35 R 11 58 R 0 35 R -11 58 R -24 36 R
-35 11 R -23 0 R -23 -11 R -12 -12 R -12 -24 R -12 -58 R 0 -35 R 12 -58 R
12 -24 R 12 -11 R 23 -12 R D 1992 3385 M 24 12 R 11 11 R 12 24 R 12 58 R
0 35 R -12 58 R -12 24 R -11 12 R -24 11 R D 2220 5643 M 298 0 R D
1466 5701 M 24 12 R 35 35 R 0 -246 R D 1513 5736 M 0 -234 R D 1466 5502 M
106 0 R D 1735 5748 M -35 -12 R -23 -35 R -12 -58 R 0 -35 R 12 -59 R
23 -35 R 35 -12 R 24 0 R 35 12 R 23 35 R 12 59 R 0 35 R -12 58 R -23 35 R
-35 12 R -24 0 R -23 -12 R -12 -12 R -12 -23 R -11 -58 R 0 -35 R 11 -59 R
12 -23 R 12 -12 R 23 -12 R D 1759 5502 M 23 12 R 12 12 R 11 23 R 12 59 R
0 35 R -12 58 R -11 23 R -12 12 R -23 12 R D 1969 5748 M -35 -12 R -24 -35 R
-11 -58 R 0 -35 R 11 -59 R 24 -35 R 35 -12 R 23 0 R 35 12 R 24 35 R 11 59 R
0 35 R -11 58 R -24 35 R -35 12 R -23 0 R -23 -12 R -12 -12 R -12 -23 R
-12 -58 R 0 -35 R 12 -59 R 12 -23 R 12 -12 R 23 -12 R D 1992 5502 M 24 12 R
11 12 R 12 23 R 12 59 R 0 35 R -12 58 R -12 23 R -11 12 R -24 12 R D
2220 7761 M 298 0 R D 1466 7819 M 24 11 R 35 35 R 0 -245 R D 1513 7854 M
0 -234 R D 1466 7620 M 106 0 R D 1688 7865 M -23 -116 R 23 23 R 36 12 R
35 0 R 35 -12 R 23 -23 R 12 -35 R 0 -24 R -12 -35 R -23 -23 R -35 -12 R
-35 0 R -36 12 R -11 11 R -12 24 R 0 11 R 12 12 R 11 -12 R -11 -11 R D
1759 7784 M 23 -12 R 23 -23 R 12 -35 R 0 -24 R -12 -35 R -23 -23 R -23 -12 R
D 1688 7865 M 117 0 R D 1688 7854 M 59 0 R 58 11 R D 1969 7865 M -35 -11 R
-24 -35 R -11 -59 R 0 -35 R 11 -58 R 24 -35 R 35 -12 R 23 0 R 35 12 R
24 35 R 11 58 R 0 35 R -11 59 R -24 35 R -35 11 R -23 0 R -23 -11 R
-12 -12 R -12 -23 R -12 -59 R 0 -35 R 12 -58 R 12 -24 R 12 -11 R 23 -12 R D
1992 7620 M 24 12 R 11 11 R 12 24 R 12 58 R 0 35 R -12 59 R -12 23 R
-11 12 R -24 11 R D 2220 9878 M 298 0 R D 1443 9936 M 12 -11 R -12 -12 R
-12 12 R 0 11 R 12 24 R 12 11 R 35 12 R 47 0 R 35 -12 R 11 -11 R 12 -24 R
0 -23 R -12 -23 R -35 -24 R -58 -23 R -24 -12 R -23 -23 R -12 -35 R 0 -35 R
D 1537 9983 M 23 -12 R 12 -11 R 11 -24 R 0 -23 R -11 -23 R -35 -24 R
-47 -23 R D 1431 9761 M 12 12 R 23 0 R 59 -24 R 35 0 R 23 12 R 12 12 R D
1466 9773 M 59 -35 R 47 0 R 11 11 R 12 24 R 0 23 R D 1735 9983 M -35 -12 R
-23 -35 R -12 -58 R 0 -35 R 12 -59 R 23 -35 R 35 -11 R 24 0 R 35 11 R
23 35 R 12 59 R 0 35 R -12 58 R -23 35 R -35 12 R -24 0 R -23 -12 R
-12 -11 R -12 -24 R -11 -58 R 0 -35 R 11 -59 R 12 -23 R 12 -12 R 23 -11 R D
1759 9738 M 23 11 R 12 12 R 11 23 R 12 59 R 0 35 R -12 58 R -11 24 R
-12 11 R -23 12 R D 1969 9983 M -35 -12 R -24 -35 R -11 -58 R 0 -35 R
11 -59 R 24 -35 R 35 -11 R 23 0 R 35 11 R 24 35 R 11 59 R 0 35 R -11 58 R
-24 35 R -35 12 R -23 0 R -23 -12 R -12 -11 R -12 -24 R -12 -58 R 0 -35 R
12 -59 R 12 -23 R 12 -12 R 23 -11 R D 1992 9738 M 24 11 R 11 12 R 12 23 R
12 59 R 0 35 R -12 58 R -12 24 R -11 11 R -24 12 R D 2220 11996 M 298 0 R D
1443 11948 M 12 -11 R -12 -12 R -12 12 R 0 11 R 12 24 R 12 11 R 35 12 R
47 0 R 35 -12 R 11 -11 R 12 -24 R 0 -23 R -12 -23 R -35 -24 R -58 -23 R
-24 -12 R -23 -23 R -12 -35 R 0 -35 R D 1537 11995 M 23 -12 R 12 -11 R
11 -24 R 0 -23 R -11 -23 R -35 -24 R -47 -23 R D 1431 11773 M 12 12 R 23 0 R
59 -24 R 35 0 R 23 12 R 12 12 R D 1466 11785 M 59 -35 R 47 0 R 11 11 R
12 24 R 0 23 R D 1688 11995 M -23 -117 R 23 24 R 36 11 R 35 0 R 35 -11 R
23 -24 R 12 -35 R 0 -23 R -12 -35 R -23 -24 R -35 -11 R -35 0 R -36 11 R
-11 12 R -12 23 R 0 12 R 12 12 R 11 -12 R -11 -12 R D 1759 11913 M 23 -11 R
23 -24 R 12 -35 R 0 -23 R -12 -35 R -23 -24 R -23 -11 R D 1688 11995 M
117 0 R D 1688 11983 M 59 0 R 58 12 R D 1969 11995 M -35 -12 R -24 -35 R
-11 -58 R 0 -35 R 11 -59 R 24 -35 R 35 -11 R 23 0 R 35 11 R 24 35 R 11 59 R
0 35 R -11 58 R -24 35 R -35 12 R -23 0 R -23 -12 R -12 -11 R -12 -24 R
-12 -58 R 0 -35 R 12 -59 R 12 -23 R 12 -12 R 23 -11 R D 1992 11750 M 24 11 R
11 12 R 12 23 R 12 59 R 0 35 R -12 58 R -12 24 R -11 11 R -24 12 R D
2220 1832 M 149 0 R D 2220 2255 M 149 0 R D 2220 2679 M 149 0 R D
2220 3102 M 149 0 R D 2220 3949 M 149 0 R D 2220 4373 M 149 0 R D
2220 4796 M 149 0 R D 2220 5220 M 149 0 R D 2220 6067 M 149 0 R D
2220 6490 M 149 0 R D 2220 6914 M 149 0 R D 2220 7337 M 149 0 R D
2220 8184 M 149 0 R D 2220 8608 M 149 0 R D 2220 9031 M 149 0 R D
2220 9455 M 149 0 R D 2220 10302 M 149 0 R D 2220 10726 M 149 0 R D
2220 11149 M 149 0 R D 2220 11573 M 149 0 R D 17114 1408 M 0 10588 R D
17114 1408 M -298 0 R D 17114 3526 M -298 0 R D 17114 5643 M -298 0 R D
17114 7761 M -298 0 R D 17114 9878 M -298 0 R D 17114 11996 M -298 0 R D
17114 1832 M -149 0 R D 17114 2255 M -149 0 R D 17114 2679 M -149 0 R D
17114 3102 M -149 0 R D 17114 3949 M -149 0 R D 17114 4373 M -149 0 R D
17114 4796 M -149 0 R D 17114 5220 M -149 0 R D 17114 6067 M -149 0 R D
17114 6490 M -149 0 R D 17114 6914 M -149 0 R D 17114 7337 M -149 0 R D
17114 8184 M -149 0 R D 17114 8608 M -149 0 R D 17114 9031 M -149 0 R D
17114 9455 M -149 0 R D 17114 10302 M -149 0 R D 17114 10726 M -149 0 R D
17114 11149 M -149 0 R D 17114 11573 M -149 0 R D 3570 3864 M 104 0 R
0 -2371 R 105 0 R 104 0 R 0 42 R 104 0 R 105 0 R 0 127 R 104 0 R 104 0 R
0 -169 R 104 0 R 105 0 R 0 -43 R 104 0 R 104 0 R 0 43 R 105 0 R 104 0 R
104 0 R 104 0 R 0 -43 R 105 0 R 104 0 R 0 255 R 104 0 R 105 0 R 0 84 R
104 0 R 104 0 R 0 -42 R 104 0 R 105 0 R 0 -127 R 104 0 R 104 0 R 0 254 R
105 0 R 104 0 R 0 42 R 104 0 R 105 0 R 0 127 R 104 0 R 104 0 R 0 127 R
104 0 R 105 0 R 0 -84 R 104 0 R 104 0 R 0 -43 R 105 0 R 104 0 R 0 466 R
104 0 R 104 0 R 0 212 R 105 0 R 104 0 R 0 42 R 104 0 R 105 0 R 0 -211 R
104 0 R 104 0 R 0 381 R 104 0 R 105 0 R 0 762 R 104 0 R 104 0 R 0 889 R
105 0 R 104 0 R 0 339 R 104 0 R 105 0 R 0 466 R 104 0 R 104 0 R 0 1694 R
104 0 R 105 0 R 0 2711 R 104 0 R 104 0 R 0 635 R 105 0 R 104 0 R 0 -4616 R
104 0 R 104 0 R 0 -1737 R 105 0 R 104 0 R 0 -296 R 104 0 R 105 0 R 0 -1059 R
104 0 R 104 0 R 0 -212 R 104 0 R 105 0 R 0 -254 R 104 0 R 104 0 R 0 -169 R
105 0 R 104 0 R 0 -170 R 104 0 R 105 0 R 0 -169 R 104 0 R 104 0 R 0 254 R
104 0 R 105 0 R 0 -254 R 104 0 R 104 0 R 0 -127 R 105 0 R 104 0 R 0 127 R
104 0 R 104 0 R 0 -127 R 105 0 R 104 0 R 0 -43 R 104 0 R 105 0 R 104 0 R
104 0 R 104 0 R 105 0 R 0 43 R 104 0 R 104 0 R 0 -85 R 105 0 R 104 0 R
0 -85 R 104 0 R 105 0 R 0 85 R 104 0 R 104 0 R 0 -42 R 104 0 R 105 0 R
104 0 R 104 0 R 0 -85 R 105 0 R 104 0 R 0 85 R 104 0 R 104 0 R 0 2244 R
105 0 R D 3661 1408 M 13 13 R D 3674 1672 M -208 -208 R D 3466 1714 M
208 208 R D 3674 2172 M -208 -208 R D 3466 2215 M 208 208 R D 3674 2673 M
-208 -208 R D 3466 2715 M 208 208 R D 3674 3173 M -208 -207 R D 3466 3216 M
208 208 R D 3674 3674 M -208 -208 R D 3466 3717 M 147 146 R D 3745 1492 M
-71 -71 R D 3910 1407 M 128 127 R D 4300 1546 M -139 -139 R D 4092 1589 M
73 73 R D 4496 1492 M -85 -85 R D 4661 1407 M 43 43 R D 4926 1421 M
-14 -14 R D 4717 1463 M 29 29 R D 4996 1492 M -70 -70 R D 5163 1408 M
41 41 R D 5551 1546 M -138 -138 R D 5343 1588 M 116 116 R D 5760 1505 M
-97 -97 R D 5552 1547 M 208 208 R D 5969 1463 M -55 -55 R D 5760 1505 M
209 208 R D 6177 1421 M -14 -14 R D 5969 1463 M 156 156 R D 6386 1630 M
-209 -209 R D 6177 1672 M 202 201 R D 6595 1589 M -182 -182 R D 6386 1630 M
209 209 R D 6421 1915 M -35 -35 R D 6664 1407 M 139 139 R D 6803 1797 M
-208 -208 R D 6595 1839 M 203 203 R D 7012 1505 M -98 -98 R D 6803 1546 M
209 210 R D 7012 2006 M -209 -209 R D 6803 2047 M 122 122 R D 7220 1462 M
-56 -55 R D 7012 1505 M 208 208 R D 7220 1963 M -208 -207 R D 7012 2006 M
80 79 R D 7429 1421 M -14 -13 R D 7220 1463 M 209 209 R D 7429 1922 M
-209 -209 R D 7220 1964 M 79 78 R D 7637 1629 M -208 -208 R D 7429 1672 M
208 207 R D 7637 2130 M -208 -208 R D 7429 2172 M 207 207 R D 7514 2508 M
-85 -85 R D 7666 1408 M 180 180 R D 7846 1838 M -209 -208 R D 7637 1880 M
209 209 R D 7846 2339 M -209 -208 R D 7637 2381 M 209 208 R D 7727 2720 M
-90 -89 R D 7916 1408 M 139 138 R D 8055 1797 M -209 -209 R D 7846 1838 M
209 209 R D 8055 2297 M -209 -208 R D 7846 2339 M 209 209 R D 8019 2762 M
-173 -173 R D 8166 1407 M 97 97 R D 8263 1754 M -208 -208 R D 8055 1797 M
208 208 R D 8263 2255 M -208 -208 R D 8055 2297 M 208 208 R D 8058 2551 M
-3 -3 R D 8416 1407 M 56 56 R D 8472 1713 M -209 -208 R D 8263 1755 M
209 209 R D 8472 2214 M -209 -209 R D 8263 2256 M 209 208 R D 8472 2715 M
-209 -209 R D 8263 2756 M 176 176 R D 8680 1421 M -14 -14 R D 8472 1463 M
208 208 R D 8680 1921 M -208 -208 R D 8472 1964 M 208 208 R D 8680 2422 M
-208 -208 R D 8472 2464 M 208 208 R D 8680 2922 M -208 -207 R D 8472 2965 M
208 208 R D 8680 3423 M -208 -208 R D 8472 3466 M 208 207 R D 8889 1630 M
-209 -209 R D 8680 1671 M 209 209 R D 8889 2131 M -209 -210 R D 8680 2172 M
209 209 R D 8889 2631 M -209 -209 R D 8680 2672 M 209 209 R D 8889 3132 M
-209 -210 R D 8680 3173 M 209 209 R D 8889 3632 M -209 -209 R D 8680 3673 M
209 210 R D 8889 4133 M -209 -209 R D 8680 4174 M 209 209 R D 8839 4583 M
-159 -159 R D 8917 1407 M 181 181 R D 9098 1838 M -209 -208 R D 8889 1880 M
209 209 R D 9098 2339 M -209 -208 R D 8889 2381 M 209 208 R D 9098 2840 M
-209 -209 R D 8889 2881 M 209 209 R D 9098 3340 M -209 -208 R D 8889 3382 M
209 209 R D 9098 3841 M -209 -209 R D 8889 3883 M 209 208 R D 9098 4342 M
-209 -209 R D 8889 4383 M 209 209 R D 9098 4842 M -209 -208 R D 8889 4884 M
38 38 R D 9306 1546 M -139 -139 R D 9098 1589 M 208 208 R D 9306 2047 M
-208 -208 R D 9098 2090 M 208 207 R D 9306 2548 M -208 -208 R D 9098 2590 M
208 208 R D 9306 3048 M -208 -208 R D 9098 3091 M 208 208 R D 9306 3549 M
-208 -208 R D 9098 3591 M 208 208 R D 9306 4050 M -208 -208 R D 9098 4092 M
208 208 R D 9306 4550 M -208 -208 R D 9098 4593 M 208 208 R D 9306 5051 M
-208 -208 R D 9098 5093 M 208 208 R D 9143 5388 M -45 -44 R D 9417 1407 M
99 98 R D 9516 1756 M -210 -210 R D 9306 1797 M 210 209 R D 9516 2256 M
-210 -209 R D 9306 2297 M 210 210 R D 9516 2757 M -210 -209 R D 9306 2798 M
210 209 R D 9516 3258 M -210 -210 R D 9306 3299 M 210 209 R D 9516 3758 M
-210 -209 R D 9306 3799 M 210 210 R D 9516 4259 M -210 -209 R D 9306 4300 M
210 209 R D 9516 4760 M -210 -210 R D 9306 4801 M 210 209 R D 9516 5260 M
-210 -209 R D 9306 5301 M 210 209 R D 9516 5761 M -210 -210 R D 9306 5802 M
210 209 R D 9516 6261 M -210 -209 R D 9306 6302 M 210 210 R D 9516 6762 M
-210 -209 R D 9306 6803 M 210 209 R D 9335 7082 M -29 -29 R D 9668 1407 M
55 56 R D 9723 1713 M -207 -208 R D 9516 1756 M 207 208 R D 9723 2214 M
-207 -208 R D 9516 2256 M 207 208 R D 9723 2715 M -207 -208 R D 9516 2757 M
207 208 R D 9723 3215 M -207 -208 R D 9516 3258 M 207 208 R D 9723 3716 M
-207 -208 R D 9516 3758 M 207 208 R D 9723 4216 M -207 -207 R D 9516 4259 M
207 208 R D 9723 4717 M -207 -208 R D 9516 4760 M 207 207 R D 9723 5218 M
-207 -208 R D 9516 5260 M 207 208 R D 9723 5718 M -207 -208 R D 9516 5761 M
207 208 R D 9723 6219 M -207 -208 R D 9516 6261 M 207 208 R D 9723 6720 M
-207 -208 R D 9516 6762 M 207 208 R D 9723 7220 M -207 -208 R D 9516 7263 M
207 208 R D 9723 7721 M -207 -208 R D 9516 7763 M 207 208 R D 9723 8222 M
-207 -208 R D 9516 8264 M 207 208 R D 9723 8722 M -207 -208 R D 9516 8765 M
207 207 R D 9723 9223 M -207 -208 R D 9516 9265 M 207 208 R D 9723 9723 M
-207 -207 R D 9516 9766 M 27 27 R D 9932 1421 M -13 -13 R D 9723 1463 M
209 209 R D 9932 1922 M -209 -209 R D 9723 1964 M 209 208 R D 9932 2423 M
-209 -209 R D 9723 2464 M 209 209 R D 9932 2923 M -209 -208 R D 9723 2965 M
209 208 R D 9932 3424 M -209 -209 R D 9723 3466 M 209 208 R D 9932 3924 M
-209 -208 R D 9723 3966 M 209 209 R D 9932 4425 M -209 -209 R D 9723 4467 M
209 208 R D 9932 4926 M -209 -209 R D 9723 4967 M 209 209 R D 9932 5426 M
-209 -208 R D 9723 5468 M 209 209 R D 9932 5927 M -209 -209 R D 9723 5969 M
209 208 R D 9932 6428 M -209 -209 R D 9723 6469 M 209 209 R D 9932 6928 M
-209 -208 R D 9723 6970 M 209 209 R D 9932 7429 M -209 -209 R D 9723 7471 M
209 208 R D 9932 7929 M -209 -208 R D 9723 7971 M 209 209 R D 9932 8430 M
-209 -208 R D 9723 8472 M 209 208 R D 9932 8931 M -209 -209 R D 9723 8972 M
209 209 R D 9932 9431 M -209 -208 R D 9723 9473 M 209 209 R D 9932 9932 M
-209 -209 R D 9723 9974 M 209 208 R D 9927 10428 M -204 -204 R D 9932 1421 M
208 208 R D 10140 1879 M -208 -207 R D 9932 1922 M 208 208 R D 10140 2380 M
-208 -208 R D 9932 2423 M 208 207 R D 10140 2881 M -208 -208 R D 9932 2923 M
208 208 R D 10140 3381 M -208 -208 R D 9932 3424 M 208 208 R D 10140 3882 M
-208 -208 R D 9932 3924 M 208 208 R D 10140 4383 M -208 -208 R D 9932 4425 M
208 208 R D 10140 4883 M -208 -208 R D 9932 4926 M 208 208 R D 10140 5384 M
-208 -208 R D 9932 5426 M 208 208 R D 10067 5812 M -135 -135 R D
10169 1408 M 180 179 R D 10349 1838 M -209 -209 R D 10140 1879 M 209 209 R D
10349 2338 M -209 -208 R D 10140 2380 M 209 209 R D 10349 2839 M -209 -209 R
D 10140 2881 M 209 209 R D 10349 3340 M -209 -209 R D 10140 3381 M 209 210 R
D 10349 3841 M -209 -209 R D 10140 3882 M 193 193 R D 10558 1546 M
-139 -139 R D 10349 1588 M 209 209 R D 10558 2047 M -209 -209 R D
10349 2089 M 209 208 R D 10558 2548 M -209 -209 R D 10349 2589 M 209 209 R D
10558 3048 M -209 -208 R D 10350 3091 M 208 208 R D 10558 3549 M -208 -208 R
D 10350 3591 M 187 188 R D 10766 1504 M -97 -97 R D 10559 1547 M 207 207 R D
10766 2005 M -207 -208 R D 10559 2048 M 207 207 R D 10766 2505 M -207 -207 R
D 10559 2548 M 171 172 R D 10975 1463 M -56 -56 R D 10766 1505 M 209 208 R D
10975 1964 M -209 -209 R D 10766 2005 M 209 209 R D 10975 2464 M -209 -208 R
D 10766 2506 M 3 2 R D 11183 1421 M -14 -14 R D 10975 1463 M 208 208 R D
11183 1921 M -208 -208 R D 10975 1964 M 208 208 R D 11015 2254 M -40 -40 R D
11184 1421 M 207 208 R D 11391 1879 M -207 -207 R D 11184 1922 M 163 163 R D
11601 1588 M -181 -181 R D 11392 1630 M 209 208 R D 11427 1915 M -35 -35 R D
11670 1407 M 139 139 R D 11758 1746 M -156 -157 R D 11921 1408 M 97 97 R D
12018 1755 M -209 -209 R D 11809 1797 M 204 203 R D 12226 1462 M -55 -54 R D
12018 1505 M 208 208 R D 12434 1421 M -12 -13 R D 12227 1463 M 156 156 R D
12643 1629 M -208 -208 R D 12435 1672 M 74 74 R D 12852 1587 M -180 -179 R D
12922 1407 M 139 139 R D 13269 1504 M -97 -97 R D 13061 1546 M 30 31 R D
13477 1462 M -55 -55 R D 13269 1504 M 72 72 R D 13686 1421 M -13 -14 R D
13478 1463 M 156 156 R D 13800 1534 M -114 -113 R D 13924 1408 M 41 41 R D
14300 1534 M -126 -126 R D 14424 1408 M 85 85 R D 14729 1462 M -54 -54 R D
14938 1421 M 71 71 R D 15355 1587 M -180 -180 R D 15146 1628 M 209 210 R D
15355 2088 M -209 -209 R D 15146 2129 M 209 209 R D 15355 2589 M -209 -210 R
D 15146 2630 M 209 209 R D 15355 3089 M -209 -209 R D 15146 3130 M 209 210 R
D 15355 3590 M -209 -209 R D 15146 3631 M 105 105 R D 3466 1408 M 60 0 R
59 0 R 60 0 R 60 0 R 60 0 R 59 0 R 60 0 R 60 0 R 59 0 R 60 0 R 60 0 R 60 0 R
59 0 R 60 0 R 60 0 R 60 0 R 59 0 R 60 0 R 60 0 R 60 0 R 59 0 R 60 0 R 60 0 R
60 0 R 59 0 R 60 0 R 60 0 R 60 0 R 59 0 R 60 0 R 60 0 R 60 0 R 59 0 R 60 0 R
60 0 R 60 0 R 59 0 R 60 0 R 60 0 R 60 0 R 59 0 R 60 0 R 60 0 R 60 0 R 59 0 R
60 0 R 60 0 R 60 0 R 59 0 R 60 0 R 60 0 R 60 0 R 59 0 R 60 0 R 60 0 R 60 0 R
59 0 R 60 0 R 60 0 R 59 0 R 60 1 R 60 0 R 60 1 R 59 0 R 60 2 R 60 1 R 60 3 R
59 3 R 60 5 R 60 7 R 60 9 R 59 13 R 60 17 R 60 22 R 60 30 R 59 38 R 60 49 R
60 62 R 60 78 R 59 96 R 60 118 R 60 141 R 60 168 R 59 198 R 60 230 R
60 262 R 60 296 R 59 329 R 60 361 R 60 389 R 60 413 R 59 431 R 60 442 R
60 444 R 60 437 R 59 419 R 60 391 R 60 352 R 60 303 R 59 245 R 60 180 R
60 109 R 60 35 R 59 -40 R 60 -115 R 60 -184 R 59 -250 R 60 -307 R 60 -354 R
60 -394 R 59 -420 R 60 -438 R 60 -444 R 60 -442 R 59 -430 R 60 -412 R
60 -387 R 60 -359 R 59 -326 R 60 -294 R 60 -260 R 60 -227 R 59 -196 R
60 -166 R 60 -140 R 60 -115 R 59 -95 R 60 -77 R 60 -61 R 60 -48 R 59 -38 R
60 -29 R 60 -22 R 60 -16 R 59 -13 R 60 -9 R 60 -6 R 60 -5 R 59 -4 R 60 -2 R
60 -2 R 60 -1 R 59 0 R 60 -1 R 60 0 R 60 -1 R 59 0 R 60 0 R 60 0 R 60 0 R
59 0 R 60 0 R 60 0 R 60 0 R 59 0 R 60 0 R 60 0 R 59 0 R 60 0 R 60 0 R 60 0 R
59 0 R 60 0 R 60 0 R 60 0 R 59 0 R 60 0 R 60 0 R 60 0 R 59 0 R 60 0 R 60 0 R
60 0 R 59 0 R 60 0 R 60 0 R 60 0 R 59 0 R 60 0 R 60 0 R 60 0 R 59 0 R 60 0 R
60 0 R 60 0 R 59 0 R 60 0 R 60 0 R 60 0 R 59 0 R 60 0 R 60 0 R 60 0 R 59 0 R
60 0 R 60 0 R 60 0 R 59 0 R 60 0 R D 3061 11737 M -67 -278 R D 3118 11737 M
-67 -278 R D 2994 11632 M 134 0 R D 2984 11574 M 134 0 R D 3204 11536 M
-9 9 R 9 10 R 10 -10 R 0 -28 R -10 -20 R -9 -9 R D 3473 11670 M -58 -211 R D
3482 11670 M -57 -211 R D 3473 11641 M -10 -57 R 0 -29 R 19 -19 R 19 0 R
19 9 R 20 19 R 19 29 R D 3578 11670 M -29 -106 R 0 -19 R 10 -9 R 29 0 R
19 19 R 9 19 R D 3588 11670 M -29 -106 R 0 -19 R 9 -9 R D 3674 11536 M
-10 9 R 10 10 R 9 -10 R 0 -28 R -9 -20 R -10 -9 R D 4057 11670 M -96 0 R
-29 -10 R -19 -28 R -9 -29 R 0 -29 R 9 -19 R 10 -10 R 19 -9 R 19 0 R 29 9 R
19 29 R 10 29 R 0 29 R -10 19 R -9 9 R -20 10 R D 3961 11670 M -19 -10 R
-19 -28 R -10 -29 R 0 -39 R 10 -19 R D 3961 11536 M 19 9 R 20 29 R 9 29 R
0 38 R -9 19 R 57 0 R D 4115 11651 M 172 0 R D 4115 11593 M 172 0 R D
4689 11699 M 20 9 R 28 29 R 0 -201 R D 4977 11708 M -10 19 R -29 10 R
-19 0 R -28 -10 R -20 -28 R -9 -48 R 0 -48 R 9 -39 R 20 -19 R 28 -9 R 10 0 R
29 9 R 19 19 R 9 29 R 0 10 R -9 29 R -19 19 R -29 9 R -10 0 R -28 -9 R
-20 -19 R -9 -29 R D 5159 11737 M -96 0 R -10 -86 R 10 9 R 29 10 R 29 0 R
28 -10 R 19 -19 R 10 -29 R 0 -19 R -10 -29 R -19 -19 R -28 -9 R -29 0 R
-29 9 R -10 10 R -9 19 R D 5370 11737 M -96 -201 R D 5235 11737 M 135 0 R D
5456 11545 M -10 -9 R -9 9 R 9 10 R 10 -10 R 0 -28 R -10 -20 R -9 -9 R D
6040 11737 M -28 -10 R -20 -28 R -9 -48 R 0 -29 R 9 -48 R 20 -29 R 28 -9 R
19 0 R 29 9 R 19 29 R 10 48 R 0 29 R -10 48 R -19 28 R -29 10 R -19 0 R D
6194 11555 M -10 -10 R 10 -9 R 9 9 R -9 10 R D 6318 11737 M -29 -10 R
-9 -19 R 0 -19 R 9 -19 R 20 -10 R 38 -9 R 29 -10 R 19 -19 R 9 -19 R 0 -29 R
-9 -19 R -10 -10 R -29 -9 R -38 0 R -29 9 R -9 10 R -10 19 R 0 29 R 10 19 R
19 19 R 29 10 R 38 9 R 19 10 R 10 19 R 0 19 R -10 19 R -29 10 R -38 0 R D
6586 11670 M -9 -29 R -19 -19 R -29 -10 R -10 0 R -28 10 R -20 19 R -9 29 R
0 9 R 9 29 R 20 19 R 28 10 R 10 0 R 29 -10 R 19 -19 R 9 -38 R 0 -48 R
-9 -48 R -19 -29 R -29 -9 R -19 0 R -29 9 R -10 19 R D 6778 11708 M -10 19 R
-28 10 R -19 0 R -29 -10 R -19 -28 R -10 -48 R 0 -48 R 10 -39 R 19 -19 R
29 -9 R 9 0 R 29 9 R 19 19 R 10 29 R 0 10 R -10 29 R -19 19 R -29 9 R -9 0 R
-29 -9 R -19 -19 R -10 -29 R D 6979 11737 M -96 -201 R D 6845 11737 M
134 0 R D 7065 11545 M -9 -9 R -10 9 R 10 10 R 9 -10 R 0 -28 R -9 -20 R
-10 -9 R D 7650 11737 M -29 -10 R -19 -28 R -10 -48 R 0 -29 R 10 -48 R
19 -29 R 29 -9 R 19 0 R 29 9 R 19 29 R 10 48 R 0 29 R -10 48 R -19 28 R
-29 10 R -19 0 R D 7803 11555 M -9 -10 R 9 -9 R 10 9 R -10 10 R D
7937 11737 M -28 -10 R -20 -28 R -9 -48 R 0 -29 R 9 -48 R 20 -29 R 28 -9 R
20 0 R 28 9 R 19 29 R 10 48 R 0 29 R -10 48 R -19 28 R -28 10 R -20 0 R D
8091 11737 M 105 0 R -57 -77 R 28 0 R 19 -9 R 10 -10 R 10 -29 R 0 -19 R
-10 -29 R -19 -19 R -29 -9 R -29 0 R -28 9 R -10 10 R -10 19 R D
8388 11670 M -10 -29 R -19 -19 R -29 -10 R -9 0 R -29 10 R -19 19 R -10 29 R
0 9 R 10 29 R 19 19 R 29 10 R 9 0 R 29 -10 R 19 -19 R 10 -38 R 0 -48 R
-10 -48 R -19 -29 R -29 -9 R -19 0 R -29 9 R -9 19 R D 8512 11737 M
-29 -10 R -19 -28 R -9 -48 R 0 -29 R 9 -48 R 19 -29 R 29 -9 R 19 0 R 29 9 R
19 29 R 10 48 R 0 29 R -10 48 R -19 28 R -29 10 R -19 0 R D
%%PageTrailer
end
%%PageResources: font Helvetica
%%Trailer
%%Pages: 1
%%DocumentNeededResources: font Helvetica
%%EOF
