%!PS-Adobe-3.0 EPSF-3.0
%%BoundingBox: 0 0 504 360
%%Title: Graphics produced by IDL
%%For: Aaron@Aaron, /home/Aaron
%%Creator: IDL Version 7.1 (linux x86 m32)
%%CreationDate: Tue Feb 22 09:58:45 2011
%%DocumentData: Clean7bit
%%LanguageLevel: 1
%%PageOrder: Ascend
%%Pages: (atend)
%%DocumentNeededResources: (atend)
%%EndComments
%%BeginProlog
%+ prolog.ps -- Prolog for IDL generated PostScript files
%+ Copyright (c) 1988-2009 ITT Visual Information Solutions. All Rights Reserved.
%v 5
/$IDL_DICT 40 dict def $IDL_DICT begin /bdef { bind def } bind def /C
{currentpoint newpath moveto} bdef /CP {currentpoint} bdef /D {currentpoint
stroke moveto} bdef /F {closepath fill} bdef /K { setgray } bdef /M {moveto}
bdef /N {rmoveto} bdef /P {lineto} bdef /R {rlineto} bdef /S {gsave show
grestore} bdef /X {currentpoint pop} bdef /Z {gsave currentpoint lineto 20
setlinewidth 1 setlinecap stroke grestore} bdef /L0 {[] 0 setdash} bdef /L1
{[40 100] 0 setdash} bdef /L2 {[200 200] 0 setdash} bdef /L3 {[200 100 50
100] 0 setdash} bdef /L4 {[300 100 50 100 50 100 50 100] 0 setdash} bdef /L5
{[400 200] 0 setdash} bdef /STDFONT { findfont exch scalefont setfont } bdef
/ISOFONT { findfont dup length dict begin { 1 index /FID ne {def} {pop pop}
ifelse } forall /Encoding ISOLatin1Encoding def currentdict end /idltmpfont
exch definefont exch scalefont setfont } bdef /ISOBULLET { gsave /Helvetica
findfont exch scalefont setfont (\267) show currentpoint grestore moveto}
bdef /MITERLIMIT { 2.5 setmiterlimit } bdef end
%%EndProlog
%%Page: 0 1
%%PageResources: (atend)
%%PageOrientation: Portrait
%%PageBoundingBox: 0 0 504 360
%%BeginPageSetup
$IDL_DICT begin 0.0283465 dup scale MITERLIMIT
%%IncludeResource: font Helvetica
423.333 /Helvetica STDFONT
%%EndPageSetup
10 setlinewidth L0 0.000 K 2220 1408 M 14894 0 R D 2220 1408 M 0 212 R D
2021 1125 M -35 -11 R -23 -35 R -12 -59 R 0 -35 R 12 -58 R 23 -35 R 35 -12 R
24 0 R 35 12 R 23 35 R 12 58 R 0 35 R -12 59 R -23 35 R -35 11 R -24 0 R
-23 -11 R -12 -12 R -11 -23 R -12 -59 R 0 -35 R 12 -58 R 11 -24 R 12 -11 R
23 -12 R D 2045 880 M 23 12 R 12 11 R 12 24 R 11 58 R 0 35 R -11 59 R
-12 23 R -12 12 R -23 11 R D 2208 903 M -11 -11 R 11 -12 R 12 12 R -12 11 R
D 2407 1102 M 0 -222 R D 2419 1125 M 0 -245 R D 2419 1125 M -129 -175 R
187 0 R D 2372 880 M 82 0 R D 5199 1408 M 0 212 R D 5000 1125 M -35 -11 R
-23 -35 R -12 -59 R 0 -35 R 12 -58 R 23 -35 R 35 -12 R 24 0 R 35 12 R
23 35 R 12 58 R 0 35 R -12 59 R -23 35 R -35 11 R -24 0 R -23 -11 R
-12 -12 R -11 -23 R -12 -59 R 0 -35 R 12 -58 R 11 -24 R 12 -11 R 23 -12 R D
5024 880 M 23 12 R 12 11 R 11 24 R 12 58 R 0 35 R -12 59 R -11 23 R -12 12 R
-23 11 R D 5187 903 M -11 -11 R 11 -12 R 12 12 R -12 11 R D 5421 1090 M
-12 -11 R 12 -12 R 12 12 R 0 11 R -12 24 R -23 11 R -36 0 R -35 -11 R
-23 -24 R -12 -23 R -11 -47 R 0 -70 R 11 -35 R 24 -23 R 35 -12 R 23 0 R
35 12 R 24 23 R 11 35 R 0 12 R -11 35 R -24 23 R -35 12 R -12 0 R -35 -12 R
-23 -23 R -12 -35 R D 5362 1125 M -23 -11 R -23 -24 R -12 -23 R -12 -47 R
0 -70 R 12 -35 R 23 -23 R 24 -12 R D 5374 880 M 24 12 R 23 23 R 12 35 R
0 12 R -12 35 R -23 23 R -24 12 R D 8178 1408 M 0 212 R D 7979 1125 M
-35 -11 R -23 -35 R -12 -59 R 0 -35 R 12 -58 R 23 -35 R 35 -12 R 23 0 R
35 12 R 24 35 R 12 58 R 0 35 R -12 59 R -24 35 R -35 11 R -23 0 R -23 -11 R
-12 -12 R -12 -23 R -11 -59 R 0 -35 R 11 -58 R 12 -24 R 12 -11 R 23 -12 R D
8002 880 M 24 12 R 11 11 R 12 24 R 12 58 R 0 35 R -12 59 R -12 23 R -11 12 R
-24 11 R D 8166 903 M -12 -11 R 12 -12 R 12 12 R -12 11 R D 8318 1125 M
-35 -11 R -12 -24 R 0 -35 R 12 -23 R 35 -12 R 47 0 R 35 12 R 11 23 R 0 35 R
-11 24 R -35 11 R -47 0 R -23 -11 R -12 -24 R 0 -35 R 12 -23 R 23 -12 R D
8365 1020 M 23 12 R 12 23 R 0 35 R -12 24 R -23 11 R D 8318 1020 M -35 -11 R
-12 -12 R -12 -23 R 0 -47 R 12 -24 R 12 -11 R 35 -12 R 47 0 R 35 12 R
11 11 R 12 24 R 0 47 R -12 23 R -11 12 R -35 11 R D 8318 1020 M -23 -11 R
-12 -12 R -12 -23 R 0 -47 R 12 -24 R 12 -11 R 23 -12 R D 8365 880 M 23 12 R
12 11 R 11 24 R 0 47 R -11 23 R -12 12 R -23 11 R D 11156 1408 M 0 212 R D
10923 1079 M 23 11 R 35 35 R 0 -245 R D 10970 1114 M 0 -234 R D 10923 880 M
105 0 R D 11145 903 M -12 -11 R 12 -12 R 11 12 R -11 11 R D 11308 1125 M
-35 -11 R -23 -35 R -12 -59 R 0 -35 R 12 -58 R 23 -35 R 35 -12 R 24 0 R
35 12 R 23 35 R 12 58 R 0 35 R -12 59 R -23 35 R -35 11 R -24 0 R -23 -11 R
-12 -12 R -11 -23 R -12 -59 R 0 -35 R 12 -58 R 11 -24 R 12 -11 R 23 -12 R D
11332 880 M 23 12 R 12 11 R 11 24 R 12 58 R 0 35 R -12 59 R -11 23 R
-12 12 R -23 11 R D 14135 1408 M 0 212 R D 13902 1079 M 23 11 R 35 35 R
0 -245 R D 13948 1114 M 0 -234 R D 13902 880 M 105 0 R D 14124 903 M
-12 -11 R 12 -12 R 11 12 R -11 11 R D 14229 1079 M 11 -12 R -11 -12 R
-12 12 R 0 12 R 12 23 R 11 12 R 35 11 R 47 0 R 35 -11 R 12 -12 R 12 -23 R
0 -24 R -12 -23 R -35 -23 R -59 -24 R -23 -11 R -23 -24 R -12 -35 R 0 -35 R
D 14322 1125 M 24 -11 R 11 -12 R 12 -23 R 0 -24 R -12 -23 R -35 -23 R
-47 -24 R D 14217 903 M 12 12 R 23 0 R 59 -23 R 35 0 R 23 11 R 12 12 R D
14252 915 M 59 -35 R 46 0 R 12 12 R 12 23 R 0 23 R D 17114 1408 M 0 212 R D
16880 1079 M 24 11 R 35 35 R 0 -245 R D 16927 1114 M 0 -234 R D 16880 880 M
106 0 R D 17102 903 M -11 -11 R 11 -12 R 12 12 R -12 11 R D 17301 1102 M
0 -222 R D 17313 1125 M 0 -245 R D 17313 1125 M -129 -175 R 187 0 R D
17266 880 M 82 0 R D 2965 1408 M 0 106 R D 3709 1408 M 0 106 R D 4454 1408 M
0 106 R D 5944 1408 M 0 106 R D 6688 1408 M 0 106 R D 7433 1408 M 0 106 R D
8922 1408 M 0 106 R D 9667 1408 M 0 106 R D 10412 1408 M 0 106 R D
11901 1408 M 0 106 R D 12646 1408 M 0 106 R D 13391 1408 M 0 106 R D
14880 1408 M 0 106 R D 15625 1408 M 0 106 R D 16369 1408 M 0 106 R D
2220 11996 M 14894 0 R D 2220 11996 M 0 -212 R D 5199 11996 M 0 -212 R D
8178 11996 M 0 -212 R D 11156 11996 M 0 -212 R D 14135 11996 M 0 -212 R D
17114 11996 M 0 -212 R D 2965 11996 M 0 -106 R D 3709 11996 M 0 -106 R D
4454 11996 M 0 -106 R D 5944 11996 M 0 -106 R D 6688 11996 M 0 -106 R D
7433 11996 M 0 -106 R D 8922 11996 M 0 -106 R D 9667 11996 M 0 -106 R D
10412 11996 M 0 -106 R D 11901 11996 M 0 -106 R D 12646 11996 M 0 -106 R D
13391 11996 M 0 -106 R D 14880 11996 M 0 -106 R D 15625 11996 M 0 -106 R D
16369 11996 M 0 -106 R D 2220 1408 M 0 10588 R D 2220 1408 M 298 0 R D
1969 1653 M -35 -11 R -24 -35 R -11 -59 R 0 -35 R 11 -58 R 24 -35 R 35 -12 R
23 0 R 35 12 R 24 35 R 11 58 R 0 35 R -11 59 R -24 35 R -35 11 R -23 0 R
-23 -11 R -12 -12 R -12 -23 R -12 -59 R 0 -35 R 12 -58 R 12 -24 R 12 -11 R
23 -12 R D 1992 1408 M 24 12 R 11 11 R 12 24 R 12 58 R 0 35 R -12 59 R
-12 23 R -11 12 R -24 11 R D 2220 3526 M 298 0 R D 1688 3630 M -23 -117 R
23 24 R 36 11 R 35 0 R 35 -11 R 23 -24 R 12 -35 R 0 -23 R -12 -35 R
-23 -23 R -35 -12 R -35 0 R -36 12 R -11 11 R -12 24 R 0 11 R 12 12 R
11 -12 R -11 -11 R D 1759 3548 M 23 -11 R 23 -24 R 12 -35 R 0 -23 R
-12 -35 R -23 -23 R -23 -12 R D 1688 3630 M 117 0 R D 1688 3619 M 59 0 R
58 11 R D 1969 3630 M -35 -11 R -24 -36 R -11 -58 R 0 -35 R 11 -58 R
24 -35 R 35 -12 R 23 0 R 35 12 R 24 35 R 11 58 R 0 35 R -11 58 R -24 36 R
-35 11 R -23 0 R -23 -11 R -12 -12 R -12 -24 R -12 -58 R 0 -35 R 12 -58 R
12 -24 R 12 -11 R 23 -12 R D 1992 3385 M 24 12 R 11 11 R 12 24 R 12 58 R
0 35 R -12 58 R -12 24 R -11 12 R -24 11 R D 2220 5643 M 298 0 R D
1466 5701 M 24 12 R 35 35 R 0 -246 R D 1513 5736 M 0 -234 R D 1466 5502 M
106 0 R D 1735 5748 M -35 -12 R -23 -35 R -12 -58 R 0 -35 R 12 -59 R
23 -35 R 35 -12 R 24 0 R 35 12 R 23 35 R 12 59 R 0 35 R -12 58 R -23 35 R
-35 12 R -24 0 R -23 -12 R -12 -12 R -12 -23 R -11 -58 R 0 -35 R 11 -59 R
12 -23 R 12 -12 R 23 -12 R D 1759 5502 M 23 12 R 12 12 R 11 23 R 12 59 R
0 35 R -12 58 R -11 23 R -12 12 R -23 12 R D 1969 5748 M -35 -12 R -24 -35 R
-11 -58 R 0 -35 R 11 -59 R 24 -35 R 35 -12 R 23 0 R 35 12 R 24 35 R 11 59 R
0 35 R -11 58 R -24 35 R -35 12 R -23 0 R -23 -12 R -12 -12 R -12 -23 R
-12 -58 R 0 -35 R 12 -59 R 12 -23 R 12 -12 R 23 -12 R D 1992 5502 M 24 12 R
11 12 R 12 23 R 12 59 R 0 35 R -12 58 R -12 23 R -11 12 R -24 12 R D
2220 7761 M 298 0 R D 1466 7819 M 24 11 R 35 35 R 0 -245 R D 1513 7854 M
0 -234 R D 1466 7620 M 106 0 R D 1688 7865 M -23 -116 R 23 23 R 36 12 R
35 0 R 35 -12 R 23 -23 R 12 -35 R 0 -24 R -12 -35 R -23 -23 R -35 -12 R
-35 0 R -36 12 R -11 11 R -12 24 R 0 11 R 12 12 R 11 -12 R -11 -11 R D
1759 7784 M 23 -12 R 23 -23 R 12 -35 R 0 -24 R -12 -35 R -23 -23 R -23 -12 R
D 1688 7865 M 117 0 R D 1688 7854 M 59 0 R 58 11 R D 1969 7865 M -35 -11 R
-24 -35 R -11 -59 R 0 -35 R 11 -58 R 24 -35 R 35 -12 R 23 0 R 35 12 R
24 35 R 11 58 R 0 35 R -11 59 R -24 35 R -35 11 R -23 0 R -23 -11 R
-12 -12 R -12 -23 R -12 -59 R 0 -35 R 12 -58 R 12 -24 R 12 -11 R 23 -12 R D
1992 7620 M 24 12 R 11 11 R 12 24 R 12 58 R 0 35 R -12 59 R -12 23 R
-11 12 R -24 11 R D 2220 9878 M 298 0 R D 1443 9936 M 12 -11 R -12 -12 R
-12 12 R 0 11 R 12 24 R 12 11 R 35 12 R 47 0 R 35 -12 R 11 -11 R 12 -24 R
0 -23 R -12 -23 R -35 -24 R -58 -23 R -24 -12 R -23 -23 R -12 -35 R 0 -35 R
D 1537 9983 M 23 -12 R 12 -11 R 11 -24 R 0 -23 R -11 -23 R -35 -24 R
-47 -23 R D 1431 9761 M 12 12 R 23 0 R 59 -24 R 35 0 R 23 12 R 12 12 R D
1466 9773 M 59 -35 R 47 0 R 11 11 R 12 24 R 0 23 R D 1735 9983 M -35 -12 R
-23 -35 R -12 -58 R 0 -35 R 12 -59 R 23 -35 R 35 -11 R 24 0 R 35 11 R
23 35 R 12 59 R 0 35 R -12 58 R -23 35 R -35 12 R -24 0 R -23 -12 R
-12 -11 R -12 -24 R -11 -58 R 0 -35 R 11 -59 R 12 -23 R 12 -12 R 23 -11 R D
1759 9738 M 23 11 R 12 12 R 11 23 R 12 59 R 0 35 R -12 58 R -11 24 R
-12 11 R -23 12 R D 1969 9983 M -35 -12 R -24 -35 R -11 -58 R 0 -35 R
11 -59 R 24 -35 R 35 -11 R 23 0 R 35 11 R 24 35 R 11 59 R 0 35 R -11 58 R
-24 35 R -35 12 R -23 0 R -23 -12 R -12 -11 R -12 -24 R -12 -58 R 0 -35 R
12 -59 R 12 -23 R 12 -12 R 23 -11 R D 1992 9738 M 24 11 R 11 12 R 12 23 R
12 59 R 0 35 R -12 58 R -12 24 R -11 11 R -24 12 R D 2220 11996 M 298 0 R D
1443 11948 M 12 -11 R -12 -12 R -12 12 R 0 11 R 12 24 R 12 11 R 35 12 R
47 0 R 35 -12 R 11 -11 R 12 -24 R 0 -23 R -12 -23 R -35 -24 R -58 -23 R
-24 -12 R -23 -23 R -12 -35 R 0 -35 R D 1537 11995 M 23 -12 R 12 -11 R
11 -24 R 0 -23 R -11 -23 R -35 -24 R -47 -23 R D 1431 11773 M 12 12 R 23 0 R
59 -24 R 35 0 R 23 12 R 12 12 R D 1466 11785 M 59 -35 R 47 0 R 11 11 R
12 24 R 0 23 R D 1688 11995 M -23 -117 R 23 24 R 36 11 R 35 0 R 35 -11 R
23 -24 R 12 -35 R 0 -23 R -12 -35 R -23 -24 R -35 -11 R -35 0 R -36 11 R
-11 12 R -12 23 R 0 12 R 12 12 R 11 -12 R -11 -12 R D 1759 11913 M 23 -11 R
23 -24 R 12 -35 R 0 -23 R -12 -35 R -23 -24 R -23 -11 R D 1688 11995 M
117 0 R D 1688 11983 M 59 0 R 58 12 R D 1969 11995 M -35 -12 R -24 -35 R
-11 -58 R 0 -35 R 11 -59 R 24 -35 R 35 -11 R 23 0 R 35 11 R 24 35 R 11 59 R
0 35 R -11 58 R -24 35 R -35 12 R -23 0 R -23 -12 R -12 -11 R -12 -24 R
-12 -58 R 0 -35 R 12 -59 R 12 -23 R 12 -12 R 23 -11 R D 1992 11750 M 24 11 R
11 12 R 12 23 R 12 59 R 0 35 R -12 58 R -12 24 R -11 11 R -24 12 R D
2220 1832 M 149 0 R D 2220 2255 M 149 0 R D 2220 2679 M 149 0 R D
2220 3102 M 149 0 R D 2220 3949 M 149 0 R D 2220 4373 M 149 0 R D
2220 4796 M 149 0 R D 2220 5220 M 149 0 R D 2220 6067 M 149 0 R D
2220 6490 M 149 0 R D 2220 6914 M 149 0 R D 2220 7337 M 149 0 R D
2220 8184 M 149 0 R D 2220 8608 M 149 0 R D 2220 9031 M 149 0 R D
2220 9455 M 149 0 R D 2220 10302 M 149 0 R D 2220 10726 M 149 0 R D
2220 11149 M 149 0 R D 2220 11573 M 149 0 R D 17114 1408 M 0 10588 R D
17114 1408 M -298 0 R D 17114 3526 M -298 0 R D 17114 5643 M -298 0 R D
17114 7761 M -298 0 R D 17114 9878 M -298 0 R D 17114 11996 M -298 0 R D
17114 1832 M -149 0 R D 17114 2255 M -149 0 R D 17114 2679 M -149 0 R D
17114 3102 M -149 0 R D 17114 3949 M -149 0 R D 17114 4373 M -149 0 R D
17114 4796 M -149 0 R D 17114 5220 M -149 0 R D 17114 6067 M -149 0 R D
17114 6490 M -149 0 R D 17114 6914 M -149 0 R D 17114 7337 M -149 0 R D
17114 8184 M -149 0 R D 17114 8608 M -149 0 R D 17114 9031 M -149 0 R D
17114 9455 M -149 0 R D 17114 10302 M -149 0 R D 17114 10726 M -149 0 R D
17114 11149 M -149 0 R D 17114 11573 M -149 0 R D 4230 2763 M 98 0 R
0 -1186 R 98 0 R 99 0 R 98 0 R 99 0 R 0 128 R 98 0 R 99 0 R 0 -170 R 98 0 R
99 0 R 0 127 R 98 0 R 98 0 R 0 170 R 99 0 R 98 0 R 0 -170 R 99 0 R 98 0 R
0 -85 R 99 0 R 98 0 R 99 0 R 98 0 R 0 212 R 98 0 R 99 0 R 0 -212 R 98 0 R
99 0 R 0 255 R 98 0 R 99 0 R 98 0 R 99 0 R 0 84 R 98 0 R 98 0 R 0 -127 R
99 0 R 98 0 R 0 170 R 99 0 R 98 0 R 0 -85 R 99 0 R 98 0 R 0 339 R 99 0 R
98 0 R 0 -43 R 98 0 R 99 0 R 0 424 R 98 0 R 99 0 R 0 339 R 98 0 R 99 0 R
0 211 R 98 0 R 98 0 R 0 128 R 99 0 R 98 0 R 0 254 R 99 0 R 98 0 R 0 1313 R
99 0 R 98 0 R 0 127 R 99 0 R 98 0 R 0 1228 R 98 0 R 99 0 R 0 1313 R 98 0 R
99 0 R 0 3261 R 98 0 R 99 0 R 0 -1525 R 98 0 R 99 0 R 0 -4193 R 98 0 R
98 0 R 0 -889 R 99 0 R 98 0 R 0 -974 R 99 0 R 98 0 R 0 -212 R 99 0 R 98 0 R
0 -381 R 99 0 R 98 0 R 0 -42 R 98 0 R 99 0 R 0 -593 R 98 0 R 99 0 R 0 254 R
98 0 R 99 0 R 0 -424 R 98 0 R 99 0 R 0 170 R 98 0 R 98 0 R 0 -43 R 99 0 R
98 0 R 99 0 R 98 0 R 0 -423 R 99 0 R 98 0 R 0 339 R 99 0 R 98 0 R 0 -212 R
98 0 R 99 0 R 0 169 R 98 0 R 99 0 R 0 -127 R 98 0 R 99 0 R 0 -85 R 98 0 R
98 0 R 0 -84 R 99 0 R 98 0 R 0 -43 R 99 0 R 98 0 R 99 0 R 98 0 R 0 -42 R
99 0 R 98 0 R 0 127 R 98 0 R 99 0 R 0 -85 R 98 0 R 99 0 R 98 0 R 99 0 R
0 1271 R 98 0 R D 4161 1408 M 167 167 R D 4328 1825 M -197 -197 R D
4131 1878 M 197 197 R D 4328 2326 M -197 -198 R D 4131 2379 M 197 197 R D
4264 2762 M -133 -133 R D 4411 1407 M 114 114 R D 4330 1576 M -2 -1 R D
4662 1408 M 60 60 R D 4580 1576 M -55 -54 R D 4912 1408 M 7 7 R D
4919 1665 M -197 -197 R D 4919 1415 M 120 119 R D 5312 1557 M -150 -150 R D
5116 1611 M 49 50 R D 5509 1504 M -97 -97 R D 5312 1558 M 197 196 R D
5336 1831 M -24 -23 R D 5663 1407 M 43 43 R D 5666 1661 M -157 -157 R D
5706 1451 M 126 125 R D 6082 1576 M -168 -168 R D 6163 1407 M 134 134 R D
6294 1788 M -194 -193 R D 6414 1408 M 80 80 R D 6332 1576 M -35 -35 R D
6664 1408 M 27 27 R D 6691 1685 M -197 -197 R D 6494 1738 M 93 93 R D
6888 1631 M -197 -196 R D 6691 1685 M 147 146 R D 7084 1577 M -170 -170 R D
6888 1631 M 196 196 R D 6921 1915 M -33 -33 R D 7164 1407 M 116 116 R D
7280 1773 M -195 -195 R D 7415 1407 M 63 63 R D 7478 1720 M -197 -196 R D
7281 1774 M 184 184 R D 7675 1417 M -9 -9 R D 7478 1471 M 197 196 R D
7630 1873 M -152 -152 R D 7675 1417 M 197 197 R D 7872 1865 M -197 -198 R D
7675 1918 M 197 197 R D 7719 2212 M -44 -44 R D 7915 1407 M 154 154 R D
8069 1811 M -197 -197 R D 7872 1865 M 197 196 R D 7927 2169 M -55 -54 R D
8166 1408 M 100 100 R D 8266 1758 M -197 -197 R D 8069 1811 M 197 197 R D
8266 2258 M -197 -197 R D 8069 2312 M 197 197 R D 8100 2593 M -31 -31 R D
8417 1408 M 46 46 R D 8463 1704 M -197 -196 R D 8266 1758 M 197 196 R D
8463 2205 M -197 -197 R D 8266 2258 M 197 197 R D 8463 2705 M -197 -196 R D
8266 2759 M 173 173 R D 8659 1650 M -196 -195 R D 8463 1705 M 196 195 R D
8659 2150 M -196 -195 R D 8463 2205 M 196 196 R D 8659 2651 M -196 -195 R D
8463 2706 M 196 196 R D 8650 3143 M -187 -187 R D 8666 1407 M 190 190 R D
8856 1847 M -197 -197 R D 8659 1900 M 197 197 R D 8856 2348 M -197 -198 R D
8659 2401 M 197 197 R D 8856 2848 M -197 -197 R D 8659 2901 M 196 197 R D
8778 3271 M -119 -119 R D 8917 1407 M 136 137 R D 9053 1794 M -196 -197 R D
8857 1848 M 196 196 R D 9053 2295 M -196 -197 R D 8857 2348 M 196 197 R D
9053 2795 M -196 -196 R D 8857 2849 M 196 197 R D 9053 3296 M -196 -197 R D
8857 3350 M 175 175 R D 9250 1490 M -83 -83 R D 9053 1544 M 197 196 R D
9250 1991 M -197 -197 R D 9053 2044 M 197 197 R D 9250 2491 M -197 -196 R D
9053 2545 M 197 196 R D 9250 2992 M -197 -197 R D 9053 3046 M 197 196 R D
9250 3492 M -197 -196 R D 9053 3546 M 197 197 R D 9250 3993 M -197 -197 R D
9053 4047 M 197 196 R D 9250 4494 M -197 -197 R D 9053 4547 M 197 197 R D
9093 4838 M -40 -40 R D 9418 1408 M 29 29 R D 9447 1687 M -197 -197 R D
9250 1740 M 197 197 R D 9447 2188 M -197 -197 R D 9250 2241 M 197 197 R D
9447 2688 M -197 -197 R D 9250 2741 M 197 198 R D 9447 3189 M -197 -197 R D
9250 3242 M 197 197 R D 9447 3690 M -197 -198 R D 9250 3743 M 197 197 R D
9447 4190 M -197 -197 R D 9250 4243 M 197 198 R D 9447 4691 M -197 -197 R D
9250 4744 M 197 197 R D 9644 1634 M -197 -197 R D 9447 1687 M 197 197 R D
9644 2135 M -197 -198 R D 9447 2188 M 197 197 R D 9644 2635 M -197 -197 R D
9447 2688 M 197 198 R D 9644 3136 M -197 -197 R D 9447 3189 M 197 197 R D
9644 3637 M -197 -198 R D 9447 3690 M 197 197 R D 9644 4137 M -197 -197 R D
9447 4190 M 197 198 R D 9644 4638 M -197 -197 R D 9447 4691 M 197 197 R D
9644 5139 M -197 -198 R D 9447 5192 M 197 197 R D 9644 5639 M -197 -197 R D
9447 5692 M 197 197 R D 9644 6140 M -197 -197 R D 9447 6193 M Z 9841 1580 M
-173 -173 R D 9644 1634 M 197 197 R D 9841 2081 M -197 -197 R D 9644 2135 M
197 196 R D 9841 2582 M -197 -197 R D 9644 2635 M 197 197 R D 9841 3082 M
-197 -196 R D 9644 3136 M 197 197 R D 9841 3583 M -197 -197 R D 9644 3637 M
197 196 R D 9841 4084 M -197 -197 R D 9644 4137 M 197 197 R D 9841 4584 M
-197 -196 R D 9644 4638 M 197 196 R D 9841 5085 M -197 -197 R D 9644 5139 M
197 196 R D 9841 5585 M -197 -196 R D 9644 5639 M 197 197 R D 9841 6086 M
-197 -197 R D 9644 6140 M 197 196 R D 9841 6587 M -197 -197 R D 9644 6640 M
197 197 R D 9841 7087 M -197 -196 R D 9644 7141 M 197 197 R D 9759 7507 M
-115 -116 R D 9919 1408 M 119 119 R D 10038 1778 M -197 -198 R D 9841 1831 M
197 197 R D 10038 2278 M -197 -197 R D 9841 2331 M 197 198 R D 10038 2779 M
-197 -197 R D 9841 2832 M 197 197 R D 10038 3280 M -197 -198 R D 9841 3333 M
197 197 R D 10038 3780 M -197 -197 R D 9841 3833 M 197 198 R D 10038 4281 M
-197 -197 R D 9841 4334 M 197 197 R D 10038 4781 M -197 -197 R D 9841 4834 M
197 198 R D 10038 5282 M -197 -197 R D 9841 5335 M 197 197 R D 10038 5783 M
-197 -198 R D 9841 5836 M 197 197 R D 10038 6283 M -197 -197 R D 9841 6336 M
197 198 R D 10038 6784 M -197 -197 R D 9841 6837 M 197 197 R D 10038 7285 M
-197 -198 R D 9841 7338 M 197 197 R D 10038 7785 M -197 -197 R D 9841 7838 M
197 198 R D 10038 8286 M -197 -197 R D 9841 8339 M 197 197 R D 10038 8787 M
-197 -198 R D 9841 8840 M 197 197 R D 10038 9287 M -197 -197 R D 9841 9340 M
197 197 R D 10038 9788 M -197 -198 R D 9841 9841 M 197 197 R D 10038 10288 M
-197 -197 R D 9841 10341 M 197 198 R D 10016 10767 M -175 -175 R D
10169 1408 M 66 66 R D 10235 1725 M -197 -198 R D 10038 1778 M 197 197 R D
10235 2225 M -197 -197 R D 10038 2278 M 197 198 R D 10235 2726 M -197 -197 R
D 10038 2779 M 197 197 R D 10235 3227 M -197 -198 R D 10038 3280 M 197 197 R
D 10235 3727 M -197 -197 R D 10038 3780 M 197 197 R D 10235 4228 M
-197 -197 R D 10038 4281 M 197 197 R D 10235 4728 M -197 -197 R D
10038 4781 M 197 198 R D 10235 5229 M -197 -197 R D 10038 5282 M 197 197 R D
10235 5730 M -197 -198 R D 10038 5783 M 197 197 R D 10235 6230 M -197 -197 R
D 10038 6283 M 197 198 R D 10235 6731 M -197 -197 R D 10038 6784 M 197 197 R
D 10235 7232 M -197 -198 R D 10038 7285 M 197 197 R D 10235 7732 M
-197 -197 R D 10038 7785 M 197 198 R D 10235 8233 M -197 -197 R D
10038 8286 M 197 197 R D 10235 8733 M -197 -197 R D 10038 8787 M 197 197 R D
10235 9234 M -197 -197 R D 10419 1407 M 12 12 R D 10431 1669 M -196 -195 R D
10235 1725 M 196 195 R D 10431 2170 M -196 -195 R D 10235 2225 M 196 195 R D
10431 2671 M -196 -195 R D 10235 2726 M 196 195 R D 10431 3171 M -196 -195 R
D 10235 3227 M 196 195 R D 10431 3672 M -196 -195 R D 10235 3727 M 196 195 R
D 10431 4173 M -196 -196 R D 10235 4228 M 196 195 R D 10431 4673 M
-196 -195 R D 10235 4728 M 196 196 R D 10306 5049 M -71 -70 R D 10431 1420 M
197 196 R D 10628 1867 M -197 -197 R D 10431 1921 M 197 196 R D 10628 2367 M
-197 -196 R D 10431 2421 M 197 197 R D 10627 2867 M -196 -196 R D
10432 2922 M 195 196 R D 10627 3368 M -195 -195 R D 10432 3423 M 195 195 R D
10627 3869 M -195 -196 R D 10432 3924 M 195 195 R D 10825 1563 M -156 -156 R
D 10629 1617 M 196 197 R D 10825 2064 M -196 -197 R D 10629 2118 M 196 196 R
D 10825 2565 M -196 -197 R D 10629 2618 M 196 197 R D 10825 3065 M
-196 -196 R D 10629 3119 M 67 67 R D 11022 1510 M -103 -103 R D 10825 1563 M
197 197 R D 11022 2010 M -197 -196 R D 10825 2064 M 197 197 R D 11022 2511 M
-197 -197 R D 10825 2565 M 197 196 R D 10984 2974 M -159 -159 R D
11170 1408 M 49 49 R D 11219 1707 M -197 -197 R D 11022 1760 M 197 197 R D
11219 2208 M -197 -198 R D 11022 2261 M 197 197 R D 11104 2593 M -82 -82 R D
11219 1457 M 197 197 R D 11416 1904 M -197 -197 R D 11219 1957 M 197 198 R D
11416 2405 M -197 -197 R D 11219 2458 M 93 93 R D 11613 1600 M -193 -193 R D
11416 1654 M 197 196 R D 11471 1959 M -55 -55 R D 11671 1408 M 139 139 R D
11810 1797 M -197 -197 R D 11613 1850 M 197 198 R D 11724 2212 M -111 -111 R
D 11921 1408 M 86 85 R D 12007 1744 M -197 -197 R D 12171 1407 M 32 32 R D
12203 1689 M -196 -195 R D 12007 1744 M 196 196 R D 12400 1636 M -197 -196 R
D 12203 1690 M 197 197 R D 12597 1583 M -176 -176 R D 12401 1637 M 196 197 R
D 12428 1915 M -27 -28 R D 12671 1407 M 85 85 R D 12991 1476 M -69 -68 R D
12794 1529 M 197 198 R D 12845 1831 M -51 -51 R D 13173 1408 M 15 15 R D
13134 1619 M -142 -142 R D 13188 1423 M 197 197 R D 13303 1788 M -115 -114 R
D 13423 1408 M 159 159 R D 13426 1661 M -41 -41 R D 13673 1408 M 105 105 R D
13591 1576 M -9 -9 R D 13923 1407 M 52 52 R D 14215 1449 M -42 -42 R D
14675 1408 M 88 88 R D 14960 1443 M -35 -35 R D 14960 1443 M 7 7 R D
15354 1587 M -179 -179 R D 15158 1640 M 196 197 R D 15354 2087 M -196 -196 R
D 15158 2141 M 196 197 R D 15354 2588 M -196 -197 R D 15158 2642 M 78 78 R D
4131 1408 M 57 0 R 56 0 R 56 0 R 57 0 R 56 0 R 57 0 R 56 0 R 56 0 R 57 0 R
56 0 R 56 0 R 57 0 R 56 0 R 57 0 R 56 0 R 56 0 R 57 0 R 56 0 R 57 0 R 56 0 R
56 0 R 57 0 R 56 0 R 57 0 R 56 0 R 56 0 R 57 0 R 56 0 R 57 0 R 56 0 R 56 0 R
57 0 R 56 0 R 57 0 R 56 0 R 56 0 R 57 0 R 56 0 R 57 0 R 56 0 R 56 0 R 57 0 R
56 0 R 56 0 R 57 0 R 56 0 R 57 0 R 56 0 R 56 0 R 57 0 R 56 0 R 57 0 R 56 0 R
56 0 R 57 0 R 56 0 R 57 0 R 56 1 R 56 0 R 57 1 R 56 0 R 57 1 R 56 2 R 56 2 R
57 3 R 56 4 R 57 6 R 56 8 R 56 10 R 57 14 R 56 19 R 57 24 R 56 31 R 56 39 R
57 50 R 56 63 R 56 77 R 57 94 R 56 114 R 57 136 R 56 160 R 56 187 R 57 215 R
56 245 R 57 275 R 56 305 R 56 334 R 57 360 R 56 384 R 57 401 R 56 415 R
56 419 R 57 418 R 56 406 R 57 386 R 56 357 R 56 319 R 57 272 R 56 218 R
57 158 R 56 94 R 56 27 R 57 -41 R 56 -108 R 57 -171 R 56 -231 R 56 -282 R
57 -328 R 56 -364 R 56 -391 R 57 -409 R 56 -419 R 57 -419 R 56 -412 R
56 -399 R 57 -379 R 56 -355 R 57 -328 R 56 -298 R 56 -269 R 57 -238 R
56 -209 R 57 -181 R 56 -155 R 56 -131 R 57 -109 R 56 -91 R 57 -74 R 56 -59 R
56 -48 R 57 -37 R 56 -30 R 57 -23 R 56 -17 R 56 -13 R 57 -10 R 56 -7 R
57 -6 R 56 -4 R 56 -3 R 57 -2 R 56 -1 R 56 -1 R 57 -1 R 56 0 R 57 0 R
56 -1 R 56 0 R 57 0 R 56 0 R 57 0 R 56 0 R 56 0 R 57 0 R 56 0 R 57 0 R
56 0 R 56 0 R 57 0 R 56 0 R 57 0 R 56 0 R 56 0 R 57 0 R 56 0 R 57 0 R 56 0 R
56 0 R 57 0 R 56 0 R 57 0 R 56 0 R 56 0 R 57 0 R 56 0 R 57 0 R 56 0 R 56 0 R
57 0 R 56 0 R 56 0 R 57 0 R 56 0 R 57 0 R 56 0 R 56 0 R 57 0 R 56 0 R 57 0 R
56 0 R 56 0 R 57 0 R 56 0 R 57 0 R 56 0 R 56 0 R 57 0 R 56 0 R 57 0 R D
3061 11737 M -67 -278 R D 3118 11737 M -67 -278 R D 2994 11632 M 134 0 R D
2984 11574 M 134 0 R D 3204 11536 M -9 9 R 9 10 R 10 -10 R 0 -28 R -10 -20 R
-9 -9 R D 3473 11670 M -58 -211 R D 3482 11670 M -57 -211 R D 3473 11641 M
-10 -57 R 0 -29 R 19 -19 R 19 0 R 19 9 R 20 19 R 19 29 R D 3578 11670 M
-29 -106 R 0 -19 R 10 -9 R 29 0 R 19 19 R 9 19 R D 3588 11670 M -29 -106 R
0 -19 R 9 -9 R D 3674 11536 M -10 9 R 10 10 R 9 -10 R 0 -28 R -9 -20 R
-10 -9 R D 4057 11670 M -96 0 R -29 -10 R -19 -28 R -9 -29 R 0 -29 R 9 -19 R
10 -10 R 19 -9 R 19 0 R 29 9 R 19 29 R 10 29 R 0 29 R -10 19 R -9 9 R
-20 10 R D 3961 11670 M -19 -10 R -19 -28 R -10 -29 R 0 -39 R 10 -19 R D
3961 11536 M 19 9 R 20 29 R 9 29 R 0 38 R -9 19 R 57 0 R D 4115 11651 M
172 0 R D 4115 11593 M 172 0 R D 4689 11699 M 20 9 R 28 29 R 0 -201 R D
4977 11708 M -10 19 R -29 10 R -19 0 R -28 -10 R -20 -28 R -9 -48 R 0 -48 R
9 -39 R 20 -19 R 28 -9 R 10 0 R 29 9 R 19 19 R 9 29 R 0 10 R -9 29 R
-19 19 R -29 9 R -10 0 R -28 -9 R -20 -19 R -9 -29 R D 5168 11708 M -9 19 R
-29 10 R -19 0 R -29 -10 R -19 -28 R -10 -48 R 0 -48 R 10 -39 R 19 -19 R
29 -9 R 10 0 R 28 9 R 19 19 R 10 29 R 0 10 R -10 29 R -19 19 R -28 9 R
-10 0 R -29 -9 R -19 -19 R -10 -29 R D 5264 11699 M 19 9 R 29 29 R 0 -201 R
D 5456 11545 M -10 -9 R -9 9 R 9 10 R 10 -10 R 0 -28 R -10 -20 R -9 -9 R D
6040 11737 M -28 -10 R -20 -28 R -9 -48 R 0 -29 R 9 -48 R 20 -29 R 28 -9 R
19 0 R 29 9 R 19 29 R 10 48 R 0 29 R -10 48 R -19 28 R -29 10 R -19 0 R D
6194 11555 M -10 -10 R 10 -9 R 9 9 R -9 10 R D 6395 11670 M -10 -29 R
-19 -19 R -29 -10 R -9 0 R -29 10 R -19 19 R -10 29 R 0 9 R 10 29 R 19 19 R
29 10 R 9 0 R 29 -10 R 19 -19 R 10 -38 R 0 -48 R -10 -48 R -19 -29 R
-29 -9 R -19 0 R -29 9 R -9 19 R D 6491 11699 M 19 9 R 29 29 R 0 -201 R D
6749 11737 M -96 -134 R 144 0 R D 6749 11737 M 0 -201 R D 6874 11699 M
19 9 R 29 29 R 0 -201 R D 7065 11545 M -9 -9 R -10 9 R 10 10 R 9 -10 R
0 -28 R -9 -20 R -10 -9 R D 7650 11737 M -29 -10 R -19 -28 R -10 -48 R
0 -29 R 10 -48 R 19 -29 R 29 -9 R 19 0 R 29 9 R 19 29 R 10 48 R 0 29 R
-10 48 R -19 28 R -29 10 R -19 0 R D 7803 11555 M -9 -10 R 9 -9 R 10 9 R
-10 10 R D 7937 11737 M -28 -10 R -20 -28 R -9 -48 R 0 -29 R 9 -48 R
20 -29 R 28 -9 R 20 0 R 28 9 R 19 29 R 10 48 R 0 29 R -10 48 R -19 28 R
-28 10 R -20 0 R D 8091 11737 M 105 0 R -57 -77 R 28 0 R 19 -9 R 10 -10 R
10 -29 R 0 -19 R -10 -29 R -19 -19 R -29 -9 R -29 0 R -28 9 R -10 10 R
-10 19 R D 8311 11737 M -29 -10 R -9 -19 R 0 -19 R 9 -19 R 19 -10 R 39 -9 R
29 -10 R 19 -19 R 9 -19 R 0 -29 R -9 -19 R -10 -10 R -29 -9 R -38 0 R
-29 9 R -9 10 R -10 19 R 0 29 R 10 19 R 19 19 R 29 10 R 38 9 R 19 10 R
10 19 R 0 19 R -10 19 R -29 10 R -38 0 R D 8570 11737 M -96 0 R -10 -86 R
10 9 R 29 10 R 28 0 R 29 -10 R 19 -19 R 10 -29 R 0 -19 R -10 -29 R -19 -19 R
-29 -9 R -28 0 R -29 9 R -10 10 R -9 19 R D
%%PageTrailer
end
%%PageResources: font Helvetica
%%Trailer
%%Pages: 1
%%DocumentNeededResources: font Helvetica
%%EOF
