%!PS-Adobe-3.0 EPSF-3.0
%%BoundingBox: 0 0 504 360
%%Title: Graphics produced by IDL
%%For: Aaron@Aaron, /home/Aaron
%%Creator: IDL Version 7.1 (linux x86 m32)
%%CreationDate: Tue Feb 22 13:03:54 2011
%%DocumentData: Clean7bit
%%LanguageLevel: 1
%%PageOrder: Ascend
%%Pages: (atend)
%%DocumentNeededResources: (atend)
%%EndComments
%%BeginProlog
%+ prolog.ps -- Prolog for IDL generated PostScript files
%+ Copyright (c) 1988-2009 ITT Visual Information Solutions. All Rights Reserved.
%v 5
/$IDL_DICT 40 dict def $IDL_DICT begin /bdef { bind def } bind def /C
{currentpoint newpath moveto} bdef /CP {currentpoint} bdef /D {currentpoint
stroke moveto} bdef /F {closepath fill} bdef /K { setgray } bdef /M {moveto}
bdef /N {rmoveto} bdef /P {lineto} bdef /R {rlineto} bdef /S {gsave show
grestore} bdef /X {currentpoint pop} bdef /Z {gsave currentpoint lineto 20
setlinewidth 1 setlinecap stroke grestore} bdef /L0 {[] 0 setdash} bdef /L1
{[40 100] 0 setdash} bdef /L2 {[200 200] 0 setdash} bdef /L3 {[200 100 50
100] 0 setdash} bdef /L4 {[300 100 50 100 50 100 50 100] 0 setdash} bdef /L5
{[400 200] 0 setdash} bdef /STDFONT { findfont exch scalefont setfont } bdef
/ISOFONT { findfont dup length dict begin { 1 index /FID ne {def} {pop pop}
ifelse } forall /Encoding ISOLatin1Encoding def currentdict end /idltmpfont
exch definefont exch scalefont setfont } bdef /ISOBULLET { gsave /Helvetica
findfont exch scalefont setfont (\267) show currentpoint grestore moveto}
bdef /MITERLIMIT { 2.5 setmiterlimit } bdef end
%%EndProlog
%%Page: 0 1
%%PageResources: (atend)
%%PageOrientation: Portrait
%%PageBoundingBox: 0 0 504 360
%%BeginPageSetup
$IDL_DICT begin 0.0283465 dup scale MITERLIMIT
%%IncludeResource: font Helvetica
423.333 /Helvetica STDFONT
%%EndPageSetup
10 setlinewidth L0 0.000 K 2220 1408 M 14894 0 R D 2220 1408 M 0 212 R D
2021 1125 M -35 -11 R -23 -35 R -12 -59 R 0 -35 R 12 -58 R 23 -35 R 35 -12 R
24 0 R 35 12 R 23 35 R 12 58 R 0 35 R -12 59 R -23 35 R -35 11 R -24 0 R
-23 -11 R -12 -12 R -11 -23 R -12 -59 R 0 -35 R 12 -58 R 11 -24 R 12 -11 R
23 -12 R D 2045 880 M 23 12 R 12 11 R 12 24 R 11 58 R 0 35 R -11 59 R
-12 23 R -12 12 R -23 11 R D 2208 903 M -11 -11 R 11 -12 R 12 12 R -12 11 R
D 2407 1102 M 0 -222 R D 2419 1125 M 0 -245 R D 2419 1125 M -129 -175 R
187 0 R D 2372 880 M 82 0 R D 5199 1408 M 0 212 R D 5000 1125 M -35 -11 R
-23 -35 R -12 -59 R 0 -35 R 12 -58 R 23 -35 R 35 -12 R 24 0 R 35 12 R
23 35 R 12 58 R 0 35 R -12 59 R -23 35 R -35 11 R -24 0 R -23 -11 R
-12 -12 R -11 -23 R -12 -59 R 0 -35 R 12 -58 R 11 -24 R 12 -11 R 23 -12 R D
5024 880 M 23 12 R 12 11 R 11 24 R 12 58 R 0 35 R -12 59 R -11 23 R -12 12 R
-23 11 R D 5187 903 M -11 -11 R 11 -12 R 12 12 R -12 11 R D 5421 1090 M
-12 -11 R 12 -12 R 12 12 R 0 11 R -12 24 R -23 11 R -36 0 R -35 -11 R
-23 -24 R -12 -23 R -11 -47 R 0 -70 R 11 -35 R 24 -23 R 35 -12 R 23 0 R
35 12 R 24 23 R 11 35 R 0 12 R -11 35 R -24 23 R -35 12 R -12 0 R -35 -12 R
-23 -23 R -12 -35 R D 5362 1125 M -23 -11 R -23 -24 R -12 -23 R -12 -47 R
0 -70 R 12 -35 R 23 -23 R 24 -12 R D 5374 880 M 24 12 R 23 23 R 12 35 R
0 12 R -12 35 R -23 23 R -24 12 R D 8178 1408 M 0 212 R D 7979 1125 M
-35 -11 R -23 -35 R -12 -59 R 0 -35 R 12 -58 R 23 -35 R 35 -12 R 23 0 R
35 12 R 24 35 R 12 58 R 0 35 R -12 59 R -24 35 R -35 11 R -23 0 R -23 -11 R
-12 -12 R -12 -23 R -11 -59 R 0 -35 R 11 -58 R 12 -24 R 12 -11 R 23 -12 R D
8002 880 M 24 12 R 11 11 R 12 24 R 12 58 R 0 35 R -12 59 R -12 23 R -11 12 R
-24 11 R D 8166 903 M -12 -11 R 12 -12 R 12 12 R -12 11 R D 8318 1125 M
-35 -11 R -12 -24 R 0 -35 R 12 -23 R 35 -12 R 47 0 R 35 12 R 11 23 R 0 35 R
-11 24 R -35 11 R -47 0 R -23 -11 R -12 -24 R 0 -35 R 12 -23 R 23 -12 R D
8365 1020 M 23 12 R 12 23 R 0 35 R -12 24 R -23 11 R D 8318 1020 M -35 -11 R
-12 -12 R -12 -23 R 0 -47 R 12 -24 R 12 -11 R 35 -12 R 47 0 R 35 12 R
11 11 R 12 24 R 0 47 R -12 23 R -11 12 R -35 11 R D 8318 1020 M -23 -11 R
-12 -12 R -12 -23 R 0 -47 R 12 -24 R 12 -11 R 23 -12 R D 8365 880 M 23 12 R
12 11 R 11 24 R 0 47 R -11 23 R -12 12 R -23 11 R D 11156 1408 M 0 212 R D
10923 1079 M 23 11 R 35 35 R 0 -245 R D 10970 1114 M 0 -234 R D 10923 880 M
105 0 R D 11145 903 M -12 -11 R 12 -12 R 11 12 R -11 11 R D 11308 1125 M
-35 -11 R -23 -35 R -12 -59 R 0 -35 R 12 -58 R 23 -35 R 35 -12 R 24 0 R
35 12 R 23 35 R 12 58 R 0 35 R -12 59 R -23 35 R -35 11 R -24 0 R -23 -11 R
-12 -12 R -11 -23 R -12 -59 R 0 -35 R 12 -58 R 11 -24 R 12 -11 R 23 -12 R D
11332 880 M 23 12 R 12 11 R 11 24 R 12 58 R 0 35 R -12 59 R -11 23 R
-12 12 R -23 11 R D 14135 1408 M 0 212 R D 13902 1079 M 23 11 R 35 35 R
0 -245 R D 13948 1114 M 0 -234 R D 13902 880 M 105 0 R D 14124 903 M
-12 -11 R 12 -12 R 11 12 R -11 11 R D 14229 1079 M 11 -12 R -11 -12 R
-12 12 R 0 12 R 12 23 R 11 12 R 35 11 R 47 0 R 35 -11 R 12 -12 R 12 -23 R
0 -24 R -12 -23 R -35 -23 R -59 -24 R -23 -11 R -23 -24 R -12 -35 R 0 -35 R
D 14322 1125 M 24 -11 R 11 -12 R 12 -23 R 0 -24 R -12 -23 R -35 -23 R
-47 -24 R D 14217 903 M 12 12 R 23 0 R 59 -23 R 35 0 R 23 11 R 12 12 R D
14252 915 M 59 -35 R 46 0 R 12 12 R 12 23 R 0 23 R D 17114 1408 M 0 212 R D
16880 1079 M 24 11 R 35 35 R 0 -245 R D 16927 1114 M 0 -234 R D 16880 880 M
106 0 R D 17102 903 M -11 -11 R 11 -12 R 12 12 R -12 11 R D 17301 1102 M
0 -222 R D 17313 1125 M 0 -245 R D 17313 1125 M -129 -175 R 187 0 R D
17266 880 M 82 0 R D 2965 1408 M 0 106 R D 3709 1408 M 0 106 R D 4454 1408 M
0 106 R D 5944 1408 M 0 106 R D 6688 1408 M 0 106 R D 7433 1408 M 0 106 R D
8922 1408 M 0 106 R D 9667 1408 M 0 106 R D 10412 1408 M 0 106 R D
11901 1408 M 0 106 R D 12646 1408 M 0 106 R D 13391 1408 M 0 106 R D
14880 1408 M 0 106 R D 15625 1408 M 0 106 R D 16369 1408 M 0 106 R D
2220 11996 M 14894 0 R D 2220 11996 M 0 -212 R D 5199 11996 M 0 -212 R D
8178 11996 M 0 -212 R D 11156 11996 M 0 -212 R D 14135 11996 M 0 -212 R D
17114 11996 M 0 -212 R D 2965 11996 M 0 -106 R D 3709 11996 M 0 -106 R D
4454 11996 M 0 -106 R D 5944 11996 M 0 -106 R D 6688 11996 M 0 -106 R D
7433 11996 M 0 -106 R D 8922 11996 M 0 -106 R D 9667 11996 M 0 -106 R D
10412 11996 M 0 -106 R D 11901 11996 M 0 -106 R D 12646 11996 M 0 -106 R D
13391 11996 M 0 -106 R D 14880 11996 M 0 -106 R D 15625 11996 M 0 -106 R D
16369 11996 M 0 -106 R D 2220 1408 M 0 10588 R D 2220 1408 M 298 0 R D
1969 1653 M -35 -11 R -24 -35 R -11 -59 R 0 -35 R 11 -58 R 24 -35 R 35 -12 R
23 0 R 35 12 R 24 35 R 11 58 R 0 35 R -11 59 R -24 35 R -35 11 R -23 0 R
-23 -11 R -12 -12 R -12 -23 R -12 -59 R 0 -35 R 12 -58 R 12 -24 R 12 -11 R
23 -12 R D 1992 1408 M 24 12 R 11 11 R 12 24 R 12 58 R 0 35 R -12 59 R
-12 23 R -11 12 R -24 11 R D 2220 3173 M 298 0 R D 1688 3277 M -23 -117 R
23 24 R 36 12 R 35 0 R 35 -12 R 23 -24 R 12 -35 R 0 -23 R -12 -35 R
-23 -23 R -35 -12 R -35 0 R -36 12 R -11 11 R -12 24 R 0 11 R 12 12 R
11 -12 R -11 -11 R D 1759 3196 M 23 -12 R 23 -24 R 12 -35 R 0 -23 R
-12 -35 R -23 -23 R -23 -12 R D 1688 3277 M 117 0 R D 1688 3266 M 59 0 R
58 11 R D 1969 3277 M -35 -11 R -24 -35 R -11 -59 R 0 -35 R 11 -58 R
24 -35 R 35 -12 R 23 0 R 35 12 R 24 35 R 11 58 R 0 35 R -11 59 R -24 35 R
-35 11 R -23 0 R -23 -11 R -12 -12 R -12 -23 R -12 -59 R 0 -35 R 12 -58 R
12 -24 R 12 -11 R 23 -12 R D 1992 3032 M 24 12 R 11 11 R 12 24 R 12 58 R
0 35 R -12 59 R -12 23 R -11 12 R -24 11 R D 2220 4937 M 298 0 R D
1466 4995 M 24 12 R 35 35 R 0 -245 R D 1513 5030 M 0 -233 R D 1466 4797 M
106 0 R D 1735 5042 M -35 -12 R -23 -35 R -12 -58 R 0 -35 R 12 -59 R
23 -35 R 35 -11 R 24 0 R 35 11 R 23 35 R 12 59 R 0 35 R -12 58 R -23 35 R
-35 12 R -24 0 R -23 -12 R -12 -11 R -12 -24 R -11 -58 R 0 -35 R 11 -59 R
12 -23 R 12 -12 R 23 -11 R D 1759 4797 M 23 11 R 12 12 R 11 23 R 12 59 R
0 35 R -12 58 R -11 24 R -12 11 R -23 12 R D 1969 5042 M -35 -12 R -24 -35 R
-11 -58 R 0 -35 R 11 -59 R 24 -35 R 35 -11 R 23 0 R 35 11 R 24 35 R 11 59 R
0 35 R -11 58 R -24 35 R -35 12 R -23 0 R -23 -12 R -12 -11 R -12 -24 R
-12 -58 R 0 -35 R 12 -59 R 12 -23 R 12 -12 R 23 -11 R D 1992 4797 M 24 11 R
11 12 R 12 23 R 12 59 R 0 35 R -12 58 R -12 24 R -11 11 R -24 12 R D
2220 6702 M 298 0 R D 1466 6760 M 24 12 R 35 35 R 0 -246 R D 1513 6795 M
0 -234 R D 1466 6561 M 106 0 R D 1688 6807 M -23 -117 R 23 23 R 36 12 R
35 0 R 35 -12 R 23 -23 R 12 -35 R 0 -24 R -12 -35 R -23 -23 R -35 -12 R
-35 0 R -36 12 R -11 12 R -12 23 R 0 12 R 12 11 R 11 -11 R -11 -12 R D
1759 6725 M 23 -12 R 23 -23 R 12 -35 R 0 -24 R -12 -35 R -23 -23 R -23 -12 R
D 1688 6807 M 117 0 R D 1688 6795 M 59 0 R 58 12 R D 1969 6807 M -35 -12 R
-24 -35 R -11 -59 R 0 -35 R 11 -58 R 24 -35 R 35 -12 R 23 0 R 35 12 R
24 35 R 11 58 R 0 35 R -11 59 R -24 35 R -35 12 R -23 0 R -23 -12 R
-12 -12 R -12 -23 R -12 -59 R 0 -35 R 12 -58 R 12 -23 R 12 -12 R 23 -12 R D
1992 6561 M 24 12 R 11 12 R 12 23 R 12 58 R 0 35 R -12 59 R -12 23 R
-11 12 R -24 12 R D 2220 8467 M 298 0 R D 1443 8525 M 12 -12 R -12 -12 R
-12 12 R 0 12 R 12 23 R 12 12 R 35 11 R 47 0 R 35 -11 R 11 -12 R 12 -23 R
0 -24 R -12 -23 R -35 -24 R -58 -23 R -24 -12 R -23 -23 R -12 -35 R 0 -35 R
D 1537 8571 M 23 -11 R 12 -12 R 11 -23 R 0 -24 R -11 -23 R -35 -24 R
-47 -23 R D 1431 8349 M 12 12 R 23 0 R 59 -23 R 35 0 R 23 11 R 12 12 R D
1466 8361 M 59 -35 R 47 0 R 11 12 R 12 23 R 0 23 R D 1735 8571 M -35 -11 R
-23 -35 R -12 -59 R 0 -35 R 12 -58 R 23 -35 R 35 -12 R 24 0 R 35 12 R
23 35 R 12 58 R 0 35 R -12 59 R -23 35 R -35 11 R -24 0 R -23 -11 R
-12 -12 R -12 -23 R -11 -59 R 0 -35 R 11 -58 R 12 -24 R 12 -11 R 23 -12 R D
1759 8326 M 23 12 R 12 11 R 11 24 R 12 58 R 0 35 R -12 59 R -11 23 R
-12 12 R -23 11 R D 1969 8571 M -35 -11 R -24 -35 R -11 -59 R 0 -35 R
11 -58 R 24 -35 R 35 -12 R 23 0 R 35 12 R 24 35 R 11 58 R 0 35 R -11 59 R
-24 35 R -35 11 R -23 0 R -23 -11 R -12 -12 R -12 -23 R -12 -59 R 0 -35 R
12 -58 R 12 -24 R 12 -11 R 23 -12 R D 1992 8326 M 24 12 R 11 11 R 12 24 R
12 58 R 0 35 R -12 59 R -12 23 R -11 12 R -24 11 R D 2220 10231 M 298 0 R D
1443 10289 M 12 -11 R -12 -12 R -12 12 R 0 11 R 12 24 R 12 11 R 35 12 R
47 0 R 35 -12 R 11 -11 R 12 -24 R 0 -23 R -12 -24 R -35 -23 R -58 -23 R
-24 -12 R -23 -23 R -12 -35 R 0 -35 R D 1537 10336 M 23 -12 R 12 -11 R
11 -24 R 0 -23 R -11 -24 R -35 -23 R -47 -23 R D 1431 10114 M 12 12 R 23 0 R
59 -24 R 35 0 R 23 12 R 12 12 R D 1466 10126 M 59 -35 R 47 0 R 11 11 R
12 24 R 0 23 R D 1688 10336 M -23 -117 R 23 23 R 36 12 R 35 0 R 35 -12 R
23 -23 R 12 -35 R 0 -23 R -12 -35 R -23 -24 R -35 -11 R -35 0 R -36 11 R
-11 12 R -12 23 R 0 12 R 12 12 R 11 -12 R -11 -12 R D 1759 10254 M 23 -12 R
23 -23 R 12 -35 R 0 -23 R -12 -35 R -23 -24 R -23 -11 R D 1688 10336 M
117 0 R D 1688 10324 M 59 0 R 58 12 R D 1969 10336 M -35 -12 R -24 -35 R
-11 -58 R 0 -35 R 11 -59 R 24 -35 R 35 -11 R 23 0 R 35 11 R 24 35 R 11 59 R
0 35 R -11 58 R -24 35 R -35 12 R -23 0 R -23 -12 R -12 -11 R -12 -24 R
-12 -58 R 0 -35 R 12 -59 R 12 -23 R 12 -12 R 23 -11 R D 1992 10091 M 24 11 R
11 12 R 12 23 R 12 59 R 0 35 R -12 58 R -12 24 R -11 11 R -24 12 R D
2220 11996 M 298 0 R D 1443 11948 M 12 -11 R -12 -12 R -12 12 R 0 11 R
12 24 R 12 11 R 35 12 R 47 0 R 35 -12 R 11 -23 R 0 -35 R -11 -23 R -35 -12 R
-35 0 R D 1537 11995 M 23 -12 R 12 -23 R 0 -35 R -12 -23 R -23 -12 R
23 -12 R 23 -23 R 12 -24 R 0 -35 R -12 -23 R -11 -12 R -35 -11 R -47 0 R
-35 11 R -12 12 R -12 23 R 0 12 R 12 12 R 12 -12 R -12 -12 R D 1572 11867 M
11 -36 R 0 -35 R -11 -23 R -12 -12 R -23 -11 R D 1735 11995 M -35 -12 R
-23 -35 R -12 -58 R 0 -35 R 12 -59 R 23 -35 R 35 -11 R 24 0 R 35 11 R
23 35 R 12 59 R 0 35 R -12 58 R -23 35 R -35 12 R -24 0 R -23 -12 R
-12 -11 R -12 -24 R -11 -58 R 0 -35 R 11 -59 R 12 -23 R 12 -12 R 23 -11 R D
1759 11750 M 23 11 R 12 12 R 11 23 R 12 59 R 0 35 R -12 58 R -11 24 R
-12 11 R -23 12 R D 1969 11995 M -35 -12 R -24 -35 R -11 -58 R 0 -35 R
11 -59 R 24 -35 R 35 -11 R 23 0 R 35 11 R 24 35 R 11 59 R 0 35 R -11 58 R
-24 35 R -35 12 R -23 0 R -23 -12 R -12 -11 R -12 -24 R -12 -58 R 0 -35 R
12 -59 R 12 -23 R 12 -12 R 23 -11 R D 1992 11750 M 24 11 R 11 12 R 12 23 R
12 59 R 0 35 R -12 58 R -12 24 R -11 11 R -24 12 R D 2220 1761 M 149 0 R D
2220 2114 M 149 0 R D 2220 2467 M 149 0 R D 2220 2820 M 149 0 R D
2220 3526 M 149 0 R D 2220 3879 M 149 0 R D 2220 4232 M 149 0 R D
2220 4584 M 149 0 R D 2220 5290 M 149 0 R D 2220 5643 M 149 0 R D
2220 5996 M 149 0 R D 2220 6349 M 149 0 R D 2220 7055 M 149 0 R D
2220 7408 M 149 0 R D 2220 7761 M 149 0 R D 2220 8114 M 149 0 R D
2220 8820 M 149 0 R D 2220 9173 M 149 0 R D 2220 9526 M 149 0 R D
2220 9878 M 149 0 R D 2220 10584 M 149 0 R D 2220 10937 M 149 0 R D
2220 11290 M 149 0 R D 2220 11643 M 149 0 R D 17114 1408 M 0 10588 R D
17114 1408 M -298 0 R D 17114 3173 M -298 0 R D 17114 4937 M -298 0 R D
17114 6702 M -298 0 R D 17114 8467 M -298 0 R D 17114 10231 M -298 0 R D
17114 11996 M -298 0 R D 17114 1761 M -149 0 R D 17114 2114 M -149 0 R D
17114 2467 M -149 0 R D 17114 2820 M -149 0 R D 17114 3526 M -149 0 R D
17114 3879 M -149 0 R D 17114 4232 M -149 0 R D 17114 4584 M -149 0 R D
17114 5290 M -149 0 R D 17114 5643 M -149 0 R D 17114 5996 M -149 0 R D
17114 6349 M -149 0 R D 17114 7055 M -149 0 R D 17114 7408 M -149 0 R D
17114 7761 M -149 0 R D 17114 8114 M -149 0 R D 17114 8820 M -149 0 R D
17114 9173 M -149 0 R D 17114 9526 M -149 0 R D 17114 9878 M -149 0 R D
17114 10584 M -149 0 R D 17114 10937 M -149 0 R D 17114 11290 M -149 0 R D
17114 11643 M -149 0 R D 5385 2361 M 86 0 R 0 -918 R 85 0 R 86 0 R 0 -35 R
86 0 R 86 0 R 0 35 R 86 0 R 86 0 R 0 106 R 86 0 R 86 0 R 0 -35 R 86 0 R
86 0 R 0 -35 R 86 0 R 86 0 R 0 -36 R 86 0 R 86 0 R 0 212 R 86 0 R 85 0 R
0 -212 R 86 0 R 86 0 R 0 106 R 86 0 R 86 0 R 0 -70 R 86 0 R 86 0 R 86 0 R
86 0 R 0 106 R 86 0 R 86 0 R 0 105 R 86 0 R 86 0 R 0 283 R 86 0 R 85 0 R
0 -71 R 86 0 R 86 0 R 0 247 R 86 0 R 86 0 R 0 -35 R 86 0 R 86 0 R 0 71 R
86 0 R 86 0 R 0 -177 R 86 0 R 86 0 R 0 282 R 86 0 R 86 0 R 0 36 R 86 0 R
85 0 R 0 282 R 86 0 R 86 0 R 0 353 R 86 0 R 86 0 R 0 671 R 86 0 R 86 0 R
0 564 R 86 0 R 86 0 R 0 459 R 86 0 R 86 0 R 0 2118 R 86 0 R 86 0 R 0 3070 R
86 0 R 86 0 R 0 -1588 R 85 0 R 86 0 R 0 -2329 R 86 0 R 86 0 R 0 -1236 R
86 0 R 86 0 R 0 -1482 R 86 0 R 86 0 R 0 247 R 86 0 R 86 0 R 0 -529 R 86 0 R
86 0 R 0 176 R 86 0 R 86 0 R 0 -670 R 85 0 R 86 0 R 86 0 R 86 0 R 0 -106 R
86 0 R 86 0 R 0 -318 R 86 0 R 86 0 R 0 -282 R 86 0 R 86 0 R 0 176 R 86 0 R
86 0 R 0 -70 R 86 0 R 86 0 R 0 70 R 86 0 R 85 0 R 0 -141 R 86 0 R 86 0 R
0 -71 R 86 0 R 86 0 R 86 0 R 86 0 R 0 71 R 86 0 R 86 0 R 0 -212 R 86 0 R
86 0 R 0 36 R 86 0 R 86 0 R 86 0 R 85 0 R 0 -106 R 86 0 R 86 0 R 0 70 R
86 0 R 86 0 R 0 -35 R 86 0 R 86 0 R 0 -106 R 86 0 R 86 0 R 0 35 R 86 0 R
86 0 R 0 36 R 86 0 R 86 0 R 0 70 R 86 0 R 85 0 R 0 2188 R 86 0 R D
5471 1466 M -58 -58 R D 5299 1544 M 172 172 R D 5471 1966 M -172 -171 R D
5299 2045 M 172 172 R D 5364 2360 M -65 -65 R D 5913 1407 M 34 35 R D
6054 1549 M -68 -69 R D 6164 1408 M 105 105 R D 6484 1478 M -70 -70 R D
6664 1407 M 10 11 R 171 170 R D 6914 1407 M 35 35 R D 7189 1432 M -25 -25 R
D 7017 1510 M 39 39 R D 7235 1478 M -46 -46 R D 7415 1408 M 70 70 R D
7705 1447 M -40 -40 R D 7533 1525 M 58 59 R D 7876 1619 M -171 -172 R D
7915 1407 M 133 132 R D 8048 1790 M -171 -171 R D 7877 1870 M 103 102 R D
8220 1462 M -54 -55 R D 8048 1540 M 172 172 R D 8159 1901 M -111 -111 R D
8220 1462 M 172 171 R D 8392 1884 M -172 -172 R D 8220 1962 M 172 172 R D
8564 1555 M -147 -147 R D 8392 1633 M 172 172 R D 8564 2056 M -172 -172 R D
8666 1407 M 70 69 R D 8736 1727 M -172 -171 R D 8564 1806 M 172 171 R D
8692 2184 M -128 -128 R D 8736 1477 M 172 172 R D 8908 1899 M -172 -172 R D
8736 1978 M 30 29 R D 9080 1570 M -163 -162 R D 8908 1649 M 172 172 R D
9080 2071 M -172 -172 R D 8908 2150 M 139 139 R D 9251 1491 M -84 -84 R D
9080 1570 M 171 172 R D 9251 1992 M -171 -171 R D 9080 2071 M 171 171 R D
9083 2325 M -3 -4 R D 9418 1408 M 5 5 R D 9423 1663 M -172 -172 R D
9251 1742 M 172 171 R D 9423 2164 M -172 -172 R D 9251 2242 M 172 172 R D
9366 2607 M -115 -114 R D 9423 1413 M 172 172 R D 9595 1835 M -172 -172 R D
9423 1913 M 172 172 R D 9595 2336 M -172 -172 R D 9423 2414 M 172 172 R D
9595 2836 M -172 -172 R D 9423 2915 M 45 45 R D 9767 1507 M -99 -100 R D
9595 1585 M 172 172 R D 9767 2007 M -172 -172 R D 9595 2085 M 172 173 R D
9767 2508 M -172 -172 R D 9595 2586 M 172 172 R D 9767 3009 M -172 -173 R D
9595 3087 M 172 172 R D 9767 3509 M -172 -172 R D 9595 3587 M 44 45 R D
9939 1428 M -20 -20 R D 9767 1507 M 172 172 R D 9939 1929 M -172 -172 R D
9767 2007 M 172 172 R D 9939 2430 M -172 -172 R D 9767 2508 M 172 172 R D
9939 2930 M -172 -172 R D 9767 3009 M 172 172 R D 9939 3431 M -172 -173 R D
9767 3509 M 172 172 R D 9939 3932 M -172 -173 R D 9767 4009 M 172 173 R D
10111 1600 M -172 -172 R D 9939 1679 M 172 171 R D 10111 2101 M -172 -172 R
D 9939 2179 M 172 172 R D 10111 2601 M -172 -171 R D 9939 2680 M 172 172 R D
10111 3102 M -172 -172 R D 9939 3181 M 172 171 R D 10111 3603 M -172 -172 R
D 9939 3681 M 172 172 R D 10111 4103 M -172 -171 R D 9939 4182 M 172 172 R D
10111 4604 M -172 -172 R D 10168 1407 M 115 115 R D 10283 1773 M -172 -173 R
D 10111 1850 M 172 173 R D 10283 2273 M -172 -172 R D 10111 2351 M 172 173 R
D 10283 2774 M -172 -173 R D 10111 2852 M 172 172 R D 10283 3275 M
-172 -173 R D 10111 3352 M 172 173 R D 10283 3775 M -172 -172 R D
10111 3853 M 172 173 R D 10283 4276 M -172 -173 R D 10111 4354 M 172 172 R D
10283 4777 M -172 -173 R D 10111 4854 M 172 173 R D 10283 5277 M -172 -172 R
D 10111 5355 M 172 172 R D 10283 5778 M -172 -173 R D 10111 5856 M 172 172 R
D 10283 6278 M -172 -172 R D 10111 6356 M 172 173 R D 10276 6772 M
-165 -166 R D 10419 1407 M 36 36 R D 10455 1694 M -172 -172 R D 10283 1773 M
172 171 R D 10455 2194 M -172 -171 R D 10283 2273 M 172 171 R D 10455 2695 M
-172 -171 R D 10283 2774 M 172 171 R D 10455 3195 M -172 -171 R D
10283 3275 M 172 171 R D 10455 3696 M -172 -171 R D 10283 3775 M 172 171 R D
10455 4197 M -172 -171 R D 10283 4276 M 172 171 R D 10455 4697 M -172 -171 R
D 10283 4777 M 172 171 R D 10455 5198 M -172 -171 R D 10283 5277 M 172 171 R
D 10455 5699 M -172 -172 R D 10283 5778 M 172 171 R D 10455 6199 M
-172 -171 R D 10283 6278 M 172 172 R D 10455 6700 M -172 -171 R D
10283 6779 M 172 171 R D 10455 7200 M -172 -171 R D 10283 7280 M 172 171 R D
10455 7701 M -172 -171 R D 10283 7780 M 172 171 R D 10455 8202 M -172 -171 R
D 10283 8281 M 172 171 R D 10455 8702 M -172 -171 R D 10283 8782 M 172 171 R
D 10455 9203 M -172 -171 R D 10283 9282 M 172 171 R D 10455 9704 M
-172 -171 R D 10283 9783 M 60 59 R D 10626 1614 M -171 -171 R D 10455 1694 M
171 171 R D 10626 2115 M -171 -171 R D 10455 2194 M 171 171 R D 10626 2616 M
-171 -172 R D 10455 2695 M 171 171 R D 10626 3116 M -171 -171 R D
10455 3195 M 171 172 R D 10626 3617 M -171 -171 R D 10455 3696 M 171 171 R D
10626 4117 M -171 -171 R D 10455 4197 M 171 171 R D 10626 4618 M -171 -171 R
D 10455 4697 M 171 171 R D 10626 5119 M -171 -171 R D 10455 5198 M 171 171 R
D 10626 5619 M -171 -171 R D 10455 5699 M 171 171 R D 10626 6120 M
-171 -171 R D 10455 6199 M 171 171 R D 10626 6621 M -171 -171 R D
10455 6700 M 171 171 R D 10626 7121 M -171 -171 R D 10455 7200 M 171 172 R D
10626 7622 M -171 -171 R D 10455 7701 M 171 171 R D 10626 8123 M -171 -172 R
D 10455 8202 M 52 52 R D 10798 1537 M -129 -130 R D 10626 1614 M 172 173 R D
10798 2037 M -172 -172 R D 10626 2115 M 172 172 R D 10798 2538 M -172 -173 R
D 10626 2616 M 172 172 R D 10798 3038 M -172 -172 R D 10626 3116 M 172 173 R
D 10798 3539 M -172 -172 R D 10626 3617 M 172 172 R D 10798 4040 M
-172 -173 R D 10626 4117 M 172 173 R D 10798 4540 M -172 -172 R D
10626 4618 M 172 173 R D 10798 5041 M -172 -173 R D 10626 5119 M 172 172 R D
10798 5542 M -172 -173 R D 10626 5619 M 172 173 R D 10682 5926 M -56 -56 R D
10920 1408 M 50 50 R D 10970 1708 M -172 -171 R D 10798 1787 M 172 172 R D
10970 2209 M -172 -172 R D 10798 2287 M 172 172 R D 10970 2710 M -172 -172 R
D 10798 2788 M 172 172 R D 10970 3210 M -172 -172 R D 10798 3289 M 172 172 R
D 10970 3711 M -172 -172 R D 10798 3789 M 172 172 R D 10970 4212 M
-172 -172 R D 10798 4290 M 172 172 R D 10947 4689 M -149 -149 R D
10970 1458 M 172 172 R D 11142 1880 M -172 -172 R D 10970 1959 M 172 172 R D
11142 2381 M -172 -172 R D 10970 2459 M 172 172 R D 11142 2881 M -172 -171 R
D 10970 2960 M 172 172 R D 11314 1551 M -145 -144 R D 11143 1631 M 171 171 R
D 11314 2052 M -171 -171 R D 11143 2131 M 171 171 R D 11314 2553 M
-171 -171 R D 11143 2632 M 171 171 R D 11313 3053 M -170 -170 R D
11143 3133 M 170 170 R D 11214 3454 M -71 -70 R D 11420 1407 M 66 66 R D
11486 1723 M -172 -171 R D 11314 1802 M 172 172 R D 11486 2224 M -172 -171 R
D 11314 2303 M 172 171 R D 11486 2724 M -172 -171 R D 11314 2804 M 122 121 R
D 11658 1645 M -172 -172 R D 11486 1723 M 172 173 R D 11658 2146 M
-172 -172 R D 11486 2224 M 172 172 R D 11658 2647 M -172 -173 R D
11486 2724 M 172 173 R D 11612 3101 M -126 -126 R D 11670 1407 M 159 159 R D
11829 1817 M -171 -172 R D 11658 1896 M 171 171 R D 11829 2317 M -171 -171 R
D 11658 2396 M 35 35 R D 12001 1488 M -80 -80 R D 11829 1566 M 172 172 R D
12001 1988 M -172 -171 R D 11829 2067 M 172 172 R D 11943 2431 M -114 -114 R
D 12171 1408 M 2 1 R D 12173 1660 M -172 -172 R D 12001 1738 M 172 172 R D
12173 2160 M -172 -172 R D 12001 2239 M 86 86 R D 12345 1581 M -172 -172 R D
12173 1660 M 172 171 R D 12270 2007 M -97 -97 R D 12421 1407 M 95 96 R D
12489 1725 M -144 -143 R D 12671 1407 M 18 18 R D 12689 1675 M -172 -172 R D
12517 1754 M 147 147 R D 12861 1597 M -172 -172 R D 12689 1675 M 156 156 R D
13032 1517 M -110 -109 R D 12861 1597 M 171 171 R D 12915 1901 M -54 -54 R D
13173 1408 M 31 31 R D 13204 1689 M -172 -172 R D 13205 1440 M 171 171 R D
13547 1532 M -125 -125 R D 13376 1611 M 78 78 R D 13720 1455 M -47 -48 R D
13548 1533 M 172 172 R D 13813 1548 M -93 -93 R D 13923 1407 M 141 141 R D
14235 1469 M -62 -62 R D 14064 1549 M 36 35 R D 14244 1478 M -9 -9 R D
14424 1408 M 140 140 R D 14751 1484 M -76 -76 R D 14924 1407 M 36 35 R D
15245 1478 M -70 -71 R D 15425 1407 M 13 14 R D 15316 1549 M -49 -49 R D
15438 1421 M 171 171 R D 15609 1842 M -171 -171 R D 15438 1921 M 171 171 R D
15609 2343 M -171 -171 R D 15438 2422 M 171 171 R D 15609 2843 M -171 -171 R
D 15438 2922 M 171 171 R D 15609 3343 M -171 -170 R D 15438 3423 M 171 171 R
D 15501 3736 M -63 -63 R D 5299 1408 M 51 0 R 52 0 R 52 0 R 52 0 R 52 0 R
52 0 R 51 0 R 52 0 R 52 0 R 52 0 R 52 0 R 51 0 R 52 0 R 52 0 R 52 0 R 52 0 R
52 0 R 51 0 R 52 0 R 52 0 R 52 0 R 52 0 R 51 0 R 52 0 R 52 0 R 52 0 R 52 0 R
52 0 R 51 0 R 52 0 R 52 0 R 52 0 R 52 0 R 51 0 R 52 0 R 52 0 R 52 0 R 52 0 R
52 0 R 51 0 R 52 0 R 52 0 R 52 0 R 52 0 R 51 0 R 52 0 R 52 0 R 52 0 R 52 0 R
52 0 R 51 0 R 52 0 R 52 0 R 52 0 R 52 0 R 51 0 R 52 0 R 52 1 R 52 0 R 52 1 R
52 1 R 51 1 R 52 2 R 52 2 R 52 4 R 52 5 R 51 7 R 52 10 R 52 14 R 52 18 R
52 25 R 52 31 R 51 41 R 52 53 R 52 66 R 52 83 R 52 101 R 51 123 R 52 147 R
52 175 R 52 203 R 52 233 R 52 265 R 51 296 R 52 325 R 52 352 R 52 375 R
52 392 R 51 402 R 52 405 R 52 397 R 52 382 R 52 354 R 52 318 R 51 272 R
52 218 R 52 156 R 52 90 R 52 21 R 51 -49 R 52 -117 R 52 -181 R 52 -240 R
52 -291 R 52 -334 R 51 -366 R 52 -389 R 52 -402 R 52 -405 R 52 -399 R
51 -386 R 52 -366 R 52 -342 R 52 -313 R 52 -284 R 52 -252 R 51 -221 R
52 -192 R 52 -163 R 52 -138 R 52 -114 R 51 -93 R 52 -76 R 52 -60 R 52 -48 R
52 -37 R 51 -29 R 52 -21 R 52 -17 R 52 -12 R 52 -9 R 52 -6 R 51 -5 R 52 -3 R
52 -2 R 52 -2 R 52 -1 R 51 -1 R 52 0 R 52 0 R 52 -1 R 52 0 R 52 0 R 51 0 R
52 0 R 52 0 R 52 0 R 52 0 R 51 0 R 52 0 R 52 0 R 52 0 R 52 0 R 52 0 R 51 0 R
52 0 R 52 0 R 52 0 R 52 0 R 51 0 R 52 0 R 52 0 R 52 0 R 52 0 R 52 0 R 51 0 R
52 0 R 52 0 R 52 0 R 52 0 R 51 0 R 52 0 R 52 0 R 52 0 R 52 0 R 52 0 R 51 0 R
52 0 R 52 0 R 52 0 R 52 0 R 51 0 R 52 0 R 52 0 R 52 0 R 52 0 R 52 0 R 51 0 R
52 0 R 52 0 R 52 0 R 52 0 R 51 0 R 52 0 R 52 0 R 52 0 R 52 0 R 52 0 R 51 0 R
D 3061 11737 M -67 -278 R D 3118 11737 M -67 -278 R D 2994 11632 M 134 0 R D
2984 11574 M 134 0 R D 3204 11536 M -9 9 R 9 10 R 10 -10 R 0 -28 R -10 -20 R
-9 -9 R D 3473 11670 M -58 -211 R D 3482 11670 M -57 -211 R D 3473 11641 M
-10 -57 R 0 -29 R 19 -19 R 19 0 R 19 9 R 20 19 R 19 29 R D 3578 11670 M
-29 -106 R 0 -19 R 10 -9 R 29 0 R 19 19 R 9 19 R D 3588 11670 M -29 -106 R
0 -19 R 9 -9 R D 3674 11536 M -10 9 R 10 10 R 9 -10 R 0 -28 R -9 -20 R
-10 -9 R D 4057 11670 M -96 0 R -29 -10 R -19 -28 R -9 -29 R 0 -29 R 9 -19 R
10 -10 R 19 -9 R 19 0 R 29 9 R 19 29 R 10 29 R 0 29 R -10 19 R -9 9 R
-20 10 R D 3961 11670 M -19 -10 R -19 -28 R -10 -29 R 0 -39 R 10 -19 R D
3961 11536 M 19 9 R 20 29 R 9 29 R 0 38 R -9 19 R 57 0 R D 4115 11651 M
172 0 R D 4115 11593 M 172 0 R D 4689 11699 M 20 9 R 28 29 R 0 -201 R D
4900 11737 M -29 -10 R -9 -19 R 0 -19 R 9 -19 R 20 -10 R 38 -9 R 29 -10 R
19 -19 R 9 -19 R 0 -29 R -9 -19 R -10 -10 R -29 -9 R -38 0 R -29 9 R -9 10 R
-10 19 R 0 29 R 10 19 R 19 19 R 29 10 R 38 9 R 19 10 R 10 19 R 0 19 R
-10 19 R -29 10 R -38 0 R D 5053 11689 M 0 10 R 10 19 R 10 9 R 19 10 R
38 0 R 19 -10 R 10 -9 R 9 -19 R 0 -20 R -9 -19 R -19 -28 R -96 -96 R 134 0 R
D 5360 11670 M -10 -29 R -19 -19 R -28 -10 R -10 0 R -29 10 R -19 19 R
-10 29 R 0 9 R 10 29 R 19 19 R 29 10 R 10 0 R 28 -10 R 19 -19 R 10 -38 R
0 -48 R -10 -48 R -19 -29 R -28 -9 R -20 0 R -28 9 R -10 19 R D 5456 11545 M
-10 -9 R -9 9 R 9 10 R 10 -10 R 0 -28 R -10 -20 R -9 -9 R D 6040 11737 M
-28 -10 R -20 -28 R -9 -48 R 0 -29 R 9 -48 R 20 -29 R 28 -9 R 19 0 R 29 9 R
19 29 R 10 48 R 0 29 R -10 48 R -19 28 R -29 10 R -19 0 R D 6194 11555 M
-10 -10 R 10 -9 R 9 9 R -9 10 R D 6395 11670 M -10 -29 R -19 -19 R -29 -10 R
-9 0 R -29 10 R -19 19 R -10 29 R 0 9 R 10 29 R 19 19 R 29 10 R 9 0 R
29 -10 R 19 -19 R 10 -38 R 0 -48 R -10 -48 R -19 -29 R -29 -9 R -19 0 R
-29 9 R -9 19 R D 6577 11737 M -96 0 R -10 -86 R 10 9 R 29 10 R 29 0 R
28 -10 R 19 -19 R 10 -29 R 0 -19 R -10 -29 R -19 -19 R -28 -9 R -29 0 R
-29 9 R -10 10 R -9 19 R D 6711 11737 M -29 -10 R -19 -28 R -10 -48 R
0 -29 R 10 -48 R 19 -29 R 29 -9 R 19 0 R 29 9 R 19 29 R 10 48 R 0 29 R
-10 48 R -19 28 R -29 10 R -19 0 R D 6941 11737 M -96 -134 R 144 0 R D
6941 11737 M 0 -201 R D 7065 11545 M -9 -9 R -10 9 R 10 10 R 9 -10 R 0 -28 R
-9 -20 R -10 -9 R D 7650 11737 M -29 -10 R -19 -28 R -10 -48 R 0 -29 R
10 -48 R 19 -29 R 29 -9 R 19 0 R 29 9 R 19 29 R 10 48 R 0 29 R -10 48 R
-19 28 R -29 10 R -19 0 R D 7803 11555 M -9 -10 R 9 -9 R 10 9 R -10 10 R D
7937 11737 M -28 -10 R -20 -28 R -9 -48 R 0 -29 R 9 -48 R 20 -29 R 28 -9 R
20 0 R 28 9 R 19 29 R 10 48 R 0 29 R -10 48 R -19 28 R -28 10 R -20 0 R D
8091 11737 M 105 0 R -57 -77 R 28 0 R 19 -9 R 10 -10 R 10 -29 R 0 -19 R
-10 -29 R -19 -19 R -29 -9 R -29 0 R -28 9 R -10 10 R -10 19 R D
8282 11737 M 106 0 R -58 -77 R 29 0 R 19 -9 R 10 -10 R 9 -29 R 0 -19 R
-9 -29 R -19 -19 R -29 -9 R -29 0 R -29 9 R -9 10 R -10 19 R D 8464 11689 M
0 10 R 10 19 R 9 9 R 20 10 R 38 0 R 19 -10 R 10 -9 R 9 -19 R 0 -20 R
-9 -19 R -19 -28 R -96 -96 R 134 0 R D
%%PageTrailer
end
%%PageResources: font Helvetica
%%Trailer
%%Pages: 1
%%DocumentNeededResources: font Helvetica
%%EOF
