%!PS-Adobe-3.0 EPSF-3.0
%%BoundingBox: 0 0 504 360
%%Title: Graphics produced by IDL
%%For: Aaron@Aaron, /home/Aaron
%%Creator: IDL Version 7.1 (linux x86 m32)
%%CreationDate: Tue Feb 22 13:10:38 2011
%%DocumentData: Clean7bit
%%LanguageLevel: 1
%%PageOrder: Ascend
%%Pages: (atend)
%%DocumentNeededResources: (atend)
%%EndComments
%%BeginProlog
%+ prolog.ps -- Prolog for IDL generated PostScript files
%+ Copyright (c) 1988-2009 ITT Visual Information Solutions. All Rights Reserved.
%v 5
/$IDL_DICT 40 dict def $IDL_DICT begin /bdef { bind def } bind def /C
{currentpoint newpath moveto} bdef /CP {currentpoint} bdef /D {currentpoint
stroke moveto} bdef /F {closepath fill} bdef /K { setgray } bdef /M {moveto}
bdef /N {rmoveto} bdef /P {lineto} bdef /R {rlineto} bdef /S {gsave show
grestore} bdef /X {currentpoint pop} bdef /Z {gsave currentpoint lineto 20
setlinewidth 1 setlinecap stroke grestore} bdef /L0 {[] 0 setdash} bdef /L1
{[40 100] 0 setdash} bdef /L2 {[200 200] 0 setdash} bdef /L3 {[200 100 50
100] 0 setdash} bdef /L4 {[300 100 50 100 50 100 50 100] 0 setdash} bdef /L5
{[400 200] 0 setdash} bdef /STDFONT { findfont exch scalefont setfont } bdef
/ISOFONT { findfont dup length dict begin { 1 index /FID ne {def} {pop pop}
ifelse } forall /Encoding ISOLatin1Encoding def currentdict end /idltmpfont
exch definefont exch scalefont setfont } bdef /ISOBULLET { gsave /Helvetica
findfont exch scalefont setfont (\267) show currentpoint grestore moveto}
bdef /MITERLIMIT { 2.5 setmiterlimit } bdef end
%%EndProlog
%%Page: 0 1
%%PageResources: (atend)
%%PageOrientation: Portrait
%%PageBoundingBox: 0 0 504 360
%%BeginPageSetup
$IDL_DICT begin 0.0283465 dup scale MITERLIMIT
%%IncludeResource: font Helvetica
423.333 /Helvetica STDFONT
%%EndPageSetup
10 setlinewidth L0 0.000 K 2220 1408 M 14894 0 R D 2220 1408 M 0 212 R D
2021 1125 M -35 -11 R -23 -35 R -12 -59 R 0 -35 R 12 -58 R 23 -35 R 35 -12 R
24 0 R 35 12 R 23 35 R 12 58 R 0 35 R -12 59 R -23 35 R -35 11 R -24 0 R
-23 -11 R -12 -12 R -11 -23 R -12 -59 R 0 -35 R 12 -58 R 11 -24 R 12 -11 R
23 -12 R D 2045 880 M 23 12 R 12 11 R 12 24 R 11 58 R 0 35 R -11 59 R
-12 23 R -12 12 R -23 11 R D 2208 903 M -11 -11 R 11 -12 R 12 12 R -12 11 R
D 2442 1090 M -12 -11 R 12 -12 R 12 12 R 0 11 R -12 24 R -23 11 R -35 0 R
-35 -11 R -24 -24 R -11 -23 R -12 -47 R 0 -70 R 12 -35 R 23 -23 R 35 -12 R
23 0 R 35 12 R 24 23 R 11 35 R 0 12 R -11 35 R -24 23 R -35 12 R -11 0 R
-35 -12 R -24 -23 R -11 -35 R D 2384 1125 M -24 -11 R -23 -24 R -12 -23 R
-11 -47 R 0 -70 R 11 -35 R 24 -23 R 23 -12 R D 2395 880 M 24 12 R 23 23 R
12 35 R 0 12 R -12 35 R -23 23 R -24 12 R D 5944 1408 M 0 212 R D
5745 1125 M -35 -11 R -23 -35 R -12 -59 R 0 -35 R 12 -58 R 23 -35 R 35 -12 R
23 0 R 35 12 R 24 35 R 11 58 R 0 35 R -11 59 R -24 35 R -35 11 R -23 0 R
-23 -11 R -12 -12 R -12 -23 R -11 -59 R 0 -35 R 11 -58 R 12 -24 R 12 -11 R
23 -12 R D 5768 880 M 24 12 R 11 11 R 12 24 R 12 58 R 0 35 R -12 59 R
-12 23 R -11 12 R -24 11 R D 5932 903 M -12 -11 R 12 -12 R 12 12 R -12 11 R
D 6084 1125 M -35 -11 R -12 -24 R 0 -35 R 12 -23 R 35 -12 R 47 0 R 35 12 R
11 23 R 0 35 R -11 24 R -35 11 R -47 0 R -24 -11 R -11 -24 R 0 -35 R
11 -23 R 24 -12 R D 6131 1020 M 23 12 R 12 23 R 0 35 R -12 24 R -23 11 R D
6084 1020 M -35 -11 R -12 -12 R -12 -23 R 0 -47 R 12 -24 R 12 -11 R 35 -12 R
47 0 R 35 12 R 11 11 R 12 24 R 0 47 R -12 23 R -11 12 R -35 11 R D
6084 1020 M -24 -11 R -11 -12 R -12 -23 R 0 -47 R 12 -24 R 11 -11 R 24 -12 R
D 6131 880 M 23 12 R 12 11 R 11 24 R 0 47 R -11 23 R -12 12 R -23 11 R D
9667 1408 M 0 212 R D 9433 1079 M 24 11 R 35 35 R 0 -245 R D 9480 1114 M
0 -234 R D 9433 880 M 106 0 R D 9655 903 M -11 -11 R 11 -12 R 12 12 R
-12 11 R D 9819 1125 M -35 -11 R -23 -35 R -12 -59 R 0 -35 R 12 -58 R
23 -35 R 35 -12 R 23 0 R 35 12 R 24 35 R 11 58 R 0 35 R -11 59 R -24 35 R
-35 11 R -23 0 R -23 -11 R -12 -12 R -12 -23 R -11 -59 R 0 -35 R 11 -58 R
12 -24 R 12 -11 R 23 -12 R D 9842 880 M 24 12 R 11 11 R 12 24 R 12 58 R
0 35 R -12 59 R -12 23 R -11 12 R -24 11 R D 13391 1408 M 0 212 R D
13157 1079 M 23 11 R 35 35 R 0 -245 R D 13204 1114 M 0 -234 R D 13157 880 M
105 0 R D 13379 903 M -12 -11 R 12 -12 R 12 12 R -12 11 R D 13484 1079 M
12 -12 R -12 -12 R -12 12 R 0 12 R 12 23 R 12 12 R 35 11 R 47 0 R 35 -11 R
11 -12 R 12 -23 R 0 -24 R -12 -23 R -35 -23 R -58 -24 R -24 -11 R -23 -24 R
-12 -35 R 0 -35 R D 13578 1125 M 23 -11 R 12 -12 R 11 -23 R 0 -24 R
-11 -23 R -35 -23 R -47 -24 R D 13472 903 M 12 12 R 23 0 R 59 -23 R 35 0 R
23 11 R 12 12 R D 13507 915 M 59 -35 R 47 0 R 11 12 R 12 23 R 0 23 R D
17114 1408 M 0 212 R D 16880 1079 M 24 11 R 35 35 R 0 -245 R D 16927 1114 M
0 -234 R D 16880 880 M 106 0 R D 17102 903 M -11 -11 R 11 -12 R 12 12 R
-12 11 R D 17301 1102 M 0 -222 R D 17313 1125 M 0 -245 R D 17313 1125 M
-129 -175 R 187 0 R D 17266 880 M 82 0 R D 3151 1408 M 0 106 R D 4082 1408 M
0 106 R D 5013 1408 M 0 106 R D 6874 1408 M 0 106 R D 7805 1408 M 0 106 R D
8736 1408 M 0 106 R D 10598 1408 M 0 106 R D 11529 1408 M 0 106 R D
12460 1408 M 0 106 R D 14321 1408 M 0 106 R D 15252 1408 M 0 106 R D
16183 1408 M 0 106 R D 2220 11996 M 14894 0 R D 2220 11996 M 0 -212 R D
5944 11996 M 0 -212 R D 9667 11996 M 0 -212 R D 13391 11996 M 0 -212 R D
17114 11996 M 0 -212 R D 3151 11996 M 0 -106 R D 4082 11996 M 0 -106 R D
5013 11996 M 0 -106 R D 6874 11996 M 0 -106 R D 7805 11996 M 0 -106 R D
8736 11996 M 0 -106 R D 10598 11996 M 0 -106 R D 11529 11996 M 0 -106 R D
12460 11996 M 0 -106 R D 14321 11996 M 0 -106 R D 15252 11996 M 0 -106 R D
16183 11996 M 0 -106 R D 2220 1408 M 0 10588 R D 2220 1408 M 298 0 R D
1969 1653 M -35 -11 R -24 -35 R -11 -59 R 0 -35 R 11 -58 R 24 -35 R 35 -12 R
23 0 R 35 12 R 24 35 R 11 58 R 0 35 R -11 59 R -24 35 R -35 11 R -23 0 R
-23 -11 R -12 -12 R -12 -23 R -12 -59 R 0 -35 R 12 -58 R 12 -24 R 12 -11 R
23 -12 R D 1992 1408 M 24 12 R 11 11 R 12 24 R 12 58 R 0 35 R -12 59 R
-12 23 R -11 12 R -24 11 R D 2220 3526 M 298 0 R D 1688 3630 M -23 -117 R
23 24 R 36 11 R 35 0 R 35 -11 R 23 -24 R 12 -35 R 0 -23 R -12 -35 R
-23 -23 R -35 -12 R -35 0 R -36 12 R -11 11 R -12 24 R 0 11 R 12 12 R
11 -12 R -11 -11 R D 1759 3548 M 23 -11 R 23 -24 R 12 -35 R 0 -23 R
-12 -35 R -23 -23 R -23 -12 R D 1688 3630 M 117 0 R D 1688 3619 M 59 0 R
58 11 R D 1969 3630 M -35 -11 R -24 -36 R -11 -58 R 0 -35 R 11 -58 R
24 -35 R 35 -12 R 23 0 R 35 12 R 24 35 R 11 58 R 0 35 R -11 58 R -24 36 R
-35 11 R -23 0 R -23 -11 R -12 -12 R -12 -24 R -12 -58 R 0 -35 R 12 -58 R
12 -24 R 12 -11 R 23 -12 R D 1992 3385 M 24 12 R 11 11 R 12 24 R 12 58 R
0 35 R -12 58 R -12 24 R -11 12 R -24 11 R D 2220 5643 M 298 0 R D
1466 5701 M 24 12 R 35 35 R 0 -246 R D 1513 5736 M 0 -234 R D 1466 5502 M
106 0 R D 1735 5748 M -35 -12 R -23 -35 R -12 -58 R 0 -35 R 12 -59 R
23 -35 R 35 -12 R 24 0 R 35 12 R 23 35 R 12 59 R 0 35 R -12 58 R -23 35 R
-35 12 R -24 0 R -23 -12 R -12 -12 R -12 -23 R -11 -58 R 0 -35 R 11 -59 R
12 -23 R 12 -12 R 23 -12 R D 1759 5502 M 23 12 R 12 12 R 11 23 R 12 59 R
0 35 R -12 58 R -11 23 R -12 12 R -23 12 R D 1969 5748 M -35 -12 R -24 -35 R
-11 -58 R 0 -35 R 11 -59 R 24 -35 R 35 -12 R 23 0 R 35 12 R 24 35 R 11 59 R
0 35 R -11 58 R -24 35 R -35 12 R -23 0 R -23 -12 R -12 -12 R -12 -23 R
-12 -58 R 0 -35 R 12 -59 R 12 -23 R 12 -12 R 23 -12 R D 1992 5502 M 24 12 R
11 12 R 12 23 R 12 59 R 0 35 R -12 58 R -12 23 R -11 12 R -24 12 R D
2220 7761 M 298 0 R D 1466 7819 M 24 11 R 35 35 R 0 -245 R D 1513 7854 M
0 -234 R D 1466 7620 M 106 0 R D 1688 7865 M -23 -116 R 23 23 R 36 12 R
35 0 R 35 -12 R 23 -23 R 12 -35 R 0 -24 R -12 -35 R -23 -23 R -35 -12 R
-35 0 R -36 12 R -11 11 R -12 24 R 0 11 R 12 12 R 11 -12 R -11 -11 R D
1759 7784 M 23 -12 R 23 -23 R 12 -35 R 0 -24 R -12 -35 R -23 -23 R -23 -12 R
D 1688 7865 M 117 0 R D 1688 7854 M 59 0 R 58 11 R D 1969 7865 M -35 -11 R
-24 -35 R -11 -59 R 0 -35 R 11 -58 R 24 -35 R 35 -12 R 23 0 R 35 12 R
24 35 R 11 58 R 0 35 R -11 59 R -24 35 R -35 11 R -23 0 R -23 -11 R
-12 -12 R -12 -23 R -12 -59 R 0 -35 R 12 -58 R 12 -24 R 12 -11 R 23 -12 R D
1992 7620 M 24 12 R 11 11 R 12 24 R 12 58 R 0 35 R -12 59 R -12 23 R
-11 12 R -24 11 R D 2220 9878 M 298 0 R D 1443 9936 M 12 -11 R -12 -12 R
-12 12 R 0 11 R 12 24 R 12 11 R 35 12 R 47 0 R 35 -12 R 11 -11 R 12 -24 R
0 -23 R -12 -23 R -35 -24 R -58 -23 R -24 -12 R -23 -23 R -12 -35 R 0 -35 R
D 1537 9983 M 23 -12 R 12 -11 R 11 -24 R 0 -23 R -11 -23 R -35 -24 R
-47 -23 R D 1431 9761 M 12 12 R 23 0 R 59 -24 R 35 0 R 23 12 R 12 12 R D
1466 9773 M 59 -35 R 47 0 R 11 11 R 12 24 R 0 23 R D 1735 9983 M -35 -12 R
-23 -35 R -12 -58 R 0 -35 R 12 -59 R 23 -35 R 35 -11 R 24 0 R 35 11 R
23 35 R 12 59 R 0 35 R -12 58 R -23 35 R -35 12 R -24 0 R -23 -12 R
-12 -11 R -12 -24 R -11 -58 R 0 -35 R 11 -59 R 12 -23 R 12 -12 R 23 -11 R D
1759 9738 M 23 11 R 12 12 R 11 23 R 12 59 R 0 35 R -12 58 R -11 24 R
-12 11 R -23 12 R D 1969 9983 M -35 -12 R -24 -35 R -11 -58 R 0 -35 R
11 -59 R 24 -35 R 35 -11 R 23 0 R 35 11 R 24 35 R 11 59 R 0 35 R -11 58 R
-24 35 R -35 12 R -23 0 R -23 -12 R -12 -11 R -12 -24 R -12 -58 R 0 -35 R
12 -59 R 12 -23 R 12 -12 R 23 -11 R D 1992 9738 M 24 11 R 11 12 R 12 23 R
12 59 R 0 35 R -12 58 R -12 24 R -11 11 R -24 12 R D 2220 11996 M 298 0 R D
1443 11948 M 12 -11 R -12 -12 R -12 12 R 0 11 R 12 24 R 12 11 R 35 12 R
47 0 R 35 -12 R 11 -11 R 12 -24 R 0 -23 R -12 -23 R -35 -24 R -58 -23 R
-24 -12 R -23 -23 R -12 -35 R 0 -35 R D 1537 11995 M 23 -12 R 12 -11 R
11 -24 R 0 -23 R -11 -23 R -35 -24 R -47 -23 R D 1431 11773 M 12 12 R 23 0 R
59 -24 R 35 0 R 23 12 R 12 12 R D 1466 11785 M 59 -35 R 47 0 R 11 11 R
12 24 R 0 23 R D 1688 11995 M -23 -117 R 23 24 R 36 11 R 35 0 R 35 -11 R
23 -24 R 12 -35 R 0 -23 R -12 -35 R -23 -24 R -35 -11 R -35 0 R -36 11 R
-11 12 R -12 23 R 0 12 R 12 12 R 11 -12 R -11 -12 R D 1759 11913 M 23 -11 R
23 -24 R 12 -35 R 0 -23 R -12 -35 R -23 -24 R -23 -11 R D 1688 11995 M
117 0 R D 1688 11983 M 59 0 R 58 12 R D 1969 11995 M -35 -12 R -24 -35 R
-11 -58 R 0 -35 R 11 -59 R 24 -35 R 35 -11 R 23 0 R 35 11 R 24 35 R 11 59 R
0 35 R -11 58 R -24 35 R -35 12 R -23 0 R -23 -12 R -12 -11 R -12 -24 R
-12 -58 R 0 -35 R 12 -59 R 12 -23 R 12 -12 R 23 -11 R D 1992 11750 M 24 11 R
11 12 R 12 23 R 12 59 R 0 35 R -12 58 R -12 24 R -11 11 R -24 12 R D
2220 1832 M 149 0 R D 2220 2255 M 149 0 R D 2220 2679 M 149 0 R D
2220 3102 M 149 0 R D 2220 3949 M 149 0 R D 2220 4373 M 149 0 R D
2220 4796 M 149 0 R D 2220 5220 M 149 0 R D 2220 6067 M 149 0 R D
2220 6490 M 149 0 R D 2220 6914 M 149 0 R D 2220 7337 M 149 0 R D
2220 8184 M 149 0 R D 2220 8608 M 149 0 R D 2220 9031 M 149 0 R D
2220 9455 M 149 0 R D 2220 10302 M 149 0 R D 2220 10726 M 149 0 R D
2220 11149 M 149 0 R D 2220 11573 M 149 0 R D 17114 1408 M 0 10588 R D
17114 1408 M -298 0 R D 17114 3526 M -298 0 R D 17114 5643 M -298 0 R D
17114 7761 M -298 0 R D 17114 9878 M -298 0 R D 17114 11996 M -298 0 R D
17114 1832 M -149 0 R D 17114 2255 M -149 0 R D 17114 2679 M -149 0 R D
17114 3102 M -149 0 R D 17114 3949 M -149 0 R D 17114 4373 M -149 0 R D
17114 4796 M -149 0 R D 17114 5220 M -149 0 R D 17114 6067 M -149 0 R D
17114 6490 M -149 0 R D 17114 6914 M -149 0 R D 17114 7337 M -149 0 R D
17114 8184 M -149 0 R D 17114 8608 M -149 0 R D 17114 9031 M -149 0 R D
17114 9455 M -149 0 R D 17114 10302 M -149 0 R D 17114 10726 M -149 0 R D
17114 11149 M -149 0 R D 17114 11573 M -149 0 R D 3344 3060 M 106 0 R
0 -1525 R 106 0 R 106 0 R 106 0 R 106 0 R 0 42 R 106 0 R 106 0 R 0 -42 R
106 0 R 107 0 R 0 127 R 106 0 R 106 0 R 0 -212 R 106 0 R 106 0 R 0 212 R
106 0 R 106 0 R 0 85 R 106 0 R 106 0 R 0 85 R 107 0 R 106 0 R 0 -255 R
106 0 R 106 0 R 0 -84 R 106 0 R 106 0 R 0 169 R 106 0 R 106 0 R 0 85 R
106 0 R 107 0 R 0 254 R 106 0 R 106 0 R 0 169 R 106 0 R 106 0 R 0 339 R
106 0 R 106 0 R 0 -466 R 106 0 R 106 0 R 0 466 R 106 0 R 107 0 R 0 339 R
106 0 R 106 0 R 0 -127 R 106 0 R 106 0 R 0 1101 R 106 0 R 106 0 R 0 974 R
106 0 R 106 0 R 0 4617 R 107 0 R 106 0 R 0 -1059 R 106 0 R 106 0 R 0 -2245 R
106 0 R 106 0 R 0 -2033 R 106 0 R 106 0 R 0 -1228 R 106 0 R 107 0 R 106 0 R
106 0 R 0 -296 R 106 0 R 106 0 R 0 -297 R 106 0 R 106 0 R 0 -42 R 106 0 R
106 0 R 0 84 R 107 0 R 106 0 R 0 -465 R 106 0 R 106 0 R 106 0 R 106 0 R
0 -85 R 106 0 R 106 0 R 0 -42 R 106 0 R 107 0 R 0 -170 R 106 0 R 106 0 R
0 85 R 106 0 R 106 0 R 0 -127 R 106 0 R 106 0 R 0 84 R 106 0 R 106 0 R
0 -84 R 106 0 R 107 0 R 0 212 R 106 0 R 106 0 R 0 -128 R 106 0 R 106 0 R
106 0 R 106 0 R 0 -169 R 106 0 R 106 0 R 0 42 R 107 0 R 106 0 R 0 1822 R
106 0 R D 3450 1447 M -40 -39 R D 3237 1485 M 213 213 R D 3450 1948 M
-213 -213 R D 3237 1986 M 213 212 R D 3450 2449 M -213 -213 R D 3237 2486 M
213 213 R D 3450 2949 M -213 -212 R D 3237 2987 M 72 72 R D 3662 1409 M
-2 -2 R D 3450 1447 M 87 87 R D 3787 1534 M -125 -125 R D 3910 1407 M
169 169 R D 4288 1534 M -127 -127 R D 4411 1407 M 100 100 R D 4414 1661 M
-115 -115 R D 4661 1407 M 43 43 R D 4935 1430 M -23 -23 R D 4723 1469 M
193 193 R D 5147 1643 M -212 -213 R D 4935 1681 M 66 66 R D 5360 1605 M
-197 -197 R D 5147 1643 M 189 188 R D 5572 1567 M -159 -159 R D 5663 1408 M
85 85 R D 5996 1490 M -82 -82 R D 5784 1529 M 132 132 R D 6209 1453 M
-46 -46 R D 5996 1490 M 213 213 R D 6002 1747 M -6 -7 R D 6413 1407 M 8 7 R
D 6421 1665 M -212 -212 R D 6209 1703 M 212 212 R D 6255 2000 M -46 -46 R D
6421 1415 M 212 212 R D 6633 1877 M -212 -212 R D 6421 1916 M 212 212 R D
6425 2169 M -4 -3 R D 6664 1407 M 181 181 R D 6845 1838 M -212 -211 R D
6633 1877 M 212 212 R D 6845 2339 M -212 -211 R D 6633 2377 M 130 131 R D
7057 1550 M -142 -142 R D 6846 1589 M 211 211 R D 7048 2042 M -202 -203 R D
7165 1408 M 105 105 R D 7270 1763 M -213 -213 R D 7057 1800 M 213 213 R D
7270 2263 M -213 -212 R D 7057 2301 M 207 207 R D 7482 1474 M -67 -67 R D
7270 1513 M 212 212 R D 7482 1975 M -212 -211 R D 7270 2014 M 212 211 R D
7482 2476 M -212 -212 R D 7270 2514 M 212 212 R D 7352 2847 M -82 -82 R D
7665 1407 M 29 29 R D 7694 1686 M -211 -211 R D 7483 1725 M 211 212 R D
7694 2187 M -211 -211 R D 7483 2226 M 211 211 R D 7694 2688 M -211 -212 R D
7694 1436 M 212 212 R D 7906 1899 M -212 -213 R D 7694 1937 M 212 212 R D
7906 2399 M -212 -212 R D 7694 2437 M 212 213 R D 7906 2900 M -212 -212 R D
7694 2938 M 212 212 R D 7906 3400 M -212 -212 R D 7694 3439 M 212 212 R D
7826 3821 M -132 -132 R D 7915 1407 M 203 203 R D 8118 1860 M -212 -212 R D
7906 1899 M 212 212 R D 8118 2361 M -212 -212 R D 7906 2399 M 212 212 R D
8118 2862 M -212 -212 R D 7906 2900 M 212 212 R D 8118 3362 M -212 -212 R D
7906 3400 M 212 213 R D 8118 3863 M -212 -212 R D 7906 3901 M 212 212 R D
8118 4364 M -212 -213 R D 7906 4402 M 212 212 R D 8050 4796 M -144 -144 R D
8166 1408 M 165 165 R D 8331 1823 M -213 -213 R D 8118 1860 M 213 213 R D
8331 2324 M -213 -213 R D 8118 2361 M 213 213 R D 8331 2824 M -213 -213 R D
8118 2862 M 213 213 R D 8331 3325 M -213 -213 R D 8118 3362 M 213 213 R D
8331 3825 M -213 -212 R D 8118 3863 M 213 213 R D 8331 4326 M -213 -213 R D
8118 4364 M 213 212 R D 8331 4827 M -213 -213 R D 8118 4864 M 213 213 R D
8331 5327 M -213 -212 R D 8118 5365 M 213 213 R D 8331 5828 M -213 -213 R D
8118 5865 M 213 213 R D 8331 6329 M -213 -213 R D 8118 6366 M 213 213 R D
8331 6829 M -213 -213 R D 8118 6867 M 213 213 R D 8331 7330 M -213 -213 R D
8118 7367 M 213 213 R D 8331 7831 M -213 -213 R D 8118 7868 M 213 213 R D
8331 8331 M -213 -213 R D 8118 8369 M 213 212 R D 8331 8832 M -213 -213 R D
8118 8869 M 213 213 R D 8331 9332 M -213 -212 R D 8118 9370 M 43 42 R D
8543 1534 M -126 -126 R D 8331 1573 M 212 211 R D 8543 2034 M -212 -211 R D
8331 2073 M 212 212 R D 8543 2535 M -212 -211 R D 8331 2574 M 212 211 R D
8543 3036 M -212 -212 R D 8331 3075 M 212 211 R D 8543 3536 M -212 -211 R D
8331 3575 M 212 212 R D 8543 4037 M -212 -212 R D 8331 4076 M 212 211 R D
8543 4538 M -212 -212 R D 8331 4576 M 212 212 R D 8543 5038 M -212 -211 R D
8331 5077 M 212 211 R D 8543 5539 M -212 -212 R D 8331 5578 M 212 211 R D
8543 6039 M -212 -211 R D 8331 6078 M 212 212 R D 8543 6540 M -212 -211 R D
8331 6579 M 212 211 R D 8543 7041 M -212 -212 R D 8331 7080 M 212 211 R D
8543 7541 M -212 -211 R D 8331 7580 M 212 212 R D 8543 8042 M -212 -211 R D
8331 8081 M 212 211 R D 8353 8353 M -22 -22 R D 8666 1407 M 89 89 R D
8755 1746 M -212 -212 R D 8543 1785 M 212 211 R D 8755 2246 M -212 -211 R D
8543 2285 M 212 212 R D 8755 2747 M -212 -211 R D 8543 2786 M 212 211 R D
8755 3248 M -212 -212 R D 8543 3287 M 212 211 R D 8755 3748 M -212 -211 R D
8543 3787 M 212 212 R D 8755 4249 M -212 -211 R D 8543 4288 M 212 211 R D
8755 4750 M -212 -212 R D 8543 4789 M 212 211 R D 8755 5250 M -212 -211 R D
8543 5289 M 212 212 R D 8755 5751 M -212 -212 R D 8543 5790 M 212 211 R D
8611 6108 M -68 -68 R D 8917 1407 M 50 50 R D 8967 1708 M -212 -212 R D
8755 1747 M 212 211 R D 8967 2208 M -212 -211 R D 8755 2247 M 212 212 R D
8967 2709 M -212 -211 R D 8755 2748 M 212 211 R D 8967 3210 M -212 -212 R D
8755 3248 M 212 212 R D 8967 3710 M -212 -211 R D 8756 3750 M 211 211 R D
8831 4075 M -75 -75 R D 9167 1407 M 13 13 R D 9180 1670 M -213 -213 R D
8967 1708 M 213 213 R D 9180 2171 M -213 -213 R D 8967 2208 M 213 213 R D
9180 2671 M -213 -212 R D 8967 2709 M 138 138 R D 9392 1632 M -212 -211 R D
9180 1671 M 212 211 R D 9392 2133 M -212 -212 R D 9180 2172 M 212 211 R D
9392 2633 M -212 -211 R D 9180 2672 M 176 176 R D 9604 1594 M -186 -186 R D
9392 1633 M 212 211 R D 9604 2094 M -212 -211 R D 9392 2133 M 212 212 R D
9560 2551 M -168 -167 R D 9668 1408 M 147 147 R D 9815 1805 M -210 -210 R D
9605 1845 M 210 211 R D 9764 2254 M -159 -159 R D 9919 1408 M 108 109 R D
10027 1767 M -211 -211 R D 9816 1806 M 211 211 R D 9972 2213 M -156 -157 R D
10168 1407 M 73 73 R D 10241 1730 M -213 -213 R D 10028 1768 M 213 213 R D
10241 2231 M -213 -213 R D 10029 2269 M 27 27 R D 10453 1442 M -34 -35 R D
10241 1480 M 212 212 R D 10342 1831 M -101 -101 R D 10453 1442 M 212 212 R D
10592 1831 M -139 -139 R D 10669 1407 M 208 209 R D 10758 1747 M -93 -93 R D
10919 1407 M 171 171 R D 10966 1704 M -89 -88 R D 11169 1407 M 128 127 R D
11514 1501 M -94 -94 R D 11302 1539 M 80 80 R D 11726 1463 M -56 -56 R D
11920 1407 M 18 18 R D 11840 1577 M -114 -114 R D 11938 1425 M 67 67 R D
12363 1599 M -192 -191 R D 12151 1638 M 67 67 R D 12574 1561 M -152 -153 R D
12671 1407 M 116 115 R D 12590 1576 M -15 -15 R D 13172 1407 M 40 40 R D
13424 1409 M -2 -2 R D 13212 1447 M 212 213 R D 13424 1910 M -212 -212 R D
13212 1948 M 212 212 R D 13424 2411 M -212 -213 R D 13212 2449 M 212 212 R D
13424 2911 M -212 -212 R D 13212 2949 M 212 212 R D 13284 3271 M -72 -71 R D
3237 1408 M 52 0 R 51 0 R 51 0 R 51 0 R 51 0 R 52 0 R 51 0 R 51 0 R 51 0 R
51 0 R 52 0 R 51 0 R 51 0 R 51 0 R 51 0 R 51 0 R 52 0 R 51 0 R 51 0 R 51 0 R
51 0 R 52 0 R 51 0 R 51 0 R 51 0 R 51 0 R 52 0 R 51 0 R 51 0 R 51 0 R 51 0 R
51 0 R 52 0 R 51 0 R 51 0 R 51 0 R 51 0 R 52 0 R 51 0 R 51 0 R 51 0 R 51 0 R
52 0 R 51 0 R 51 0 R 51 0 R 51 0 R 52 0 R 51 0 R 51 0 R 51 0 R 51 0 R 51 0 R
52 0 R 51 0 R 51 0 R 51 0 R 51 0 R 52 0 R 51 0 R 51 0 R 51 0 R 51 0 R 52 0 R
51 0 R 51 0 R 51 1 R 51 0 R 51 1 R 52 1 R 51 3 R 51 3 R 51 6 R 51 8 R
52 12 R 51 18 R 51 27 R 51 36 R 51 52 R 52 69 R 51 93 R 51 122 R 51 156 R
51 197 R 51 241 R 52 292 R 51 344 R 51 396 R 51 446 R 51 491 R 52 526 R
51 547 R 51 552 R 51 538 R 51 502 R 52 447 R 51 370 R 51 276 R 51 169 R
51 53 R 51 -65 R 52 -181 R 51 -286 R 51 -379 R 51 -453 R 51 -508 R 52 -540 R
51 -552 R 51 -546 R 51 -522 R 51 -487 R 52 -441 R 51 -391 R 51 -339 R
51 -286 R 51 -237 R 51 -192 R 52 -152 R 51 -118 R 51 -91 R 51 -67 R 51 -50 R
52 -36 R 51 -25 R 51 -17 R 51 -12 R 51 -8 R 52 -5 R 51 -4 R 51 -2 R 51 -1 R
51 -1 R 51 0 R 52 -1 R 51 0 R 51 0 R 51 0 R 51 0 R 52 0 R 51 0 R 51 0 R
51 0 R 51 0 R 52 0 R 51 0 R 51 0 R 51 0 R 51 0 R 51 0 R 52 0 R 51 0 R 51 0 R
51 0 R 51 0 R 52 0 R 51 0 R 51 0 R 51 0 R 51 0 R 52 0 R 51 0 R 51 0 R 51 0 R
51 0 R 51 0 R 52 0 R 51 0 R 51 0 R 51 0 R 51 0 R 52 0 R 51 0 R 51 0 R 51 0 R
51 0 R 52 0 R 51 0 R 51 0 R 51 0 R 51 0 R 52 0 R 51 0 R 51 0 R 51 0 R 51 0 R
51 0 R 52 0 R 51 0 R 51 0 R 51 0 R 51 0 R 52 0 R 51 0 R 51 0 R 51 0 R 51 0 R
52 0 R 51 0 R 51 0 R D 3061 11737 M -67 -278 R D 3118 11737 M -67 -278 R D
2994 11632 M 134 0 R D 2984 11574 M 134 0 R D 3204 11536 M -9 9 R 9 10 R
10 -10 R 0 -28 R -10 -20 R -9 -9 R D 3473 11670 M -58 -211 R D 3482 11670 M
-57 -211 R D 3473 11641 M -10 -57 R 0 -29 R 19 -19 R 19 0 R 19 9 R 20 19 R
19 29 R D 3578 11670 M -29 -106 R 0 -19 R 10 -9 R 29 0 R 19 19 R 9 19 R D
3588 11670 M -29 -106 R 0 -19 R 9 -9 R D 3674 11536 M -10 9 R 10 10 R
9 -10 R 0 -28 R -9 -20 R -10 -9 R D 4057 11670 M -96 0 R -29 -10 R -19 -28 R
-9 -29 R 0 -29 R 9 -19 R 10 -10 R 19 -9 R 19 0 R 29 9 R 19 29 R 10 29 R
0 29 R -10 19 R -9 9 R -20 10 R D 3961 11670 M -19 -10 R -19 -28 R -10 -29 R
0 -39 R 10 -19 R D 3961 11536 M 19 9 R 20 29 R 9 29 R 0 38 R -9 19 R 57 0 R
D 4115 11651 M 172 0 R D 4115 11593 M 172 0 R D 4689 11699 M 20 9 R 28 29 R
0 -201 R D 4881 11699 M 19 9 R 29 29 R 0 -201 R D 5168 11670 M -9 -29 R
-19 -19 R -29 -10 R -10 0 R -28 10 R -20 19 R -9 29 R 0 9 R 9 29 R 20 19 R
28 10 R 10 0 R 29 -10 R 19 -19 R 9 -38 R 0 -48 R -9 -48 R -19 -29 R -29 -9 R
-19 0 R -29 9 R -10 19 R D 5370 11737 M -96 -201 R D 5235 11737 M 135 0 R D
5456 11545 M -10 -9 R -9 9 R 9 10 R 10 -10 R 0 -28 R -10 -20 R -9 -9 R D
6040 11737 M -28 -10 R -20 -28 R -9 -48 R 0 -29 R 9 -48 R 20 -29 R 28 -9 R
19 0 R 29 9 R 19 29 R 10 48 R 0 29 R -10 48 R -19 28 R -29 10 R -19 0 R D
6194 11555 M -10 -10 R 10 -9 R 9 9 R -9 10 R D 6395 11670 M -10 -29 R
-19 -19 R -29 -10 R -9 0 R -29 10 R -19 19 R -10 29 R 0 9 R 10 29 R 19 19 R
29 10 R 9 0 R 29 -10 R 19 -19 R 10 -38 R 0 -48 R -10 -48 R -19 -29 R
-29 -9 R -19 0 R -29 9 R -9 19 R D 6471 11689 M 0 10 R 10 19 R 10 9 R
19 10 R 38 0 R 19 -10 R 10 -9 R 9 -19 R 0 -20 R -9 -19 R -19 -28 R -96 -96 R
134 0 R D 6778 11670 M -10 -29 R -19 -19 R -28 -10 R -10 0 R -29 10 R
-19 19 R -10 29 R 0 9 R 10 29 R 19 19 R 29 10 R 10 0 R 28 -10 R 19 -19 R
10 -38 R 0 -48 R -10 -48 R -19 -29 R -28 -9 R -20 0 R -28 9 R -10 19 R D
6960 11737 M -96 0 R -9 -86 R 9 9 R 29 10 R 29 0 R 29 -10 R 19 -19 R 9 -29 R
0 -19 R -9 -29 R -19 -19 R -29 -9 R -29 0 R -29 9 R -9 10 R -10 19 R D
7065 11545 M -9 -9 R -10 9 R 10 10 R 9 -10 R 0 -28 R -9 -20 R -10 -9 R D
7650 11737 M -29 -10 R -19 -28 R -10 -48 R 0 -29 R 10 -48 R 19 -29 R 29 -9 R
19 0 R 29 9 R 19 29 R 10 48 R 0 29 R -10 48 R -19 28 R -29 10 R -19 0 R D
7803 11555 M -9 -10 R 9 -9 R 10 9 R -10 10 R D 7937 11737 M -28 -10 R
-20 -28 R -9 -48 R 0 -29 R 9 -48 R 20 -29 R 28 -9 R 20 0 R 28 9 R 19 29 R
10 48 R 0 29 R -10 48 R -19 28 R -28 10 R -20 0 R D 8081 11689 M 0 10 R
10 19 R 9 9 R 19 10 R 39 0 R 19 -10 R 9 -9 R 10 -19 R 0 -20 R -10 -19 R
-19 -28 R -96 -96 R 135 0 R D 8292 11699 M 19 9 R 29 29 R 0 -201 R D
8483 11699 M 20 9 R 28 29 R 0 -201 R D
%%PageTrailer
end
%%PageResources: font Helvetica
%%Trailer
%%Pages: 1
%%DocumentNeededResources: font Helvetica
%%EOF
