\BOOKMARK [1][-]{section.1}{Introduction}{}% 1
\BOOKMARK [2][-]{subsection.1.1}{Observing Astrophysical Polarization}{section.1}% 2
\BOOKMARK [2][-]{subsection.1.2}{Cool Core Clusters and Polarization}{section.1}% 3
\BOOKMARK [1][-]{section.2}{Observations}{}% 4
\BOOKMARK [1][-]{section.3}{Calibration and Data Analysis}{}% 5
\BOOKMARK [2][-]{subsection.3.1}{Stokes Parameters}{section.3}% 6
\BOOKMARK [2][-]{subsection.3.2}{Dome Flats}{section.3}% 7
\BOOKMARK [2][-]{subsection.3.3}{Unpolarized Calibration Targets}{section.3}% 8
\BOOKMARK [2][-]{subsection.3.4}{Polarized Calibration Targets}{section.3}% 9
\BOOKMARK [3][-]{subsubsection.3.4.1}{Polarization Limits of M87 Filaments}{subsection.3.4}% 10
\BOOKMARK [1][-]{section.4}{Discussion}{}% 11
\BOOKMARK [1][-]{section.5}{Conclusions}{}% 12
