\relax 
\providecommand\HyperFirstAtBeginDocument{\AtBeginDocument}
\HyperFirstAtBeginDocument{\ifx\hyper@anchor\@undefined
\global\let\oldcontentsline\contentsline
\gdef\contentsline#1#2#3#4{\oldcontentsline{#1}{#2}{#3}}
\global\let\oldnewlabel\newlabel
\gdef\newlabel#1#2{\newlabelxx{#1}#2}
\gdef\newlabelxx#1#2#3#4#5#6{\oldnewlabel{#1}{{#2}{#3}}}
\AtEndDocument{\ifx\hyper@anchor\@undefined
\let\contentsline\oldcontentsline
\let\newlabel\oldnewlabel
\fi}
\fi}
\global\let\hyper@last\relax 
\gdef\HyperFirstAtBeginDocument#1{#1}
\providecommand\HyField@AuxAddToFields[1]{}
\@writefile{toc}{\contentsline {section}{\numberline {1}Introduction}{2}{section.1}}
\@writefile{toc}{\contentsline {subsection}{\numberline {1.1}Observing Astrophysical Polarization}{3}{subsection.1.1}}
\@writefile{toc}{\contentsline {subsection}{\numberline {1.2}Cool Core Clusters and Polarization}{4}{subsection.1.2}}
\@writefile{toc}{\contentsline {section}{\numberline {2}Observations}{6}{section.2}}
\citation{collett2005field}
\@writefile{toc}{\contentsline {section}{\numberline {3}Calibration and Data Analysis}{8}{section.3}}
\@writefile{toc}{\contentsline {subsection}{\numberline {3.1}Stokes Parameters}{8}{subsection.3.1}}
\citation{2001PASP..113.1420V}
\citation{1990AJ.....99.1243T}
\@writefile{toc}{\contentsline {subsection}{\numberline {3.2}Dome Flats}{11}{subsection.3.2}}
\@writefile{toc}{\contentsline {subsection}{\numberline {3.3}Unpolarized Calibration Targets}{12}{subsection.3.3}}
\@writefile{toc}{\contentsline {subsection}{\numberline {3.4}Polarized Calibration Targets}{13}{subsection.3.4}}
\citation{1957BAN....13..301W}
\citation{1974MNRAS.166..617W}
\citation{1979ApJ...227..106S}
\citation{1990ApJ...365..224H}
\citation{1990ApJ...365..224H}
\citation{1966AJ.....71..224J}
\citation{1997ApJ...489..210C}
\citation{1999AJ....117.2185P}
\citation{1999AJ....117.2185P}
\citation{1999AJ....117.2185P}
\@writefile{toc}{\contentsline {subsubsection}{\numberline {3.4.1}Polarization Limits of M87 Filaments}{15}{subsubsection.3.4.1}}
\citation{1997ApJ...486..242V}
\citation{1989ApJ...345..153S}
\citation{2009MNRAS.392.1475F}
\citation{2009ApJ...704L..20S}
\citation{2012ApJ...750L...5S}
\@writefile{toc}{\contentsline {section}{\numberline {4}Discussion}{17}{section.4}}
\citation{1977ApJ...211..135C}
\citation{1962pfig.book.....S}
\citation{Sparks2004}
\citation{2011MNRAS.417..172F}
\@writefile{toc}{\contentsline {section}{\numberline {5}Conclusions}{19}{section.5}}
\citation{1990ApJ...365..224H}
\citation{1997ApJ...489..210C}
\citation{1999AJ....117.2185P}
\bibstyle{apj}
\bibdata{SoarPolarization}
\@writefile{lof}{\contentsline {figure}{\numberline {1}{\ignorespaces Stokes Parameters. }}{21}{figure.1}}
\newlabel{fig:stokesparameters}{{1}{21}{Stokes Parameters}{figure.1}{}}
\@writefile{lof}{\contentsline {figure}{\numberline {2}{\ignorespaces Histograms of NGC1851 stellar fluxes. We present all of the globular cluster histograms for NGC1851. The four plots on the first column are 0$^{\circ }$-90$^{\circ }$ relative comparisons. The set on the right are 45$^{\circ }$-135$^{\circ }$ comparisons.}}{22}{figure.2}}
\newlabel{fig:unpolhistogram}{{2}{22}{Histograms of NGC1851 stellar fluxes. We present all of the globular cluster histograms for NGC1851. The four plots on the first column are 0$^{\circ }$-90$^{\circ }$ relative comparisons. The set on the right are 45$^{\circ }$-135$^{\circ }$ comparisons}{figure.2}{}}
\@writefile{lof}{\contentsline {figure}{\numberline {3}{\ignorespaces Polarization maps of the Crab Nebula. We include V band images of the full 5$^{\prime }\times $5$^{\prime }$ field of the Crab Nebula from our January 4th, 2013 night. The color range scale for a signal to noise between 5 and 20.}}{23}{figure.3}}
\newlabel{fig:crabV}{{3}{23}{Polarization maps of the Crab Nebula. We include V band images of the full 5$^{\prime }\times $5$^{\prime }$ field of the Crab Nebula from our January 4th, 2013 night. The color range scale for a signal to noise between 5 and 20}{figure.3}{}}
\@writefile{lof}{\contentsline {figure}{\numberline {4}{\ignorespaces Polarization maps of the Crab Nebula. We include R band images of the full 5$^{\prime }\times $5$^{\prime }$ field of the Crab Nebula from our January 4th, 2013 night. The last panel is a signal to noise map of the nebula. The color range scale for a signal to noise between 5 and 20. }}{24}{figure.4}}
\newlabel{fig:crabR}{{4}{24}{Polarization maps of the Crab Nebula. We include R band images of the full 5$^{\prime }\times $5$^{\prime }$ field of the Crab Nebula from our January 4th, 2013 night. The last panel is a signal to noise map of the nebula. The color range scale for a signal to noise between 5 and 20}{figure.4}{}}
\@writefile{lof}{\contentsline {figure}{\numberline {5}{\ignorespaces Crab Nebula Polarization Comparison. The \citet  {1990ApJ...365..224H} figure is displayed on the left. In the figure the magnetic field lines are plotted instead of electric field lines. For direct comparison the lines would need to be rotated 90 degrees. Their vectors are plotted with a polarization averaged from 2$^{\prime \prime }\times $2$^{\prime \prime }$ bins. The 2$^{\prime \prime }$ separation also corresponds to a 50\% polarization vector. }}{25}{figure.5}}
\newlabel{fig:crabzoom}{{5}{25}{Crab Nebula Polarization Comparison. The \citet {1990ApJ...365..224H} figure is displayed on the left. In the figure the magnetic field lines are plotted instead of electric field lines. For direct comparison the lines would need to be rotated 90 degrees. Their vectors are plotted with a polarization averaged from 2$^{\prime \prime }\times $2$^{\prime \prime }$ bins. The 2$^{\prime \prime }$ separation also corresponds to a 50\% polarization vector}{figure.5}{}}
\@writefile{lof}{\contentsline {figure}{\numberline {6}{\ignorespaces R Mon Polarization Maps. We compare our map of the polarized standard star R Monocerotis to the map in \citet  {1997ApJ...489..210C}. }}{26}{figure.6}}
\newlabel{fig:Rmon}{{6}{26}{R Mon Polarization Maps. We compare our map of the polarized standard star R Monocerotis to the map in \citet {1997ApJ...489..210C}}{figure.6}{}}
\@writefile{lof}{\contentsline {figure}{\numberline {7}{\ignorespaces M87 AGN polarization map. We plot the polarization vectors on the intensity image of the M87 jet where we subtracted out elliptical profiles to remove the background galactic starlight. The plot to the right is a combination of two HST optical polarization maps from \citet  {1999AJ....117.2185P}, which correspond to the relative regions in our map. }}{27}{figure.7}}
\newlabel{fig:AGN}{{7}{27}{M87 AGN polarization map. We plot the polarization vectors on the intensity image of the M87 jet where we subtracted out elliptical profiles to remove the background galactic starlight. The plot to the right is a combination of two HST optical polarization maps from \citet {1999AJ....117.2185P}, which correspond to the relative regions in our map}{figure.7}{}}
\@writefile{lof}{\contentsline {figure}{\numberline {8}{\ignorespaces M87 H$\alpha $. All three panels have their colors inverted such that darker areas are the areas of emission. The upper panel is the continuum subtracted H$\alpha $ image. This is a stacked image that includes 8 observations of four polarized images from two different dither positions from April 7th, 2011. For M87, the 15$^{\prime \prime }$ scale bar is equivalent to 1.35 kpc. The two lower panels are zoomed in areas of the upper image. The boxes are 1.5$^{\prime \prime }\times 1.5^{\prime \prime }$ boxes and were the regions used to measure Stokes parameters. }}{28}{figure.8}}
\newlabel{fig:m87halpha}{{8}{28}{M87 H$\alpha $. All three panels have their colors inverted such that darker areas are the areas of emission. The upper panel is the continuum subtracted H$\alpha $ image. This is a stacked image that includes 8 observations of four polarized images from two different dither positions from April 7th, 2011. For M87, the 15$^{\prime \prime }$ scale bar is equivalent to 1.35 kpc. The two lower panels are zoomed in areas of the upper image. The boxes are 1.5$^{\prime \prime }\times 1.5^{\prime \prime }$ boxes and were the regions used to measure Stokes parameters}{figure.8}{}}
\@writefile{lof}{\contentsline {figure}{\numberline {9}{\ignorespaces M87 H$\alpha $ and Continuum Stokes Parameters. The histograms plot the Q and U Stokes parameter distributions for the 234 scaled (i.e. divided by the total counts in the respective pair of polarizers) continuum boxes (1.5$^{\prime \prime }$ on a side squares) as well as the 65 H$\alpha $ boxes of identical size. The centers of these distributions are not shifted. }}{29}{figure.9}}
\newlabel{fig:m87uncorrstokes}{{9}{29}{M87 H$\alpha $ and Continuum Stokes Parameters. The histograms plot the Q and U Stokes parameter distributions for the 234 scaled (i.e. divided by the total counts in the respective pair of polarizers) continuum boxes (1.5$^{\prime \prime }$ on a side squares) as well as the 65 H$\alpha $ boxes of identical size. The centers of these distributions are not shifted}{figure.9}{}}
\@writefile{lof}{\contentsline {figure}{\numberline {10}{\ignorespaces M87 Stokes Parameter Histograms. The left histograms includes the scaled (i.e. divided by the total counts in the respective pair of polarizers) Q and U Stokes parameters for the continuum 1.5$^{\prime \prime }$ on a side squares. The left presents the equivalent for the sampling of 65 H$\alpha $ 1.5$^{\prime \prime }$ on a side squares where the each of the distributions has been aligned by subtracting the means of the continuum Q and U.}}{29}{figure.10}}
\newlabel{fig:m87corrstokes}{{10}{29}{M87 Stokes Parameter Histograms. The left histograms includes the scaled (i.e. divided by the total counts in the respective pair of polarizers) Q and U Stokes parameters for the continuum 1.5$^{\prime \prime }$ on a side squares. The left presents the equivalent for the sampling of 65 H$\alpha $ 1.5$^{\prime \prime }$ on a side squares where the each of the distributions has been aligned by subtracting the means of the continuum Q and U}{figure.10}{}}
\@writefile{lof}{\contentsline {figure}{\numberline {11}{\ignorespaces M87 H$\alpha $ boxes. We plot the polarization fraction from the boxes. The top two boxes are from observations from April 2011 and the bottom two are from April 2013. The polarization fractions calculated unbiased by subtracting the mean of the distribution for the continuum. We allow polarization percentages to be negative (which are consistent with zero polarization) to display the dynamic range (i.e. standard deviation of the H$\alpha $ boxes). Looking across all the images, the boxes which are at least 2$\sigma $ above zero polarization in a given image are are not seen consistently above zero polarization across the images.}}{30}{figure.11}}
\bibcite{1997ApJ...489..210C}{{1}{1997}{{{Close} {et~al.}}}{{{Close}, {Roddier}, {Hora}, {Graves}, {Northcott}, {Roddier}, {Hoffmann}, {Dayal}, {Fazio}, \& {Deutsch}}}}
\bibcite{1977ApJ...211..135C}{{2}{1977}{{{Cowie} \& {McKee}}}{{}}}
\bibcite{2011MNRAS.417..172F}{{3}{2011}{{{Fabian} {et~al.}}}{{{Fabian}, {Sanders}, {Williams}, {Lazarian}, {Ferland}, \& {Johnstone}}}}
\bibcite{1990ApJ...365..224H}{{4}{1990}{{{Hickson} \& {van den Bergh}}}{{}}}
\bibcite{1966AJ.....71..224J}{{5}{1966}{{Johnson}}{{}}}
\bibcite{1999AJ....117.2185P}{{6}{1999}{{{Perlman} {et~al.}}}{{{Perlman}, {Biretta}, {Zhou}, {Sparks}, \& {Macchetto}}}}
\bibcite{1979ApJ...227..106S}{{7}{1979}{{{Schmidt} {et~al.}}}{{{Schmidt}, {Angel}, \& {Beaver}}}}
\bibcite{1989ApJ...345..153S}{{8}{1989}{{{Sparks} {et~al.}}}{{{Sparks}, {Macchetto}, \& {Golombek}}}}
\bibcite{2012ApJ...750L...5S}{{9}{2012}{{{Sparks} {et~al.}}}{{{Sparks}, {Pringle}, {Carswell}, {Donahue}, {Martin}, {Voit}, {Cracraft}, {Manset}, \& {Hough}}}}
\bibcite{1997ApJ...486..242V}{{10}{1997}{{{Voit} \& {Donahue}}}{{}}}
\bibcite{1974MNRAS.166..617W}{{11}{1974}{{Wilson}}{{}}}
\newlabel{tab:obs}{{5}{31}{Conclusions\relax }{section*.1}{}}
\@writefile{lot}{\contentsline {table}{\numberline {1}{\ignorespaces \tnotemarkskip 8ptObservations}}{32}{table.1}}
\@writefile{lot}{\contentsline {table}{\numberline {1}{\ignorespaces \tnotemarkskip 8ptObservations}}{33}{table.1}}
