%!PS-Adobe-3.0 EPSF-3.0
%%BoundingBox: 0 0 504 360
%%Title: Graphics produced by IDL
%%For: Aaron@Aaron, /home/Aaron
%%Creator: IDL Version 7.1 (linux x86 m32)
%%CreationDate: Tue Feb 22 13:08:50 2011
%%DocumentData: Clean7bit
%%LanguageLevel: 1
%%PageOrder: Ascend
%%Pages: (atend)
%%DocumentNeededResources: (atend)
%%EndComments
%%BeginProlog
%+ prolog.ps -- Prolog for IDL generated PostScript files
%+ Copyright (c) 1988-2009 ITT Visual Information Solutions. All Rights Reserved.
%v 5
/$IDL_DICT 40 dict def $IDL_DICT begin /bdef { bind def } bind def /C
{currentpoint newpath moveto} bdef /CP {currentpoint} bdef /D {currentpoint
stroke moveto} bdef /F {closepath fill} bdef /K { setgray } bdef /M {moveto}
bdef /N {rmoveto} bdef /P {lineto} bdef /R {rlineto} bdef /S {gsave show
grestore} bdef /X {currentpoint pop} bdef /Z {gsave currentpoint lineto 20
setlinewidth 1 setlinecap stroke grestore} bdef /L0 {[] 0 setdash} bdef /L1
{[40 100] 0 setdash} bdef /L2 {[200 200] 0 setdash} bdef /L3 {[200 100 50
100] 0 setdash} bdef /L4 {[300 100 50 100 50 100 50 100] 0 setdash} bdef /L5
{[400 200] 0 setdash} bdef /STDFONT { findfont exch scalefont setfont } bdef
/ISOFONT { findfont dup length dict begin { 1 index /FID ne {def} {pop pop}
ifelse } forall /Encoding ISOLatin1Encoding def currentdict end /idltmpfont
exch definefont exch scalefont setfont } bdef /ISOBULLET { gsave /Helvetica
findfont exch scalefont setfont (\267) show currentpoint grestore moveto}
bdef /MITERLIMIT { 2.5 setmiterlimit } bdef end
%%EndProlog
%%Page: 0 1
%%PageResources: (atend)
%%PageOrientation: Portrait
%%PageBoundingBox: 0 0 504 360
%%BeginPageSetup
$IDL_DICT begin 0.0283465 dup scale MITERLIMIT
%%IncludeResource: font Helvetica
423.333 /Helvetica STDFONT
%%EndPageSetup
10 setlinewidth L0 0.000 K 2220 1408 M 14894 0 R D 2220 1408 M 0 212 R D
2021 1125 M -35 -11 R -23 -35 R -12 -59 R 0 -35 R 12 -58 R 23 -35 R 35 -12 R
24 0 R 35 12 R 23 35 R 12 58 R 0 35 R -12 59 R -23 35 R -35 11 R -24 0 R
-23 -11 R -12 -12 R -11 -23 R -12 -59 R 0 -35 R 12 -58 R 11 -24 R 12 -11 R
23 -12 R D 2045 880 M 23 12 R 12 11 R 12 24 R 11 58 R 0 35 R -11 59 R
-12 23 R -12 12 R -23 11 R D 2208 903 M -11 -11 R 11 -12 R 12 12 R -12 11 R
D 2314 1079 M 11 -12 R -11 -12 R -12 12 R 0 12 R 12 23 R 11 12 R 35 11 R
47 0 R 35 -11 R 12 -12 R 11 -23 R 0 -24 R -11 -23 R -35 -23 R -59 -24 R
-23 -11 R -23 -24 R -12 -35 R 0 -35 R D 2407 1125 M 23 -11 R 12 -12 R
12 -23 R 0 -24 R -12 -23 R -35 -23 R -47 -24 R D 2302 903 M 12 12 R 23 0 R
58 -23 R 35 0 R 24 11 R 11 12 R D 2337 915 M 58 -35 R 47 0 R 12 12 R 11 23 R
0 23 R D 4082 1408 M 0 212 R D 3883 1125 M -35 -11 R -23 -35 R -12 -59 R
0 -35 R 12 -58 R 23 -35 R 35 -12 R 24 0 R 35 12 R 23 35 R 12 58 R 0 35 R
-12 59 R -23 35 R -35 11 R -24 0 R -23 -11 R -12 -12 R -12 -23 R -11 -59 R
0 -35 R 11 -58 R 12 -24 R 12 -11 R 23 -12 R D 3907 880 M 23 12 R 12 11 R
11 24 R 12 58 R 0 35 R -12 59 R -11 23 R -12 12 R -23 11 R D 4070 903 M
-12 -11 R 12 -12 R 12 12 R -12 11 R D 4269 1102 M 0 -222 R D 4280 1125 M
0 -245 R D 4280 1125 M -128 -175 R 187 0 R D 4234 880 M 82 0 R D 5944 1408 M
0 212 R D 5745 1125 M -35 -11 R -23 -35 R -12 -59 R 0 -35 R 12 -58 R
23 -35 R 35 -12 R 23 0 R 35 12 R 24 35 R 11 58 R 0 35 R -11 59 R -24 35 R
-35 11 R -23 0 R -23 -11 R -12 -12 R -12 -23 R -11 -59 R 0 -35 R 11 -58 R
12 -24 R 12 -11 R 23 -12 R D 5768 880 M 24 12 R 11 11 R 12 24 R 12 58 R
0 35 R -12 59 R -12 23 R -11 12 R -24 11 R D 5932 903 M -12 -11 R 12 -12 R
12 12 R -12 11 R D 6166 1090 M -12 -11 R 12 -12 R 11 12 R 0 11 R -11 24 R
-24 11 R -35 0 R -35 -11 R -23 -24 R -12 -23 R -12 -47 R 0 -70 R 12 -35 R
23 -23 R 35 -12 R 24 0 R 35 12 R 23 23 R 12 35 R 0 12 R -12 35 R -23 23 R
-35 12 R -12 0 R -35 -12 R -23 -23 R -12 -35 R D 6107 1125 M -23 -11 R
-24 -24 R -11 -23 R -12 -47 R 0 -70 R 12 -35 R 23 -23 R 23 -12 R D
6119 880 M 23 12 R 24 23 R 11 35 R 0 12 R -11 35 R -24 23 R -23 12 R D
7805 1408 M 0 212 R D 7607 1125 M -35 -11 R -24 -35 R -11 -59 R 0 -35 R
11 -58 R 24 -35 R 35 -12 R 23 0 R 35 12 R 23 35 R 12 58 R 0 35 R -12 59 R
-23 35 R -35 11 R -23 0 R -24 -11 R -11 -12 R -12 -23 R -12 -59 R 0 -35 R
12 -58 R 12 -24 R 11 -11 R 24 -12 R D 7630 880 M 23 12 R 12 11 R 12 24 R
11 58 R 0 35 R -11 59 R -12 23 R -12 12 R -23 11 R D 7794 903 M -12 -11 R
12 -12 R 11 12 R -11 11 R D 7946 1125 M -36 -11 R -11 -24 R 0 -35 R 11 -23 R
36 -12 R 46 0 R 35 12 R 12 23 R 0 35 R -12 24 R -35 11 R -46 0 R -24 -11 R
-12 -24 R 0 -35 R 12 -23 R 24 -12 R D 7992 1020 M 24 12 R 11 23 R 0 35 R
-11 24 R -24 11 R D 7946 1020 M -36 -11 R -11 -12 R -12 -23 R 0 -47 R
12 -24 R 11 -11 R 36 -12 R 46 0 R 35 12 R 12 11 R 12 24 R 0 47 R -12 23 R
-12 12 R -35 11 R D 7946 1020 M -24 -11 R -12 -12 R -11 -23 R 0 -47 R
11 -24 R 12 -11 R 24 -12 R D 7992 880 M 24 12 R 11 11 R 12 24 R 0 47 R
-12 23 R -11 12 R -24 11 R D 9667 1408 M 0 212 R D 9433 1079 M 24 11 R
35 35 R 0 -245 R D 9480 1114 M 0 -234 R D 9433 880 M 106 0 R D 9655 903 M
-11 -11 R 11 -12 R 12 12 R -12 11 R D 9819 1125 M -35 -11 R -23 -35 R
-12 -59 R 0 -35 R 12 -58 R 23 -35 R 35 -12 R 23 0 R 35 12 R 24 35 R 11 58 R
0 35 R -11 59 R -24 35 R -35 11 R -23 0 R -23 -11 R -12 -12 R -12 -23 R
-11 -59 R 0 -35 R 11 -58 R 12 -24 R 12 -11 R 23 -12 R D 9842 880 M 24 12 R
11 11 R 12 24 R 12 58 R 0 35 R -12 59 R -12 23 R -11 12 R -24 11 R D
11529 1408 M 0 212 R D 11295 1079 M 24 11 R 35 35 R 0 -245 R D 11342 1114 M
0 -234 R D 11295 880 M 105 0 R D 11517 903 M -12 -11 R 12 -12 R 12 12 R
-12 11 R D 11622 1079 M 12 -12 R -12 -12 R -11 12 R 0 12 R 11 23 R 12 12 R
35 11 R 47 0 R 35 -11 R 12 -12 R 11 -23 R 0 -24 R -11 -23 R -36 -23 R
-58 -24 R -23 -11 R -24 -24 R -11 -35 R 0 -35 R D 11716 1125 M 23 -11 R
12 -12 R 12 -23 R 0 -24 R -12 -23 R -35 -23 R -47 -24 R D 11611 903 M
11 12 R 24 0 R 58 -23 R 35 0 R 24 11 R 11 12 R D 11646 915 M 58 -35 R 47 0 R
12 12 R 11 23 R 0 23 R D 13391 1408 M 0 212 R D 13157 1079 M 23 11 R 35 35 R
0 -245 R D 13204 1114 M 0 -234 R D 13157 880 M 105 0 R D 13379 903 M
-12 -11 R 12 -12 R 12 12 R -12 11 R D 13578 1102 M 0 -222 R D 13589 1125 M
0 -245 R D 13589 1125 M -128 -175 R 187 0 R D 13542 880 M 82 0 R D
15252 1408 M 0 212 R D 15019 1079 M 23 11 R 35 35 R 0 -245 R D 15065 1114 M
0 -234 R D 15019 880 M 105 0 R D 15241 903 M -12 -11 R 12 -12 R 11 12 R
-11 11 R D 15474 1090 M -11 -11 R 11 -12 R 12 12 R 0 11 R -12 24 R -23 11 R
-35 0 R -35 -11 R -24 -24 R -11 -23 R -12 -47 R 0 -70 R 12 -35 R 23 -23 R
35 -12 R 24 0 R 35 12 R 23 23 R 12 35 R 0 12 R -12 35 R -23 23 R -35 12 R
-12 0 R -35 -12 R -24 -23 R -11 -35 R D 15416 1125 M -23 -11 R -24 -24 R
-12 -23 R -11 -47 R 0 -70 R 11 -35 R 24 -23 R 23 -12 R D 15428 880 M 23 12 R
23 23 R 12 35 R 0 12 R -12 35 R -23 23 R -23 12 R D 17114 1408 M 0 212 R D
16880 1079 M 24 11 R 35 35 R 0 -245 R D 16927 1114 M 0 -234 R D 16880 880 M
106 0 R D 17102 903 M -11 -11 R 11 -12 R 12 12 R -12 11 R D 17254 1125 M
-35 -11 R -11 -24 R 0 -35 R 11 -23 R 35 -12 R 47 0 R 35 12 R 12 23 R 0 35 R
-12 24 R -35 11 R -47 0 R -23 -11 R -12 -24 R 0 -35 R 12 -23 R 23 -12 R D
17301 1020 M 23 12 R 12 23 R 0 35 R -12 24 R -23 11 R D 17254 1020 M
-35 -11 R -11 -12 R -12 -23 R 0 -47 R 12 -24 R 11 -11 R 35 -12 R 47 0 R
35 12 R 12 11 R 11 24 R 0 47 R -11 23 R -12 12 R -35 11 R D 17254 1020 M
-23 -11 R -12 -12 R -11 -23 R 0 -47 R 11 -24 R 12 -11 R 23 -12 R D
17301 880 M 23 12 R 12 11 R 12 24 R 0 47 R -12 23 R -12 12 R -23 11 R D
2686 1408 M 0 106 R D 3151 1408 M 0 106 R D 3616 1408 M 0 106 R D
4547 1408 M 0 106 R D 5013 1408 M 0 106 R D 5478 1408 M 0 106 R D
6409 1408 M 0 106 R D 6874 1408 M 0 106 R D 7340 1408 M 0 106 R D
8271 1408 M 0 106 R D 8736 1408 M 0 106 R D 9202 1408 M 0 106 R D
10133 1408 M 0 106 R D 10598 1408 M 0 106 R D 11063 1408 M 0 106 R D
11994 1408 M 0 106 R D 12460 1408 M 0 106 R D 12925 1408 M 0 106 R D
13856 1408 M 0 106 R D 14321 1408 M 0 106 R D 14787 1408 M 0 106 R D
15718 1408 M 0 106 R D 16183 1408 M 0 106 R D 16649 1408 M 0 106 R D
2220 11996 M 14894 0 R D 2220 11996 M 0 -212 R D 4082 11996 M 0 -212 R D
5944 11996 M 0 -212 R D 7805 11996 M 0 -212 R D 9667 11996 M 0 -212 R D
11529 11996 M 0 -212 R D 13391 11996 M 0 -212 R D 15252 11996 M 0 -212 R D
17114 11996 M 0 -212 R D 2686 11996 M 0 -106 R D 3151 11996 M 0 -106 R D
3616 11996 M 0 -106 R D 4547 11996 M 0 -106 R D 5013 11996 M 0 -106 R D
5478 11996 M 0 -106 R D 6409 11996 M 0 -106 R D 6874 11996 M 0 -106 R D
7340 11996 M 0 -106 R D 8271 11996 M 0 -106 R D 8736 11996 M 0 -106 R D
9202 11996 M 0 -106 R D 10133 11996 M 0 -106 R D 10598 11996 M 0 -106 R D
11063 11996 M 0 -106 R D 11994 11996 M 0 -106 R D 12460 11996 M 0 -106 R D
12925 11996 M 0 -106 R D 13856 11996 M 0 -106 R D 14321 11996 M 0 -106 R D
14787 11996 M 0 -106 R D 15718 11996 M 0 -106 R D 16183 11996 M 0 -106 R D
16649 11996 M 0 -106 R D 2220 1408 M 0 10588 R D 2220 1408 M 298 0 R D
1969 1653 M -35 -11 R -24 -35 R -11 -59 R 0 -35 R 11 -58 R 24 -35 R 35 -12 R
23 0 R 35 12 R 24 35 R 11 58 R 0 35 R -11 59 R -24 35 R -35 11 R -23 0 R
-23 -11 R -12 -12 R -12 -23 R -12 -59 R 0 -35 R 12 -58 R 12 -24 R 12 -11 R
23 -12 R D 1992 1408 M 24 12 R 11 11 R 12 24 R 12 58 R 0 35 R -12 59 R
-12 23 R -11 12 R -24 11 R D 2220 3173 M 298 0 R D 1677 3231 M 11 -12 R
-11 -12 R -12 12 R 0 12 R 12 23 R 11 12 R 36 11 R 46 0 R 35 -11 R 12 -12 R
12 -23 R 0 -24 R -12 -23 R -35 -24 R -58 -23 R -24 -12 R -23 -23 R -12 -35 R
0 -35 R D 1770 3277 M 24 -11 R 11 -12 R 12 -23 R 0 -24 R -12 -23 R -35 -24 R
-46 -23 R D 1665 3055 M 12 12 R 23 0 R 59 -23 R 35 0 R 23 11 R 12 12 R D
1700 3067 M 59 -35 R 46 0 R 12 12 R 12 23 R 0 23 R D 1969 3277 M -35 -11 R
-24 -35 R -11 -59 R 0 -35 R 11 -58 R 24 -35 R 35 -12 R 23 0 R 35 12 R
24 35 R 11 58 R 0 35 R -11 59 R -24 35 R -35 11 R -23 0 R -23 -11 R
-12 -12 R -12 -23 R -12 -59 R 0 -35 R 12 -58 R 12 -24 R 12 -11 R 23 -12 R D
1992 3032 M 24 12 R 11 11 R 12 24 R 12 58 R 0 35 R -12 59 R -12 23 R
-11 12 R -24 11 R D 2220 4937 M 298 0 R D 1770 5019 M 0 -222 R D 1782 5042 M
0 -245 R D 1782 5042 M -129 -175 R 187 0 R D 1735 4797 M 82 0 R D
1969 5042 M -35 -12 R -24 -35 R -11 -58 R 0 -35 R 11 -59 R 24 -35 R 35 -11 R
23 0 R 35 11 R 24 35 R 11 59 R 0 35 R -11 58 R -24 35 R -35 12 R -23 0 R
-23 -12 R -12 -11 R -12 -24 R -12 -58 R 0 -35 R 12 -59 R 12 -23 R 12 -12 R
23 -11 R D 1992 4797 M 24 11 R 11 12 R 12 23 R 12 59 R 0 35 R -12 58 R
-12 24 R -11 11 R -24 12 R D 2220 6702 M 298 0 R D 1805 6772 M -11 -12 R
11 -12 R 12 12 R 0 12 R -12 23 R -23 12 R -35 0 R -35 -12 R -24 -23 R
-11 -24 R -12 -47 R 0 -70 R 12 -35 R 23 -23 R 35 -12 R 24 0 R 35 12 R
23 23 R 12 35 R 0 12 R -12 35 R -23 23 R -35 12 R -12 0 R -35 -12 R
-24 -23 R -11 -35 R D 1747 6807 M -23 -12 R -24 -23 R -12 -24 R -11 -47 R
0 -70 R 11 -35 R 24 -23 R 23 -12 R D 1759 6561 M 23 12 R 23 23 R 12 35 R
0 12 R -12 35 R -23 23 R -23 12 R D 1969 6807 M -35 -12 R -24 -35 R
-11 -59 R 0 -35 R 11 -58 R 24 -35 R 35 -12 R 23 0 R 35 12 R 24 35 R 11 58 R
0 35 R -11 59 R -24 35 R -35 12 R -23 0 R -23 -12 R -12 -12 R -12 -23 R
-12 -59 R 0 -35 R 12 -58 R 12 -23 R 12 -12 R 23 -12 R D 1992 6561 M 24 12 R
11 12 R 12 23 R 12 58 R 0 35 R -12 59 R -12 23 R -11 12 R -24 12 R D
2220 8467 M 298 0 R D 1724 8571 M -36 -11 R -11 -24 R 0 -35 R 11 -23 R
36 -12 R 46 0 R 35 12 R 12 23 R 0 35 R -12 24 R -35 11 R -46 0 R -24 -11 R
-12 -24 R 0 -35 R 12 -23 R 24 -12 R D 1770 8466 M 24 12 R 11 23 R 0 35 R
-11 24 R -24 11 R D 1724 8466 M -36 -12 R -11 -11 R -12 -24 R 0 -46 R
12 -24 R 11 -11 R 36 -12 R 46 0 R 35 12 R 12 11 R 12 24 R 0 46 R -12 24 R
-12 11 R -35 12 R D 1724 8466 M -24 -12 R -12 -11 R -11 -24 R 0 -46 R
11 -24 R 12 -11 R 24 -12 R D 1770 8326 M 24 12 R 11 11 R 12 24 R 0 46 R
-12 24 R -11 11 R -24 12 R D 1969 8571 M -35 -11 R -24 -35 R -11 -59 R
0 -35 R 11 -58 R 24 -35 R 35 -12 R 23 0 R 35 12 R 24 35 R 11 58 R 0 35 R
-11 59 R -24 35 R -35 11 R -23 0 R -23 -11 R -12 -12 R -12 -23 R -12 -59 R
0 -35 R 12 -58 R 12 -24 R 12 -11 R 23 -12 R D 1992 8326 M 24 12 R 11 11 R
12 24 R 12 58 R 0 35 R -12 59 R -12 23 R -11 12 R -24 11 R D 2220 10231 M
298 0 R D 1466 10289 M 24 12 R 35 35 R 0 -245 R D 1513 10324 M 0 -233 R D
1466 10091 M 106 0 R D 1735 10336 M -35 -12 R -23 -35 R -12 -58 R 0 -35 R
12 -59 R 23 -35 R 35 -11 R 24 0 R 35 11 R 23 35 R 12 59 R 0 35 R -12 58 R
-23 35 R -35 12 R -24 0 R -23 -12 R -12 -11 R -12 -24 R -11 -58 R 0 -35 R
11 -59 R 12 -23 R 12 -12 R 23 -11 R D 1759 10091 M 23 11 R 12 12 R 11 23 R
12 59 R 0 35 R -12 58 R -11 24 R -12 11 R -23 12 R D 1969 10336 M -35 -12 R
-24 -35 R -11 -58 R 0 -35 R 11 -59 R 24 -35 R 35 -11 R 23 0 R 35 11 R
24 35 R 11 59 R 0 35 R -11 58 R -24 35 R -35 12 R -23 0 R -23 -12 R
-12 -11 R -12 -24 R -12 -58 R 0 -35 R 12 -59 R 12 -23 R 12 -12 R 23 -11 R D
1992 10091 M 24 11 R 11 12 R 12 23 R 12 59 R 0 35 R -12 58 R -12 24 R
-11 11 R -24 12 R D 2220 11996 M 298 0 R D 1466 11948 M 24 12 R 35 35 R
0 -245 R D 1513 11983 M 0 -233 R D 1466 11750 M 106 0 R D 1677 11948 M
11 -11 R -11 -12 R -12 12 R 0 11 R 12 24 R 11 11 R 36 12 R 46 0 R 35 -12 R
12 -11 R 12 -24 R 0 -23 R -12 -23 R -35 -24 R -58 -23 R -24 -12 R -23 -23 R
-12 -35 R 0 -35 R D 1770 11995 M 24 -12 R 11 -11 R 12 -24 R 0 -23 R
-12 -23 R -35 -24 R -46 -23 R D 1665 11773 M 12 12 R 23 0 R 59 -24 R 35 0 R
23 12 R 12 12 R D 1700 11785 M 59 -35 R 46 0 R 12 11 R 12 24 R 0 23 R D
1969 11995 M -35 -12 R -24 -35 R -11 -58 R 0 -35 R 11 -59 R 24 -35 R
35 -11 R 23 0 R 35 11 R 24 35 R 11 59 R 0 35 R -11 58 R -24 35 R -35 12 R
-23 0 R -23 -12 R -12 -11 R -12 -24 R -12 -58 R 0 -35 R 12 -59 R 12 -23 R
12 -12 R 23 -11 R D 1992 11750 M 24 11 R 11 12 R 12 23 R 12 59 R 0 35 R
-12 58 R -12 24 R -11 11 R -24 12 R D 2220 1849 M 149 0 R D 2220 2290 M
149 0 R D 2220 2732 M 149 0 R D 2220 3614 M 149 0 R D 2220 4055 M 149 0 R D
2220 4496 M 149 0 R D 2220 5379 M 149 0 R D 2220 5820 M 149 0 R D
2220 6261 M 149 0 R D 2220 7143 M 149 0 R D 2220 7584 M 149 0 R D
2220 8026 M 149 0 R D 2220 8908 M 149 0 R D 2220 9349 M 149 0 R D
2220 9790 M 149 0 R D 2220 10673 M 149 0 R D 2220 11114 M 149 0 R D
2220 11555 M 149 0 R D 17114 1408 M 0 10588 R D 17114 1408 M -298 0 R D
17114 3173 M -298 0 R D 17114 4937 M -298 0 R D 17114 6702 M -298 0 R D
17114 8467 M -298 0 R D 17114 10231 M -298 0 R D 17114 11996 M -298 0 R D
17114 1849 M -149 0 R D 17114 2290 M -149 0 R D 17114 2732 M -149 0 R D
17114 3614 M -149 0 R D 17114 4055 M -149 0 R D 17114 4496 M -149 0 R D
17114 5379 M -149 0 R D 17114 5820 M -149 0 R D 17114 6261 M -149 0 R D
17114 7143 M -149 0 R D 17114 7584 M -149 0 R D 17114 8026 M -149 0 R D
17114 8908 M -149 0 R D 17114 9349 M -149 0 R D 17114 9790 M -149 0 R D
17114 10673 M -149 0 R D 17114 11114 M -149 0 R D 17114 11555 M -149 0 R D
4547 2114 M 172 0 R 0 -618 R 172 0 R 172 0 R 172 0 R 173 0 R 0 353 R 172 0 R
172 0 R 0 -353 R 172 0 R 173 0 R 0 89 R 172 0 R 172 0 R 172 0 R 172 0 R
173 0 R 172 0 R 0 352 R 172 0 R 172 0 R 173 0 R 172 0 R 0 177 R 172 0 R
172 0 R 0 794 R 173 0 R 172 0 R 0 -176 R 172 0 R 172 0 R 0 1500 R 172 0 R
173 0 R 0 3617 R 172 0 R 172 0 R 0 3088 R 172 0 R 173 0 R 0 -3353 R 172 0 R
172 0 R 0 -2647 R 172 0 R 172 0 R 0 -353 R 173 0 R 172 0 R 0 -970 R 172 0 R
172 0 R 0 -794 R 173 0 R 172 0 R 0 -353 R 172 0 R 172 0 R 0 -177 R 172 0 R
173 0 R 0 -353 R 172 0 R 172 0 R 0 -176 R 172 0 R 173 0 R 0 -265 R 172 0 R
172 0 R 0 89 R 172 0 R 172 0 R 0 -89 R 173 0 R 172 0 R 0 177 R 172 0 R
172 0 R 0 -177 R 173 0 R 172 0 R 0 265 R 172 0 R 172 0 R 0 1588 R 172 0 R D
4719 1464 M -58 -57 R D 4411 1407 M 308 308 R D 4719 1965 M -345 -344 R D
4374 1871 M 243 243 R D 5000 1496 M -88 -88 R D 4719 1465 M 31 31 R D
5250 1496 M -87 -88 R D 5663 1408 M 89 89 R D 5752 1747 M -339 -339 R D
5408 1653 M 194 195 R D 6001 1496 M -88 -89 R D 6413 1407 M 28 28 R D
6340 1584 M -177 -177 R D 6664 1407 M 121 121 R D 6590 1584 M -149 -149 R D
6914 1407 M 177 177 R D 6841 1584 M -56 -56 R D 7415 1408 M 59 59 R D
7474 1717 M -309 -309 R D 7130 1623 M 313 313 R D 7193 1936 M -63 -63 R D
7666 1408 M 152 153 R D 7818 1811 M -344 -344 R D 7474 1717 M 220 220 R D
8163 1655 M -248 -248 R D 7819 1561 M 344 344 R D 8121 2114 M -302 -302 R D
7819 2062 M 52 52 R D 8508 1499 M -91 -91 R D 8166 1408 M 342 341 R D
8508 2000 M -344 -345 R D 8164 1906 M 344 344 R D 8508 2500 M -344 -344 R D
8164 2406 M 344 345 R D 8414 2907 M -250 -250 R D 8163 2906 M 1 1 R D
8852 1592 M -185 -184 R D 8508 1499 M 344 344 R D 8852 2093 M -344 -344 R D
8508 2000 M 344 343 R D 8852 2594 M -344 -344 R D 8508 2500 M 231 232 R D
9197 1438 M -30 -31 R D 8917 1407 M 280 281 R D 9197 1938 M -345 -345 R D
8852 1843 M 345 345 R D 9197 2439 M -345 -345 R D 8852 2344 M 345 345 R D
9197 2939 M -345 -345 R D 8852 2845 M 345 345 R D 9197 3440 M -345 -345 R D
8852 3345 M 345 345 R D 9197 3941 M -345 -345 R D 8852 3846 M 345 345 R D
8987 4231 M -135 -135 R D 9417 1407 M 124 124 R D 9541 1781 M -344 -343 R D
9197 1688 M 344 344 R D 9541 2282 M -344 -344 R D 9197 2188 M 344 344 R D
9541 2782 M -344 -343 R D 9197 2689 M 344 344 R D 9541 3283 M -344 -344 R D
9197 3190 M 344 343 R D 9541 3784 M -344 -344 R D 9197 3690 M 344 344 R D
9541 4284 M -344 -343 R D 9197 4191 M 344 344 R D 9541 4785 M -344 -344 R D
9197 4692 M 344 343 R D 9541 5286 M -344 -344 R D 9197 5192 M 344 344 R D
9541 5786 M -344 -343 R D 9197 5693 M 344 344 R D 9541 6287 M -344 -344 R D
9197 6194 M 344 343 R D 9541 6788 M -344 -344 R D 9197 6694 M 344 344 R D
9541 7288 M -344 -344 R D 9197 7195 M 344 343 R D 9541 7789 M -344 -344 R D
9197 7695 M 153 153 R D 9886 1626 M -218 -219 R D 9541 1531 M 345 345 R D
9886 2126 M -345 -345 R D 9541 2032 M 345 345 R D 9886 2627 M -345 -345 R D
9541 2532 M 345 345 R D 9886 3128 M -345 -346 R D 9541 3033 M 345 345 R D
9886 3628 M -345 -345 R D 9541 3533 M 345 345 R D 9886 4129 M -345 -345 R D
9541 4034 M 345 345 R D 9886 4629 M -345 -345 R D 9541 4535 M 345 345 R D
9886 5130 M -345 -345 R D 9541 5035 M 345 345 R D 9886 5631 M -345 -345 R D
9541 5536 M 345 345 R D 9886 6131 M -345 -345 R D 9541 6037 M 345 345 R D
9886 6632 M -345 -345 R D 9541 6537 M 345 345 R D 9886 7133 M -345 -345 R D
9541 7038 M 345 345 R D 9886 7633 M -345 -345 R D 9541 7538 M 345 346 R D
9886 8134 M -345 -345 R D 9541 8039 M 345 345 R D 9886 8634 M -345 -345 R D
9541 8540 M 345 345 R D 9886 9135 M -345 -345 R D 9541 9040 M 345 345 R D
9886 9636 M -345 -345 R D 9541 9541 M 345 345 R D 9886 10136 M -345 -345 R D
9541 10042 M 345 345 R D 9886 10637 M -345 -345 R D 9541 10542 M 345 345 R D
9685 10936 M -144 -143 R D 10168 1407 M 62 62 R D 10230 1719 M -312 -312 R D
9886 1626 M 344 343 R D 10230 2220 M -344 -344 R D 9886 2126 M 344 344 R D
10230 2720 M -344 -343 R D 9886 2627 M 344 344 R D 10230 3221 M -344 -344 R
D 9886 3128 M 344 343 R D 10230 3722 M -344 -344 R D 9886 3628 M 344 344 R D
10230 4222 M -344 -344 R D 9886 4129 M 344 343 R D 10230 4723 M -344 -344 R
D 9886 4629 M 344 344 R D 10230 5223 M -344 -343 R D 9886 5130 M 344 344 R D
10230 5724 M -344 -344 R D 9886 5631 M 344 343 R D 10230 6225 M -344 -344 R
D 9886 6131 M 344 344 R D 10230 6725 M -344 -343 R D 9886 6632 M 344 344 R D
10230 7226 M -344 -344 R D 9886 7133 M 344 343 R D 10086 7583 M -200 -200 R
D 10419 1408 M 155 155 R D 10574 1813 M -344 -344 R D 10230 1719 M 344 344 R
D 10574 2314 M -344 -345 R D 10230 2220 M 344 344 R D 10574 2814 M
-344 -344 R D 10230 2720 M 344 345 R D 10574 3315 M -344 -344 R D
10230 3221 M 344 344 R D 10574 3816 M -344 -345 R D 10230 3722 M 344 344 R D
10574 4316 M -344 -344 R D 10230 4222 M 344 344 R D 10574 4817 M -344 -345 R
D 10230 4723 M 213 213 R D 10919 1657 M -249 -249 R D 10574 1563 M 345 345 R
D 10919 2158 M -345 -345 R D 10574 2063 M 345 345 R D 10919 2659 M
-345 -345 R D 10574 2564 M 345 345 R D 10919 3159 M -345 -345 R D
10574 3065 M 345 345 R D 10919 3660 M -345 -345 R D 10574 3565 M 345 345 R D
10919 4161 M -345 -345 R D 10574 4066 M 345 345 R D 10841 4583 M -267 -267 R
D 10574 4566 M 16 17 R D 11264 1501 M -94 -93 R D 10920 1408 M 344 344 R D
11264 2002 M -345 -345 R D 10919 1908 M 345 344 R D 11264 2502 M -345 -344 R
D 10919 2408 M 345 345 R D 11264 3003 M -345 -344 R D 10918 2908 M 346 345 R
D 11264 3504 M -346 -345 R D 10918 3409 M 205 204 R D 11608 1595 M
-188 -187 R D 11264 1501 M 344 345 R D 11608 2096 M -344 -344 R D
11264 2002 M 344 344 R D 11608 2596 M -344 -344 R D 11264 2502 M 316 317 R D
11330 2819 M -66 -66 R D 11921 1408 M 31 31 R D 11952 1689 M -281 -281 R D
11609 1596 M 343 344 R D 11952 2190 M -343 -344 R D 11609 2097 M 343 343 R D
11728 2466 M -119 -119 R D 12171 1407 M 126 127 R D 12297 1784 M -345 -345 R
D 11952 1689 M 345 345 R D 12297 2285 M -345 -345 R D 11952 2190 M 100 100 R
D 12641 1627 M -220 -220 R D 12297 1534 M 344 343 R D 12449 1936 M
-152 -152 R D 12922 1407 M 64 64 R D 12986 1722 M -315 -315 R D 12641 1627 M
134 134 R D 13260 1495 M -88 -88 R D 12986 1471 M 23 24 R D 13674 1409 M
-1 -1 R D 13423 1408 M 176 176 R D 13349 1584 M -19 -19 R D 13924 1408 M
87 88 R D 13761 1496 M -87 -87 R D 14174 1408 M 189 189 R D 14188 1672 M
-169 -169 R D 14674 1407 M 34 34 R D 14512 1496 M -88 -89 R D 14924 1407 M
128 128 R D 15027 1760 M -318 -318 R D 14709 1692 M 67 68 R D 15397 1629 M
-222 -222 R D 15052 1535 M 345 344 R D 15397 2130 M -345 -345 R D
15052 2036 M 345 344 R D 15397 2630 M -345 -344 R D 15052 2536 M 344 344 R D
15396 3130 M -344 -343 R D 15051 3036 M 312 312 R D 15113 3348 M -62 -61 R D
4374 1408 M 56 0 R 55 0 R 56 0 R 55 0 R 55 0 R 56 0 R 55 0 R 55 0 R 56 0 R
55 0 R 56 0 R 55 0 R 55 0 R 56 0 R 55 0 R 56 0 R 55 0 R 55 0 R 56 0 R 55 0 R
56 0 R 55 0 R 55 0 R 56 0 R 55 0 R 55 0 R 56 0 R 55 0 R 56 0 R 55 0 R 55 0 R
56 0 R 55 0 R 56 0 R 55 0 R 55 0 R 56 0 R 55 0 R 56 0 R 55 0 R 55 0 R 56 0 R
55 0 R 55 0 R 56 0 R 55 1 R 56 0 R 55 0 R 55 0 R 56 1 R 55 1 R 56 1 R 55 1 R
55 2 R 56 3 R 55 4 R 56 5 R 55 6 R 55 8 R 56 11 R 55 13 R 55 18 R 56 22 R
55 27 R 56 34 R 55 42 R 55 51 R 56 62 R 55 75 R 56 88 R 55 105 R 55 122 R
56 142 R 55 163 R 56 186 R 55 210 R 55 235 R 56 260 R 55 285 R 55 310 R
56 333 R 55 354 R 56 372 R 55 387 R 55 397 R 56 402 R 55 402 R 56 396 R
55 382 R 55 362 R 56 336 R 55 303 R 56 264 R 55 220 R 55 171 R 56 118 R
55 63 R 55 7 R 56 -50 R 55 -106 R 56 -159 R 55 -209 R 55 -254 R 56 -294 R
55 -329 R 56 -357 R 55 -378 R 55 -393 R 56 -401 R 55 -403 R 56 -398 R
55 -390 R 55 -376 R 56 -359 R 55 -338 R 55 -315 R 56 -291 R 55 -266 R
56 -241 R 55 -215 R 55 -192 R 56 -168 R 55 -147 R 56 -126 R 55 -109 R
55 -92 R 56 -78 R 55 -64 R 56 -54 R 55 -44 R 55 -36 R 56 -28 R 55 -24 R
55 -18 R 56 -14 R 55 -12 R 56 -8 R 55 -7 R 55 -5 R 56 -4 R 55 -3 R 56 -2 R
55 -2 R 55 -1 R 56 -1 R 55 0 R 55 -1 R 56 0 R 55 0 R 56 -1 R 55 0 R 55 0 R
56 0 R 55 0 R 56 0 R 55 0 R 55 0 R 56 0 R 55 0 R 56 0 R 55 0 R 55 0 R 56 0 R
55 0 R 55 0 R 56 0 R 55 0 R 56 0 R 55 0 R 55 0 R 56 0 R 55 0 R 56 0 R 55 0 R
55 0 R 56 0 R 55 0 R 56 0 R 55 0 R 55 0 R 56 0 R 55 0 R 55 0 R 56 0 R 55 0 R
56 0 R 55 0 R 55 0 R 56 0 R 55 0 R 56 0 R 55 0 R 55 0 R 56 0 R 55 0 R 56 0 R
55 0 R 55 0 R 56 0 R D 3061 11737 M -67 -278 R D 3118 11737 M -67 -278 R D
2994 11632 M 134 0 R D 2984 11574 M 134 0 R D 3204 11536 M -9 9 R 9 10 R
10 -10 R 0 -28 R -10 -20 R -9 -9 R D 3473 11670 M -58 -211 R D 3482 11670 M
-57 -211 R D 3473 11641 M -10 -57 R 0 -29 R 19 -19 R 19 0 R 19 9 R 20 19 R
19 29 R D 3578 11670 M -29 -106 R 0 -19 R 10 -9 R 29 0 R 19 19 R 9 19 R D
3588 11670 M -29 -106 R 0 -19 R 9 -9 R D 3674 11536 M -10 9 R 10 10 R
9 -10 R 0 -28 R -9 -20 R -10 -9 R D 4057 11670 M -96 0 R -29 -10 R -19 -28 R
-9 -29 R 0 -29 R 9 -19 R 10 -10 R 19 -9 R 19 0 R 29 9 R 19 29 R 10 29 R
0 29 R -10 19 R -9 9 R -20 10 R D 3961 11670 M -19 -10 R -19 -28 R -10 -29 R
0 -39 R 10 -19 R D 3961 11536 M 19 9 R 20 29 R 9 29 R 0 38 R -9 19 R 57 0 R
D 4115 11651 M 172 0 R D 4115 11593 M 172 0 R D 4929 11737 M -96 0 R
-9 -86 R 9 9 R 29 10 R 29 0 R 28 -10 R 19 -19 R 10 -29 R 0 -19 R -10 -29 R
-19 -19 R -28 -9 R -29 0 R -29 9 R -9 10 R -10 19 R D 5101 11737 M
-95 -134 R 143 0 R D 5101 11737 M 0 -201 R D 5255 11737 M -29 -10 R
-19 -28 R -10 -48 R 0 -29 R 10 -48 R 19 -29 R 29 -9 R 19 0 R 29 9 R 19 29 R
9 48 R 0 29 R -9 48 R -19 28 R -29 10 R -19 0 R D 5418 11545 M -10 -9 R
-10 9 R 10 10 R 10 -10 R 0 -28 R -10 -20 R -10 -9 R D 5973 11699 M 19 9 R
29 29 R 0 -201 R D 6155 11555 M -9 -10 R 9 -9 R 10 9 R -10 10 R D
6289 11737 M -28 -10 R -19 -28 R -10 -48 R 0 -29 R 10 -48 R 19 -29 R 28 -9 R
20 0 R 28 9 R 19 29 R 10 48 R 0 29 R -10 48 R -19 28 R -28 10 R -20 0 R D
6452 11699 M 19 9 R 29 29 R 0 -201 R D 6625 11689 M 0 10 R 9 19 R 10 9 R
19 10 R 38 0 R 20 -10 R 9 -9 R 10 -19 R 0 -20 R -10 -19 R -19 -28 R
-96 -96 R 134 0 R D 6826 11737 M 105 0 R -57 -77 R 29 0 R 19 -9 R 9 -10 R
10 -29 R 0 -19 R -10 -29 R -19 -19 R -29 -9 R -28 0 R -29 9 R -10 10 R
-9 19 R D 7027 11545 M -9 -9 R -10 9 R 10 10 R 9 -10 R 0 -28 R -9 -20 R
-10 -9 R D 7612 11737 M -29 -10 R -19 -28 R -10 -48 R 0 -29 R 10 -48 R
19 -29 R 29 -9 R 19 0 R 29 9 R 19 29 R 9 48 R 0 29 R -9 48 R -19 28 R
-29 10 R -19 0 R D 7765 11555 M -10 -10 R 10 -9 R 9 9 R -9 10 R D
7899 11737 M -29 -10 R -19 -28 R -9 -48 R 0 -29 R 9 -48 R 19 -29 R 29 -9 R
19 0 R 29 9 R 19 29 R 10 48 R 0 29 R -10 48 R -19 28 R -29 10 R -19 0 R D
8158 11708 M -10 19 R -29 10 R -19 0 R -29 -10 R -19 -28 R -9 -48 R 0 -48 R
9 -39 R 19 -19 R 29 -9 R 10 0 R 29 9 R 19 19 R 9 29 R 0 10 R -9 29 R
-19 19 R -29 9 R -10 0 R -29 -9 R -19 -19 R -9 -29 R D 8349 11670 M -9 -29 R
-19 -19 R -29 -10 R -10 0 R -28 10 R -20 19 R -9 29 R 0 9 R 9 29 R 20 19 R
28 10 R 10 0 R 29 -10 R 19 -19 R 9 -38 R 0 -48 R -9 -48 R -19 -29 R -29 -9 R
-19 0 R -29 9 R -10 19 R D 8531 11737 M -95 0 R -10 -86 R 10 9 R 28 10 R
29 0 R 29 -10 R 19 -19 R 10 -29 R 0 -19 R -10 -29 R -19 -19 R -29 -9 R
-29 0 R -28 9 R -10 10 R -10 19 R D
%%PageTrailer
end
%%PageResources: font Helvetica
%%Trailer
%%Pages: 1
%%DocumentNeededResources: font Helvetica
%%EOF
