%!PS-Adobe-3.0 EPSF-3.0
%%BoundingBox: 0 0 504 360
%%Title: Graphics produced by IDL
%%For: Aaron@Aaron, /home/Aaron
%%Creator: IDL Version 7.1 (linux x86 m32)
%%CreationDate: Tue Feb 22 13:11:30 2011
%%DocumentData: Clean7bit
%%LanguageLevel: 1
%%PageOrder: Ascend
%%Pages: (atend)
%%DocumentNeededResources: (atend)
%%EndComments
%%BeginProlog
%+ prolog.ps -- Prolog for IDL generated PostScript files
%+ Copyright (c) 1988-2009 ITT Visual Information Solutions. All Rights Reserved.
%v 5
/$IDL_DICT 40 dict def $IDL_DICT begin /bdef { bind def } bind def /C
{currentpoint newpath moveto} bdef /CP {currentpoint} bdef /D {currentpoint
stroke moveto} bdef /F {closepath fill} bdef /K { setgray } bdef /M {moveto}
bdef /N {rmoveto} bdef /P {lineto} bdef /R {rlineto} bdef /S {gsave show
grestore} bdef /X {currentpoint pop} bdef /Z {gsave currentpoint lineto 20
setlinewidth 1 setlinecap stroke grestore} bdef /L0 {[] 0 setdash} bdef /L1
{[40 100] 0 setdash} bdef /L2 {[200 200] 0 setdash} bdef /L3 {[200 100 50
100] 0 setdash} bdef /L4 {[300 100 50 100 50 100 50 100] 0 setdash} bdef /L5
{[400 200] 0 setdash} bdef /STDFONT { findfont exch scalefont setfont } bdef
/ISOFONT { findfont dup length dict begin { 1 index /FID ne {def} {pop pop}
ifelse } forall /Encoding ISOLatin1Encoding def currentdict end /idltmpfont
exch definefont exch scalefont setfont } bdef /ISOBULLET { gsave /Helvetica
findfont exch scalefont setfont (\267) show currentpoint grestore moveto}
bdef /MITERLIMIT { 2.5 setmiterlimit } bdef end
%%EndProlog
%%Page: 0 1
%%PageResources: (atend)
%%PageOrientation: Portrait
%%PageBoundingBox: 0 0 504 360
%%BeginPageSetup
$IDL_DICT begin 0.0283465 dup scale MITERLIMIT
%%IncludeResource: font Helvetica
423.333 /Helvetica STDFONT
%%EndPageSetup
10 setlinewidth L0 0.000 K 2220 1408 M 14894 0 R D 2220 1408 M 0 212 R D
2021 1125 M -35 -11 R -23 -35 R -12 -59 R 0 -35 R 12 -58 R 23 -35 R 35 -12 R
24 0 R 35 12 R 23 35 R 12 58 R 0 35 R -12 59 R -23 35 R -35 11 R -24 0 R
-23 -11 R -12 -12 R -11 -23 R -12 -59 R 0 -35 R 12 -58 R 11 -24 R 12 -11 R
23 -12 R D 2045 880 M 23 12 R 12 11 R 12 24 R 11 58 R 0 35 R -11 59 R
-12 23 R -12 12 R -23 11 R D 2208 903 M -11 -11 R 11 -12 R 12 12 R -12 11 R
D 2442 1090 M -12 -11 R 12 -12 R 12 12 R 0 11 R -12 24 R -23 11 R -35 0 R
-35 -11 R -24 -24 R -11 -23 R -12 -47 R 0 -70 R 12 -35 R 23 -23 R 35 -12 R
23 0 R 35 12 R 24 23 R 11 35 R 0 12 R -11 35 R -24 23 R -35 12 R -11 0 R
-35 -12 R -24 -23 R -11 -35 R D 2384 1125 M -24 -11 R -23 -24 R -12 -23 R
-11 -47 R 0 -70 R 11 -35 R 24 -23 R 23 -12 R D 2395 880 M 24 12 R 23 23 R
12 35 R 0 12 R -12 35 R -23 23 R -24 12 R D 5944 1408 M 0 212 R D
5745 1125 M -35 -11 R -23 -35 R -12 -59 R 0 -35 R 12 -58 R 23 -35 R 35 -12 R
23 0 R 35 12 R 24 35 R 11 58 R 0 35 R -11 59 R -24 35 R -35 11 R -23 0 R
-23 -11 R -12 -12 R -12 -23 R -11 -59 R 0 -35 R 11 -58 R 12 -24 R 12 -11 R
23 -12 R D 5768 880 M 24 12 R 11 11 R 12 24 R 12 58 R 0 35 R -12 59 R
-12 23 R -11 12 R -24 11 R D 5932 903 M -12 -11 R 12 -12 R 12 12 R -12 11 R
D 6084 1125 M -35 -11 R -12 -24 R 0 -35 R 12 -23 R 35 -12 R 47 0 R 35 12 R
11 23 R 0 35 R -11 24 R -35 11 R -47 0 R -24 -11 R -11 -24 R 0 -35 R
11 -23 R 24 -12 R D 6131 1020 M 23 12 R 12 23 R 0 35 R -12 24 R -23 11 R D
6084 1020 M -35 -11 R -12 -12 R -12 -23 R 0 -47 R 12 -24 R 12 -11 R 35 -12 R
47 0 R 35 12 R 11 11 R 12 24 R 0 47 R -12 23 R -11 12 R -35 11 R D
6084 1020 M -24 -11 R -11 -12 R -12 -23 R 0 -47 R 12 -24 R 11 -11 R 24 -12 R
D 6131 880 M 23 12 R 12 11 R 11 24 R 0 47 R -11 23 R -12 12 R -23 11 R D
9667 1408 M 0 212 R D 9433 1079 M 24 11 R 35 35 R 0 -245 R D 9480 1114 M
0 -234 R D 9433 880 M 106 0 R D 9655 903 M -11 -11 R 11 -12 R 12 12 R
-12 11 R D 9819 1125 M -35 -11 R -23 -35 R -12 -59 R 0 -35 R 12 -58 R
23 -35 R 35 -12 R 23 0 R 35 12 R 24 35 R 11 58 R 0 35 R -11 59 R -24 35 R
-35 11 R -23 0 R -23 -11 R -12 -12 R -12 -23 R -11 -59 R 0 -35 R 11 -58 R
12 -24 R 12 -11 R 23 -12 R D 9842 880 M 24 12 R 11 11 R 12 24 R 12 58 R
0 35 R -12 59 R -12 23 R -11 12 R -24 11 R D 13391 1408 M 0 212 R D
13157 1079 M 23 11 R 35 35 R 0 -245 R D 13204 1114 M 0 -234 R D 13157 880 M
105 0 R D 13379 903 M -12 -11 R 12 -12 R 12 12 R -12 11 R D 13484 1079 M
12 -12 R -12 -12 R -12 12 R 0 12 R 12 23 R 12 12 R 35 11 R 47 0 R 35 -11 R
11 -12 R 12 -23 R 0 -24 R -12 -23 R -35 -23 R -58 -24 R -24 -11 R -23 -24 R
-12 -35 R 0 -35 R D 13578 1125 M 23 -11 R 12 -12 R 11 -23 R 0 -24 R
-11 -23 R -35 -23 R -47 -24 R D 13472 903 M 12 12 R 23 0 R 59 -23 R 35 0 R
23 11 R 12 12 R D 13507 915 M 59 -35 R 47 0 R 11 12 R 12 23 R 0 23 R D
17114 1408 M 0 212 R D 16880 1079 M 24 11 R 35 35 R 0 -245 R D 16927 1114 M
0 -234 R D 16880 880 M 106 0 R D 17102 903 M -11 -11 R 11 -12 R 12 12 R
-12 11 R D 17301 1102 M 0 -222 R D 17313 1125 M 0 -245 R D 17313 1125 M
-129 -175 R 187 0 R D 17266 880 M 82 0 R D 3151 1408 M 0 106 R D 4082 1408 M
0 106 R D 5013 1408 M 0 106 R D 6874 1408 M 0 106 R D 7805 1408 M 0 106 R D
8736 1408 M 0 106 R D 10598 1408 M 0 106 R D 11529 1408 M 0 106 R D
12460 1408 M 0 106 R D 14321 1408 M 0 106 R D 15252 1408 M 0 106 R D
16183 1408 M 0 106 R D 2220 11996 M 14894 0 R D 2220 11996 M 0 -212 R D
5944 11996 M 0 -212 R D 9667 11996 M 0 -212 R D 13391 11996 M 0 -212 R D
17114 11996 M 0 -212 R D 3151 11996 M 0 -106 R D 4082 11996 M 0 -106 R D
5013 11996 M 0 -106 R D 6874 11996 M 0 -106 R D 7805 11996 M 0 -106 R D
8736 11996 M 0 -106 R D 10598 11996 M 0 -106 R D 11529 11996 M 0 -106 R D
12460 11996 M 0 -106 R D 14321 11996 M 0 -106 R D 15252 11996 M 0 -106 R D
16183 11996 M 0 -106 R D 2220 1408 M 0 10588 R D 2220 1408 M 298 0 R D
1969 1653 M -35 -11 R -24 -35 R -11 -59 R 0 -35 R 11 -58 R 24 -35 R 35 -12 R
23 0 R 35 12 R 24 35 R 11 58 R 0 35 R -11 59 R -24 35 R -35 11 R -23 0 R
-23 -11 R -12 -12 R -12 -23 R -12 -59 R 0 -35 R 12 -58 R 12 -24 R 12 -11 R
23 -12 R D 1992 1408 M 24 12 R 11 11 R 12 24 R 12 58 R 0 35 R -12 59 R
-12 23 R -11 12 R -24 11 R D 2220 4055 M 298 0 R D 1688 4160 M -23 -117 R
23 23 R 36 12 R 35 0 R 35 -12 R 23 -23 R 12 -35 R 0 -24 R -12 -35 R
-23 -23 R -35 -12 R -35 0 R -36 12 R -11 12 R -12 23 R 0 12 R 12 11 R
11 -11 R -11 -12 R D 1759 4078 M 23 -12 R 23 -23 R 12 -35 R 0 -24 R
-12 -35 R -23 -23 R -23 -12 R D 1688 4160 M 117 0 R D 1688 4148 M 59 0 R
58 12 R D 1969 4160 M -35 -12 R -24 -35 R -11 -59 R 0 -35 R 11 -58 R
24 -35 R 35 -12 R 23 0 R 35 12 R 24 35 R 11 58 R 0 35 R -11 59 R -24 35 R
-35 12 R -23 0 R -23 -12 R -12 -12 R -12 -23 R -12 -59 R 0 -35 R 12 -58 R
12 -23 R 12 -12 R 23 -12 R D 1992 3914 M 24 12 R 11 12 R 12 23 R 12 58 R
0 35 R -12 59 R -12 23 R -11 12 R -24 12 R D 2220 6702 M 298 0 R D
1466 6760 M 24 12 R 35 35 R 0 -246 R D 1513 6795 M 0 -234 R D 1466 6561 M
106 0 R D 1735 6807 M -35 -12 R -23 -35 R -12 -59 R 0 -35 R 12 -58 R
23 -35 R 35 -12 R 24 0 R 35 12 R 23 35 R 12 58 R 0 35 R -12 59 R -23 35 R
-35 12 R -24 0 R -23 -12 R -12 -12 R -12 -23 R -11 -59 R 0 -35 R 11 -58 R
12 -23 R 12 -12 R 23 -12 R D 1759 6561 M 23 12 R 12 12 R 11 23 R 12 58 R
0 35 R -12 59 R -11 23 R -12 12 R -23 12 R D 1969 6807 M -35 -12 R -24 -35 R
-11 -59 R 0 -35 R 11 -58 R 24 -35 R 35 -12 R 23 0 R 35 12 R 24 35 R 11 58 R
0 35 R -11 59 R -24 35 R -35 12 R -23 0 R -23 -12 R -12 -12 R -12 -23 R
-12 -59 R 0 -35 R 12 -58 R 12 -23 R 12 -12 R 23 -12 R D 1992 6561 M 24 12 R
11 12 R 12 23 R 12 58 R 0 35 R -12 59 R -12 23 R -11 12 R -24 12 R D
2220 9349 M 298 0 R D 1466 9407 M 24 12 R 35 35 R 0 -246 R D 1513 9442 M
0 -234 R D 1466 9208 M 106 0 R D 1688 9454 M -23 -117 R 23 23 R 36 12 R
35 0 R 35 -12 R 23 -23 R 12 -35 R 0 -24 R -12 -35 R -23 -23 R -35 -12 R
-35 0 R -36 12 R -11 12 R -12 23 R 0 12 R 12 11 R 11 -11 R -11 -12 R D
1759 9372 M 23 -12 R 23 -23 R 12 -35 R 0 -24 R -12 -35 R -23 -23 R -23 -12 R
D 1688 9454 M 117 0 R D 1688 9442 M 59 0 R 58 12 R D 1969 9454 M -35 -12 R
-24 -35 R -11 -59 R 0 -35 R 11 -58 R 24 -35 R 35 -12 R 23 0 R 35 12 R
24 35 R 11 58 R 0 35 R -11 59 R -24 35 R -35 12 R -23 0 R -23 -12 R
-12 -12 R -12 -23 R -12 -59 R 0 -35 R 12 -58 R 12 -23 R 12 -12 R 23 -12 R D
1992 9208 M 24 12 R 11 12 R 12 23 R 12 58 R 0 35 R -12 59 R -12 23 R
-11 12 R -24 12 R D 2220 11996 M 298 0 R D 1443 11948 M 12 -11 R -12 -12 R
-12 12 R 0 11 R 12 24 R 12 11 R 35 12 R 47 0 R 35 -12 R 11 -11 R 12 -24 R
0 -23 R -12 -23 R -35 -24 R -58 -23 R -24 -12 R -23 -23 R -12 -35 R 0 -35 R
D 1537 11995 M 23 -12 R 12 -11 R 11 -24 R 0 -23 R -11 -23 R -35 -24 R
-47 -23 R D 1431 11773 M 12 12 R 23 0 R 59 -24 R 35 0 R 23 12 R 12 12 R D
1466 11785 M 59 -35 R 47 0 R 11 11 R 12 24 R 0 23 R D 1735 11995 M -35 -12 R
-23 -35 R -12 -58 R 0 -35 R 12 -59 R 23 -35 R 35 -11 R 24 0 R 35 11 R
23 35 R 12 59 R 0 35 R -12 58 R -23 35 R -35 12 R -24 0 R -23 -12 R
-12 -11 R -12 -24 R -11 -58 R 0 -35 R 11 -59 R 12 -23 R 12 -12 R 23 -11 R D
1759 11750 M 23 11 R 12 12 R 11 23 R 12 59 R 0 35 R -12 58 R -11 24 R
-12 11 R -23 12 R D 1969 11995 M -35 -12 R -24 -35 R -11 -58 R 0 -35 R
11 -59 R 24 -35 R 35 -11 R 23 0 R 35 11 R 24 35 R 11 59 R 0 35 R -11 58 R
-24 35 R -35 12 R -23 0 R -23 -12 R -12 -11 R -12 -24 R -12 -58 R 0 -35 R
12 -59 R 12 -23 R 12 -12 R 23 -11 R D 1992 11750 M 24 11 R 11 12 R 12 23 R
12 59 R 0 35 R -12 58 R -12 24 R -11 11 R -24 12 R D 2220 1937 M 149 0 R D
2220 2467 M 149 0 R D 2220 2996 M 149 0 R D 2220 3526 M 149 0 R D
2220 4584 M 149 0 R D 2220 5114 M 149 0 R D 2220 5643 M 149 0 R D
2220 6173 M 149 0 R D 2220 7231 M 149 0 R D 2220 7761 M 149 0 R D
2220 8290 M 149 0 R D 2220 8820 M 149 0 R D 2220 9878 M 149 0 R D
2220 10408 M 149 0 R D 2220 10937 M 149 0 R D 2220 11467 M 149 0 R D
17114 1408 M 0 10588 R D 17114 1408 M -298 0 R D 17114 4055 M -298 0 R D
17114 6702 M -298 0 R D 17114 9349 M -298 0 R D 17114 11996 M -298 0 R D
17114 1937 M -149 0 R D 17114 2467 M -149 0 R D 17114 2996 M -149 0 R D
17114 3526 M -149 0 R D 17114 4584 M -149 0 R D 17114 5114 M -149 0 R D
17114 5643 M -149 0 R D 17114 6173 M -149 0 R D 17114 7231 M -149 0 R D
17114 7761 M -149 0 R D 17114 8290 M -149 0 R D 17114 8820 M -149 0 R D
17114 9878 M -149 0 R D 17114 10408 M -149 0 R D 17114 10937 M -149 0 R D
17114 11467 M -149 0 R D 2890 2626 M 137 0 R 0 -1165 R 136 0 R 137 0 R
137 0 R 136 0 R 137 0 R 136 0 R 137 0 R 137 0 R 0 106 R 136 0 R 137 0 R
0 -106 R 136 0 R 137 0 R 0 53 R 137 0 R 136 0 R 0 212 R 137 0 R 137 0 R
0 -106 R 136 0 R 137 0 R 0 106 R 136 0 R 137 0 R 0 159 R 137 0 R 136 0 R
0 105 R 137 0 R 136 0 R 0 159 R 137 0 R 137 0 R 0 -159 R 136 0 R 137 0 R
0 53 R 137 0 R 136 0 R 0 847 R 137 0 R 136 0 R 0 -53 R 137 0 R 137 0 R
0 1589 R 136 0 R 137 0 R 0 370 R 136 0 R 137 0 R 0 1218 R 137 0 R 136 0 R
0 4500 R 137 0 R 137 0 R 0 -4288 R 136 0 R 137 0 R 0 -1059 R 136 0 R 137 0 R
0 -1641 R 137 0 R 136 0 R 0 -794 R 137 0 R 136 0 R 0 -477 R 137 0 R 137 0 R
0 -212 R 136 0 R 137 0 R 0 371 R 137 0 R 136 0 R 0 -477 R 137 0 R 136 0 R
0 106 R 137 0 R 137 0 R 0 -370 R 136 0 R 137 0 R 0 106 R 136 0 R 137 0 R
0 -53 R 137 0 R 136 0 R 0 -212 R 137 0 R 137 0 R 0 212 R 136 0 R 137 0 R
0 -159 R 136 0 R 137 0 R 0 -53 R 137 0 R 136 0 R 0 53 R 137 0 R 136 0 R
0 53 R 137 0 R 137 0 R 0 -106 R 136 0 R 137 0 R 0 53 R 137 0 R 136 0 R
0 2329 R 137 0 R D 2909 1407 M 118 118 R D 3027 1776 M -274 -274 R D
2753 1752 M 274 274 R D 3027 2276 M -274 -273 R D 2753 2253 M 274 273 R D
2875 2625 M -122 -122 R D 3159 1407 M 53 53 R D 3463 1461 M -53 -54 R D
3660 1407 M 54 54 R D 3963 1460 M -53 -53 R D 4161 1407 M 159 159 R D
4665 1411 M -4 -4 R D 4411 1407 M 53 53 R D 4939 1435 M -27 -28 R D
4666 1412 M 101 101 R D 5213 1459 M -51 -52 R D 4939 1435 M 274 274 R D
4979 1725 M -40 -40 R D 5412 1407 M 74 74 R D 5374 1619 M -161 -160 R D
5663 1407 M 96 97 R D 5730 1725 M -244 -244 R D 5913 1407 M 119 119 R D
6032 1776 M -273 -272 R D 5759 1754 M 130 130 R D 6305 1549 M -142 -142 R D
6032 1527 M 273 272 R D 6244 1989 M -212 -212 R D 6414 1408 M 165 165 R D
6579 1823 M -274 -274 R D 6305 1800 M 274 273 R D 6404 2148 M -99 -98 R D
6664 1408 M 188 187 R D 6852 1846 M -273 -273 R D 6579 1823 M 166 166 R D
7126 1619 M -211 -211 R D 6852 1595 M 274 274 R D 7048 2042 M -196 -196 R D
7164 1407 M 234 234 R D 7398 1892 M -272 -273 R D 7126 1869 M 272 273 R D
7398 2392 M -272 -273 R D 7126 2370 M 272 272 R D 7395 2889 M -269 -269 R D
7126 2870 M 19 19 R D 7672 1414 M -6 -6 R D 7415 1408 M 257 257 R D
7672 1915 M -274 -274 R D 7398 1892 M 274 273 R D 7672 2415 M -274 -273 R D
7398 2392 M 274 274 R D 7592 2836 M -194 -194 R D 7916 1408 M 29 29 R D
7945 1687 M -273 -273 R D 7672 1665 M 273 272 R D 7945 2188 M -273 -273 R D
7672 2165 M 273 273 R D 7945 2688 M -273 -273 R D 7672 2666 M 273 273 R D
7945 3189 M -273 -273 R D 7672 3166 M 273 273 R D 7945 3690 M -273 -273 R D
7672 3667 M 273 273 R D 7945 4190 M -273 -273 R D 7672 4168 M 258 258 R D
7680 4426 M -8 -8 R D 8166 1408 M 52 51 R D 8218 1710 M -273 -273 R D
7945 1687 M 273 273 R D 8218 2210 M -273 -273 R D 7945 2188 M 273 273 R D
8218 2711 M -273 -273 R D 7945 2688 M 273 273 R D 8218 3212 M -273 -273 R D
7945 3189 M 273 273 R D 8218 3712 M -273 -273 R D 7945 3690 M 273 273 R D
8218 4213 M -273 -273 R D 7945 4190 M 273 273 R D 8218 4714 M -273 -273 R D
7945 4691 M 104 104 R D 8491 1482 M -74 -74 R D 8218 1459 M 273 273 R D
8491 1983 M -273 -273 R D 8218 1960 M 273 273 R D 8491 2483 M -273 -273 R D
8218 2461 M 273 273 R D 8491 2984 M -273 -273 R D 8218 2961 M 273 273 R D
8491 3485 M -273 -273 R D 8218 3462 M 273 273 R D 8491 3985 M -273 -273 R D
8218 3963 M 273 273 R D 8491 4486 M -273 -273 R D 8218 4463 M 273 273 R D
8491 4987 M -273 -273 R D 8218 4964 M 273 273 R D 8491 5487 M -273 -273 R D
8218 5465 M 273 272 R D 8491 5988 M -273 -273 R D 8218 5965 M 48 48 R D
8765 1505 M -98 -97 R D 8491 1482 M 274 274 R D 8765 2006 M -274 -274 R D
8491 1983 M 274 273 R D 8765 2507 M -274 -274 R D 8491 2483 M 274 274 R D
8765 3007 M -274 -273 R D 8491 2984 M 274 274 R D 8765 3508 M -274 -274 R D
8491 3485 M 274 273 R D 8765 4009 M -274 -274 R D 8491 3985 M 274 274 R D
8765 4509 M -274 -273 R D 8491 4486 M 274 274 R D 8765 5010 M -274 -274 R D
8491 4987 M 274 273 R D 8765 5510 M -274 -273 R D 8491 5487 M 274 274 R D
8765 6011 M -274 -274 R D 8491 5988 M 274 273 R D 8765 6512 M -274 -274 R D
8491 6488 M 274 274 R D 8765 7012 M -274 -273 R D 8491 6989 M 274 274 R D
8765 7513 M -274 -274 R D 8491 7490 M 274 273 R D 8765 8014 M -274 -274 R D
8491 7990 M 274 274 R D 8765 8514 M -274 -273 R D 8491 8491 M 274 274 R D
8765 9015 M -274 -274 R D 8491 8992 M 274 273 R D 8765 9516 M -274 -274 R D
8491 9492 M 274 274 R D 8765 10016 M -274 -273 R D 8491 9993 M 274 273 R D
8761 10513 M -270 -270 R D 8491 10493 M 20 20 R D 9038 1528 M -121 -121 R D
8765 1505 M 273 273 R D 9038 2029 M -273 -273 R D 8765 2006 M 273 273 R D
9038 2529 M -273 -273 R D 8765 2507 M 273 273 R D 9038 3030 M -273 -273 R D
8765 3007 M 273 273 R D 9038 3531 M -273 -273 R D 8765 3508 M 273 273 R D
9038 4031 M -273 -273 R D 8765 4009 M 273 273 R D 9038 4532 M -273 -273 R D
8765 4509 M 273 273 R D 9038 5032 M -273 -272 R D 8765 5010 M 273 273 R D
9038 5533 M -273 -273 R D 8765 5510 M 273 273 R D 9038 6034 M -273 -273 R D
8765 6011 M 214 214 R D 9310 1551 M -143 -144 R D 9038 1528 M 272 273 R D
9310 2051 M -272 -273 R D 9038 2029 M 272 273 R D 9310 2552 M -272 -273 R D
9038 2529 M 272 273 R D 9310 3053 M -272 -273 R D 9038 3030 M 272 273 R D
9310 3553 M -272 -273 R D 9038 3531 M 272 273 R D 9310 4054 M -272 -273 R D
9038 4031 M 272 273 R D 9310 4554 M -272 -272 R D 9038 4532 M 272 273 R D
9310 5055 M -272 -273 R D 9038 5032 M 133 134 R D 9584 1574 M -166 -166 R D
9311 1551 M 273 273 R D 9584 2075 M -273 -273 R D 9311 2052 M 273 273 R D
9584 2575 M -273 -273 R D 9311 2553 M 273 273 R D 9584 3076 M -273 -273 R D
9311 3053 M 273 273 R D 9533 3525 M -221 -221 R D 9668 1408 M 189 189 R D
9857 1847 M -273 -273 R D 9584 1824 M 273 273 R D 9857 2348 M -273 -273 R D
9584 2325 M 273 273 R D 9740 2732 M -156 -157 R D 9919 1408 M 212 212 R D
10131 1870 M -274 -273 R D 9857 1847 M 274 274 R D 10014 2254 M -157 -157 R
D 10168 1407 M 236 236 R D 10404 1893 M -273 -273 R D 10131 1870 M 172 172 R
D 10677 1415 M -8 -8 R D 10419 1407 M 258 258 R D 10677 1916 M -273 -273 R D
10404 1894 M 273 272 R D 10674 2413 M -270 -269 R D 10404 2394 M 19 19 R D
10950 1438 M -31 -31 R D 10677 1415 M 273 273 R D 10947 1936 M -270 -271 R D
10677 1916 M 20 20 R D 11224 1462 M -55 -55 R D 10950 1438 M 274 274 R D
11224 1962 M -274 -274 R D 10950 1938 M 103 104 R D 11497 1484 M -77 -77 R D
11225 1462 M 210 210 R D 11770 1507 M -100 -100 R D 11498 1485 M 272 272 R D
11541 1778 M -43 -43 R D 11920 1407 M 123 122 R D 11988 1725 M -218 -218 R D
12171 1407 M 106 106 R D 12590 1576 M -169 -169 R D 12317 1554 M 172 171 R D
12831 1567 M -160 -160 R D 12922 1407 M 106 106 R D 13331 1566 M -159 -159 R
D 13673 1407 M 10 11 R D 13634 1619 M -212 -212 R D 13923 1407 M 33 33 R D
13779 1513 M -96 -95 R D 14173 1407 M 55 55 R D 14082 1566 M -126 -126 R D
14424 1407 M 78 79 R D 14502 1736 M -273 -273 R D 14229 1713 M 273 273 R D
14502 2237 M -273 -273 R D 14229 2214 M 273 273 R D 14502 2737 M -273 -273 R
D 14229 2715 M 273 273 R D 14502 3238 M -273 -273 R D 14229 3215 M 273 273 R
D 14502 3738 M -273 -272 R D 14229 3716 M 179 179 R D 2753 1408 M 59 0 R
60 0 R 59 0 R 59 0 R 59 0 R 59 0 R 59 0 R 59 0 R 59 0 R 59 0 R 59 0 R 59 0 R
59 0 R 59 0 R 59 0 R 59 0 R 59 0 R 59 0 R 59 0 R 59 0 R 59 0 R 59 0 R 59 0 R
59 0 R 59 0 R 59 0 R 60 0 R 59 0 R 59 0 R 59 0 R 59 0 R 59 0 R 59 0 R 59 0 R
59 0 R 59 0 R 59 0 R 59 0 R 59 0 R 59 0 R 59 0 R 59 0 R 59 0 R 59 0 R 59 0 R
59 0 R 59 0 R 59 0 R 59 0 R 59 0 R 59 0 R 60 0 R 59 0 R 59 0 R 59 1 R 59 0 R
59 0 R 59 1 R 59 0 R 59 2 R 59 1 R 59 3 R 59 3 R 59 4 R 59 6 R 59 9 R
59 11 R 59 15 R 59 19 R 59 25 R 59 33 R 59 41 R 59 52 R 59 64 R 59 79 R
59 96 R 60 115 R 59 137 R 59 160 R 59 186 R 59 213 R 59 241 R 59 268 R
59 296 R 59 322 R 59 344 R 59 363 R 59 377 R 59 385 R 59 385 R 59 378 R
59 364 R 59 339 R 59 307 R 59 267 R 59 220 R 59 166 R 59 108 R 59 46 R
59 -16 R 59 -78 R 60 -138 R 59 -194 R 59 -245 R 59 -288 R 59 -325 R
59 -353 R 59 -372 R 59 -383 R 59 -386 R 59 -381 R 59 -371 R 59 -354 R
59 -333 R 59 -308 R 59 -283 R 59 -254 R 59 -226 R 59 -199 R 59 -173 R
59 -148 R 59 -126 R 59 -105 R 59 -87 R 59 -71 R 59 -57 R 60 -46 R 59 -37 R
59 -28 R 59 -23 R 59 -16 R 59 -13 R 59 -10 R 59 -7 R 59 -5 R 59 -4 R 59 -3 R
59 -2 R 59 -1 R 59 -1 R 59 -1 R 59 0 R 59 0 R 59 -1 R 59 0 R 59 0 R 59 0 R
59 0 R 59 0 R 59 0 R 59 0 R 60 0 R 59 0 R 59 0 R 59 0 R 59 0 R 59 0 R 59 0 R
59 0 R 59 0 R 59 0 R 59 0 R 59 0 R 59 0 R 59 0 R 59 0 R 59 0 R 59 0 R 59 0 R
59 0 R 59 0 R 59 0 R 59 0 R 59 0 R 59 0 R 59 0 R 60 0 R 59 0 R 59 0 R 59 0 R
59 0 R 59 0 R 59 0 R 59 0 R 59 0 R 59 0 R 59 0 R 59 0 R 59 0 R 59 0 R 59 0 R
59 0 R 59 0 R 59 0 R 59 0 R 59 0 R 59 0 R 59 0 R 59 0 R D 3061 11737 M
-67 -278 R D 3118 11737 M -67 -278 R D 2994 11632 M 134 0 R D 2984 11574 M
134 0 R D 3204 11536 M -9 9 R 9 10 R 10 -10 R 0 -28 R -10 -20 R -9 -9 R D
3473 11670 M -58 -211 R D 3482 11670 M -57 -211 R D 3473 11641 M -10 -57 R
0 -29 R 19 -19 R 19 0 R 19 9 R 20 19 R 19 29 R D 3578 11670 M -29 -106 R
0 -19 R 10 -9 R 29 0 R 19 19 R 9 19 R D 3588 11670 M -29 -106 R 0 -19 R
9 -9 R D 3674 11536 M -10 9 R 10 10 R 9 -10 R 0 -28 R -9 -20 R -10 -9 R D
4057 11670 M -96 0 R -29 -10 R -19 -28 R -9 -29 R 0 -29 R 9 -19 R 10 -10 R
19 -9 R 19 0 R 29 9 R 19 29 R 10 29 R 0 29 R -10 19 R -9 9 R -20 10 R D
3961 11670 M -19 -10 R -19 -28 R -10 -29 R 0 -39 R 10 -19 R D 3961 11536 M
19 9 R 20 29 R 9 29 R 0 38 R -9 19 R 57 0 R D 4115 11651 M 172 0 R D
4115 11593 M 172 0 R D 4938 11670 M -9 -29 R -19 -19 R -29 -10 R -10 0 R
-28 10 R -19 19 R -10 29 R 0 9 R 10 29 R 19 19 R 28 10 R 10 0 R 29 -10 R
19 -19 R 9 -38 R 0 -48 R -9 -48 R -19 -29 R -29 -9 R -19 0 R -29 9 R -9 19 R
D 5015 11689 M 0 10 R 10 19 R 9 9 R 19 10 R 39 0 R 19 -10 R 10 -9 R 9 -19 R
0 -20 R -9 -19 R -20 -28 R -95 -96 R 134 0 R D 5331 11737 M -96 -201 R D
5197 11737 M 134 0 R D 5418 11545 M -10 -9 R -10 9 R 10 10 R 10 -10 R
0 -28 R -10 -20 R -10 -9 R D 6002 11737 M -29 -10 R -19 -28 R -10 -48 R
0 -29 R 10 -48 R 19 -29 R 29 -9 R 19 0 R 29 9 R 19 29 R 10 48 R 0 29 R
-10 48 R -19 28 R -29 10 R -19 0 R D 6155 11555 M -9 -10 R 9 -9 R 10 9 R
-10 10 R D 6356 11670 M -9 -29 R -19 -19 R -29 -10 R -10 0 R -28 10 R
-19 19 R -10 29 R 0 9 R 10 29 R 19 19 R 28 10 R 10 0 R 29 -10 R 19 -19 R
9 -38 R 0 -48 R -9 -48 R -19 -29 R -29 -9 R -19 0 R -29 9 R -9 19 R D
6519 11737 M -95 -134 R 143 0 R D 6519 11737 M 0 -201 R D 6634 11737 M
106 0 R -58 -77 R 29 0 R 19 -9 R 10 -10 R 9 -29 R 0 -19 R -9 -29 R -19 -19 R
-29 -9 R -29 0 R -29 9 R -9 10 R -10 19 R D 6903 11737 M -96 -134 R 144 0 R
D 6903 11737 M 0 -201 R D 7027 11545 M -9 -9 R -10 9 R 10 10 R 9 -10 R
0 -28 R -9 -20 R -10 -9 R D 7612 11737 M -29 -10 R -19 -28 R -10 -48 R
0 -29 R 10 -48 R 19 -29 R 29 -9 R 19 0 R 29 9 R 19 29 R 9 48 R 0 29 R
-9 48 R -19 28 R -29 10 R -19 0 R D 7765 11555 M -10 -10 R 10 -9 R 9 9 R
-9 10 R D 7899 11737 M -29 -10 R -19 -28 R -9 -48 R 0 -29 R 9 -48 R 19 -29 R
29 -9 R 19 0 R 29 9 R 19 29 R 10 48 R 0 29 R -10 48 R -19 28 R -29 10 R
-19 0 R D 8052 11737 M 106 0 R -58 -77 R 29 0 R 19 -9 R 10 -10 R 9 -29 R
0 -19 R -9 -29 R -19 -19 R -29 -9 R -29 0 R -29 9 R -9 10 R -10 19 R D
8234 11689 M 0 10 R 10 19 R 10 9 R 19 10 R 38 0 R 19 -10 R 10 -9 R 9 -19 R
0 -20 R -9 -19 R -19 -28 R -96 -96 R 134 0 R D 8445 11699 M 19 9 R 29 29 R
0 -201 R D
%%PageTrailer
end
%%PageResources: font Helvetica
%%Trailer
%%Pages: 1
%%DocumentNeededResources: font Helvetica
%%EOF
