%!PS-Adobe-3.0 EPSF-3.0
%%BoundingBox: 0 0 504 360
%%Title: Graphics produced by IDL
%%For: Aaron@Aaron, /home/Aaron
%%Creator: IDL Version 7.1 (linux x86 m32)
%%CreationDate: Tue Feb 22 13:05:33 2011
%%DocumentData: Clean7bit
%%LanguageLevel: 1
%%PageOrder: Ascend
%%Pages: (atend)
%%DocumentNeededResources: (atend)
%%EndComments
%%BeginProlog
%+ prolog.ps -- Prolog for IDL generated PostScript files
%+ Copyright (c) 1988-2009 ITT Visual Information Solutions. All Rights Reserved.
%v 5
/$IDL_DICT 40 dict def $IDL_DICT begin /bdef { bind def } bind def /C
{currentpoint newpath moveto} bdef /CP {currentpoint} bdef /D {currentpoint
stroke moveto} bdef /F {closepath fill} bdef /K { setgray } bdef /M {moveto}
bdef /N {rmoveto} bdef /P {lineto} bdef /R {rlineto} bdef /S {gsave show
grestore} bdef /X {currentpoint pop} bdef /Z {gsave currentpoint lineto 20
setlinewidth 1 setlinecap stroke grestore} bdef /L0 {[] 0 setdash} bdef /L1
{[40 100] 0 setdash} bdef /L2 {[200 200] 0 setdash} bdef /L3 {[200 100 50
100] 0 setdash} bdef /L4 {[300 100 50 100 50 100 50 100] 0 setdash} bdef /L5
{[400 200] 0 setdash} bdef /STDFONT { findfont exch scalefont setfont } bdef
/ISOFONT { findfont dup length dict begin { 1 index /FID ne {def} {pop pop}
ifelse } forall /Encoding ISOLatin1Encoding def currentdict end /idltmpfont
exch definefont exch scalefont setfont } bdef /ISOBULLET { gsave /Helvetica
findfont exch scalefont setfont (\267) show currentpoint grestore moveto}
bdef /MITERLIMIT { 2.5 setmiterlimit } bdef end
%%EndProlog
%%Page: 0 1
%%PageResources: (atend)
%%PageOrientation: Portrait
%%PageBoundingBox: 0 0 504 360
%%BeginPageSetup
$IDL_DICT begin 0.0283465 dup scale MITERLIMIT
%%IncludeResource: font Helvetica
423.333 /Helvetica STDFONT
%%EndPageSetup
10 setlinewidth L0 0.000 K 2220 1408 M 14894 0 R D 2220 1408 M 0 212 R D
2021 1125 M -35 -11 R -23 -35 R -12 -59 R 0 -35 R 12 -58 R 23 -35 R 35 -12 R
24 0 R 35 12 R 23 35 R 12 58 R 0 35 R -12 59 R -23 35 R -35 11 R -24 0 R
-23 -11 R -12 -12 R -11 -23 R -12 -59 R 0 -35 R 12 -58 R 11 -24 R 12 -11 R
23 -12 R D 2045 880 M 23 12 R 12 11 R 12 24 R 11 58 R 0 35 R -11 59 R
-12 23 R -12 12 R -23 11 R D 2208 903 M -11 -11 R 11 -12 R 12 12 R -12 11 R
D 2407 1102 M 0 -222 R D 2419 1125 M 0 -245 R D 2419 1125 M -129 -175 R
187 0 R D 2372 880 M 82 0 R D 4702 1408 M 0 212 R D 4504 1125 M -35 -11 R
-24 -35 R -11 -59 R 0 -35 R 11 -58 R 24 -35 R 35 -12 R 23 0 R 35 12 R
24 35 R 11 58 R 0 35 R -11 59 R -24 35 R -35 11 R -23 0 R -24 -11 R
-11 -12 R -12 -23 R -12 -59 R 0 -35 R 12 -58 R 12 -24 R 11 -11 R 24 -12 R D
4527 880 M 24 12 R 11 11 R 12 24 R 12 58 R 0 35 R -12 59 R -12 23 R -11 12 R
-24 11 R D 4691 903 M -12 -11 R 12 -12 R 11 12 R -11 11 R D 4924 1090 M
-11 -11 R 11 -12 R 12 12 R 0 11 R -12 24 R -23 11 R -35 0 R -35 -11 R
-23 -24 R -12 -23 R -12 -47 R 0 -70 R 12 -35 R 23 -23 R 35 -12 R 24 0 R
35 12 R 23 23 R 12 35 R 0 12 R -12 35 R -23 23 R -35 12 R -12 0 R -35 -12 R
-23 -23 R -12 -35 R D 4866 1125 M -23 -11 R -24 -24 R -11 -23 R -12 -47 R
0 -70 R 12 -35 R 23 -23 R 23 -12 R D 4878 880 M 23 12 R 23 23 R 12 35 R
0 12 R -12 35 R -23 23 R -23 12 R D 7185 1408 M 0 212 R D 6986 1125 M
-35 -11 R -23 -35 R -12 -59 R 0 -35 R 12 -58 R 23 -35 R 35 -12 R 23 0 R
36 12 R 23 35 R 12 58 R 0 35 R -12 59 R -23 35 R -36 11 R -23 0 R -23 -11 R
-12 -12 R -12 -23 R -11 -59 R 0 -35 R 11 -58 R 12 -24 R 12 -11 R 23 -12 R D
7009 880 M 24 12 R 12 11 R 11 24 R 12 58 R 0 35 R -12 59 R -11 23 R -12 12 R
-24 11 R D 7173 903 M -12 -11 R 12 -12 R 12 12 R -12 11 R D 7325 1125 M
-35 -11 R -12 -24 R 0 -35 R 12 -23 R 35 -12 R 47 0 R 35 12 R 11 23 R 0 35 R
-11 24 R -35 11 R -47 0 R -23 -11 R -12 -24 R 0 -35 R 12 -23 R 23 -12 R D
7372 1020 M 23 12 R 12 23 R 0 35 R -12 24 R -23 11 R D 7325 1020 M -35 -11 R
-12 -12 R -11 -23 R 0 -47 R 11 -24 R 12 -11 R 35 -12 R 47 0 R 35 12 R
11 11 R 12 24 R 0 47 R -12 23 R -11 12 R -35 11 R D 7325 1020 M -23 -11 R
-12 -12 R -12 -23 R 0 -47 R 12 -24 R 12 -11 R 23 -12 R D 7372 880 M 23 12 R
12 11 R 11 24 R 0 47 R -11 23 R -12 12 R -23 11 R D 9667 1408 M 0 212 R D
9433 1079 M 24 11 R 35 35 R 0 -245 R D 9480 1114 M 0 -234 R D 9433 880 M
106 0 R D 9655 903 M -11 -11 R 11 -12 R 12 12 R -12 11 R D 9819 1125 M
-35 -11 R -23 -35 R -12 -59 R 0 -35 R 12 -58 R 23 -35 R 35 -12 R 23 0 R
35 12 R 24 35 R 11 58 R 0 35 R -11 59 R -24 35 R -35 11 R -23 0 R -23 -11 R
-12 -12 R -12 -23 R -11 -59 R 0 -35 R 11 -58 R 12 -24 R 12 -11 R 23 -12 R D
9842 880 M 24 12 R 11 11 R 12 24 R 12 58 R 0 35 R -12 59 R -12 23 R -11 12 R
-24 11 R D 12149 1408 M 0 212 R D 11916 1079 M 23 11 R 35 35 R 0 -245 R D
11962 1114 M 0 -234 R D 11916 880 M 105 0 R D 12138 903 M -12 -11 R 12 -12 R
11 12 R -11 11 R D 12243 1079 M 12 -12 R -12 -12 R -12 12 R 0 12 R 12 23 R
12 12 R 35 11 R 46 0 R 35 -11 R 12 -12 R 12 -23 R 0 -24 R -12 -23 R
-35 -23 R -58 -24 R -24 -11 R -23 -24 R -12 -35 R 0 -35 R D 12336 1125 M
24 -11 R 11 -12 R 12 -23 R 0 -24 R -12 -23 R -35 -23 R -46 -24 R D
12231 903 M 12 12 R 23 0 R 59 -23 R 35 0 R 23 11 R 12 12 R D 12266 915 M
59 -35 R 46 0 R 12 12 R 12 23 R 0 23 R D 14632 1408 M 0 212 R D 14398 1079 M
23 11 R 35 35 R 0 -245 R D 14445 1114 M 0 -234 R D 14398 880 M 105 0 R D
14620 903 M -12 -11 R 12 -12 R 12 12 R -12 11 R D 14819 1102 M 0 -222 R D
14830 1125 M 0 -245 R D 14830 1125 M -128 -175 R 187 0 R D 14784 880 M
81 0 R D 17114 1408 M 0 212 R D 16880 1079 M 24 11 R 35 35 R 0 -245 R D
16927 1114 M 0 -234 R D 16880 880 M 106 0 R D 17102 903 M -11 -11 R 11 -12 R
12 12 R -12 11 R D 17336 1090 M -12 -11 R 12 -12 R 12 12 R 0 11 R -12 24 R
-23 11 R -35 0 R -35 -11 R -24 -24 R -11 -23 R -12 -47 R 0 -70 R 12 -35 R
23 -23 R 35 -12 R 23 0 R 35 12 R 24 23 R 11 35 R 0 12 R -11 35 R -24 23 R
-35 12 R -11 0 R -35 -12 R -24 -23 R -11 -35 R D 17278 1125 M -24 -11 R
-23 -24 R -12 -23 R -11 -47 R 0 -70 R 11 -35 R 24 -23 R 23 -12 R D
17289 880 M 24 12 R 23 23 R 12 35 R 0 12 R -12 35 R -23 23 R -24 12 R D
2841 1408 M 0 106 R D 3461 1408 M 0 106 R D 4082 1408 M 0 106 R D
5323 1408 M 0 106 R D 5944 1408 M 0 106 R D 6564 1408 M 0 106 R D
7805 1408 M 0 106 R D 8426 1408 M 0 106 R D 9047 1408 M 0 106 R D
10288 1408 M 0 106 R D 10908 1408 M 0 106 R D 11529 1408 M 0 106 R D
12770 1408 M 0 106 R D 13391 1408 M 0 106 R D 14011 1408 M 0 106 R D
15252 1408 M 0 106 R D 15873 1408 M 0 106 R D 16494 1408 M 0 106 R D
2220 11996 M 14894 0 R D 2220 11996 M 0 -212 R D 4702 11996 M 0 -212 R D
7185 11996 M 0 -212 R D 9667 11996 M 0 -212 R D 12149 11996 M 0 -212 R D
14632 11996 M 0 -212 R D 17114 11996 M 0 -212 R D 2841 11996 M 0 -106 R D
3461 11996 M 0 -106 R D 4082 11996 M 0 -106 R D 5323 11996 M 0 -106 R D
5944 11996 M 0 -106 R D 6564 11996 M 0 -106 R D 7805 11996 M 0 -106 R D
8426 11996 M 0 -106 R D 9047 11996 M 0 -106 R D 10288 11996 M 0 -106 R D
10908 11996 M 0 -106 R D 11529 11996 M 0 -106 R D 12770 11996 M 0 -106 R D
13391 11996 M 0 -106 R D 14011 11996 M 0 -106 R D 15252 11996 M 0 -106 R D
15873 11996 M 0 -106 R D 16494 11996 M 0 -106 R D 2220 1408 M 0 10588 R D
2220 1408 M 298 0 R D 1969 1653 M -35 -11 R -24 -35 R -11 -59 R 0 -35 R
11 -58 R 24 -35 R 35 -12 R 23 0 R 35 12 R 24 35 R 11 58 R 0 35 R -11 59 R
-24 35 R -35 11 R -23 0 R -23 -11 R -12 -12 R -12 -23 R -12 -59 R 0 -35 R
12 -58 R 12 -24 R 12 -11 R 23 -12 R D 1992 1408 M 24 12 R 11 11 R 12 24 R
12 58 R 0 35 R -12 59 R -12 23 R -11 12 R -24 11 R D 2220 3526 M 298 0 R D
1688 3630 M -23 -117 R 23 24 R 36 11 R 35 0 R 35 -11 R 23 -24 R 12 -35 R
0 -23 R -12 -35 R -23 -23 R -35 -12 R -35 0 R -36 12 R -11 11 R -12 24 R
0 11 R 12 12 R 11 -12 R -11 -11 R D 1759 3548 M 23 -11 R 23 -24 R 12 -35 R
0 -23 R -12 -35 R -23 -23 R -23 -12 R D 1688 3630 M 117 0 R D 1688 3619 M
59 0 R 58 11 R D 1969 3630 M -35 -11 R -24 -36 R -11 -58 R 0 -35 R 11 -58 R
24 -35 R 35 -12 R 23 0 R 35 12 R 24 35 R 11 58 R 0 35 R -11 58 R -24 36 R
-35 11 R -23 0 R -23 -11 R -12 -12 R -12 -24 R -12 -58 R 0 -35 R 12 -58 R
12 -24 R 12 -11 R 23 -12 R D 1992 3385 M 24 12 R 11 11 R 12 24 R 12 58 R
0 35 R -12 58 R -12 24 R -11 12 R -24 11 R D 2220 5643 M 298 0 R D
1466 5701 M 24 12 R 35 35 R 0 -246 R D 1513 5736 M 0 -234 R D 1466 5502 M
106 0 R D 1735 5748 M -35 -12 R -23 -35 R -12 -58 R 0 -35 R 12 -59 R
23 -35 R 35 -12 R 24 0 R 35 12 R 23 35 R 12 59 R 0 35 R -12 58 R -23 35 R
-35 12 R -24 0 R -23 -12 R -12 -12 R -12 -23 R -11 -58 R 0 -35 R 11 -59 R
12 -23 R 12 -12 R 23 -12 R D 1759 5502 M 23 12 R 12 12 R 11 23 R 12 59 R
0 35 R -12 58 R -11 23 R -12 12 R -23 12 R D 1969 5748 M -35 -12 R -24 -35 R
-11 -58 R 0 -35 R 11 -59 R 24 -35 R 35 -12 R 23 0 R 35 12 R 24 35 R 11 59 R
0 35 R -11 58 R -24 35 R -35 12 R -23 0 R -23 -12 R -12 -12 R -12 -23 R
-12 -58 R 0 -35 R 12 -59 R 12 -23 R 12 -12 R 23 -12 R D 1992 5502 M 24 12 R
11 12 R 12 23 R 12 59 R 0 35 R -12 58 R -12 23 R -11 12 R -24 12 R D
2220 7761 M 298 0 R D 1466 7819 M 24 11 R 35 35 R 0 -245 R D 1513 7854 M
0 -234 R D 1466 7620 M 106 0 R D 1688 7865 M -23 -116 R 23 23 R 36 12 R
35 0 R 35 -12 R 23 -23 R 12 -35 R 0 -24 R -12 -35 R -23 -23 R -35 -12 R
-35 0 R -36 12 R -11 11 R -12 24 R 0 11 R 12 12 R 11 -12 R -11 -11 R D
1759 7784 M 23 -12 R 23 -23 R 12 -35 R 0 -24 R -12 -35 R -23 -23 R -23 -12 R
D 1688 7865 M 117 0 R D 1688 7854 M 59 0 R 58 11 R D 1969 7865 M -35 -11 R
-24 -35 R -11 -59 R 0 -35 R 11 -58 R 24 -35 R 35 -12 R 23 0 R 35 12 R
24 35 R 11 58 R 0 35 R -11 59 R -24 35 R -35 11 R -23 0 R -23 -11 R
-12 -12 R -12 -23 R -12 -59 R 0 -35 R 12 -58 R 12 -24 R 12 -11 R 23 -12 R D
1992 7620 M 24 12 R 11 11 R 12 24 R 12 58 R 0 35 R -12 59 R -12 23 R
-11 12 R -24 11 R D 2220 9878 M 298 0 R D 1443 9936 M 12 -11 R -12 -12 R
-12 12 R 0 11 R 12 24 R 12 11 R 35 12 R 47 0 R 35 -12 R 11 -11 R 12 -24 R
0 -23 R -12 -23 R -35 -24 R -58 -23 R -24 -12 R -23 -23 R -12 -35 R 0 -35 R
D 1537 9983 M 23 -12 R 12 -11 R 11 -24 R 0 -23 R -11 -23 R -35 -24 R
-47 -23 R D 1431 9761 M 12 12 R 23 0 R 59 -24 R 35 0 R 23 12 R 12 12 R D
1466 9773 M 59 -35 R 47 0 R 11 11 R 12 24 R 0 23 R D 1735 9983 M -35 -12 R
-23 -35 R -12 -58 R 0 -35 R 12 -59 R 23 -35 R 35 -11 R 24 0 R 35 11 R
23 35 R 12 59 R 0 35 R -12 58 R -23 35 R -35 12 R -24 0 R -23 -12 R
-12 -11 R -12 -24 R -11 -58 R 0 -35 R 11 -59 R 12 -23 R 12 -12 R 23 -11 R D
1759 9738 M 23 11 R 12 12 R 11 23 R 12 59 R 0 35 R -12 58 R -11 24 R
-12 11 R -23 12 R D 1969 9983 M -35 -12 R -24 -35 R -11 -58 R 0 -35 R
11 -59 R 24 -35 R 35 -11 R 23 0 R 35 11 R 24 35 R 11 59 R 0 35 R -11 58 R
-24 35 R -35 12 R -23 0 R -23 -12 R -12 -11 R -12 -24 R -12 -58 R 0 -35 R
12 -59 R 12 -23 R 12 -12 R 23 -11 R D 1992 9738 M 24 11 R 11 12 R 12 23 R
12 59 R 0 35 R -12 58 R -12 24 R -11 11 R -24 12 R D 2220 11996 M 298 0 R D
1443 11948 M 12 -11 R -12 -12 R -12 12 R 0 11 R 12 24 R 12 11 R 35 12 R
47 0 R 35 -12 R 11 -11 R 12 -24 R 0 -23 R -12 -23 R -35 -24 R -58 -23 R
-24 -12 R -23 -23 R -12 -35 R 0 -35 R D 1537 11995 M 23 -12 R 12 -11 R
11 -24 R 0 -23 R -11 -23 R -35 -24 R -47 -23 R D 1431 11773 M 12 12 R 23 0 R
59 -24 R 35 0 R 23 12 R 12 12 R D 1466 11785 M 59 -35 R 47 0 R 11 11 R
12 24 R 0 23 R D 1688 11995 M -23 -117 R 23 24 R 36 11 R 35 0 R 35 -11 R
23 -24 R 12 -35 R 0 -23 R -12 -35 R -23 -24 R -35 -11 R -35 0 R -36 11 R
-11 12 R -12 23 R 0 12 R 12 12 R 11 -12 R -11 -12 R D 1759 11913 M 23 -11 R
23 -24 R 12 -35 R 0 -23 R -12 -35 R -23 -24 R -23 -11 R D 1688 11995 M
117 0 R D 1688 11983 M 59 0 R 58 12 R D 1969 11995 M -35 -12 R -24 -35 R
-11 -58 R 0 -35 R 11 -59 R 24 -35 R 35 -11 R 23 0 R 35 11 R 24 35 R 11 59 R
0 35 R -11 58 R -24 35 R -35 12 R -23 0 R -23 -12 R -12 -11 R -12 -24 R
-12 -58 R 0 -35 R 12 -59 R 12 -23 R 12 -12 R 23 -11 R D 1992 11750 M 24 11 R
11 12 R 12 23 R 12 59 R 0 35 R -12 58 R -12 24 R -11 11 R -24 12 R D
2220 1832 M 149 0 R D 2220 2255 M 149 0 R D 2220 2679 M 149 0 R D
2220 3102 M 149 0 R D 2220 3949 M 149 0 R D 2220 4373 M 149 0 R D
2220 4796 M 149 0 R D 2220 5220 M 149 0 R D 2220 6067 M 149 0 R D
2220 6490 M 149 0 R D 2220 6914 M 149 0 R D 2220 7337 M 149 0 R D
2220 8184 M 149 0 R D 2220 8608 M 149 0 R D 2220 9031 M 149 0 R D
2220 9455 M 149 0 R D 2220 10302 M 149 0 R D 2220 10726 M 149 0 R D
2220 11149 M 149 0 R D 2220 11573 M 149 0 R D 17114 1408 M 0 10588 R D
17114 1408 M -298 0 R D 17114 3526 M -298 0 R D 17114 5643 M -298 0 R D
17114 7761 M -298 0 R D 17114 9878 M -298 0 R D 17114 11996 M -298 0 R D
17114 1832 M -149 0 R D 17114 2255 M -149 0 R D 17114 2679 M -149 0 R D
17114 3102 M -149 0 R D 17114 3949 M -149 0 R D 17114 4373 M -149 0 R D
17114 4796 M -149 0 R D 17114 5220 M -149 0 R D 17114 6067 M -149 0 R D
17114 6490 M -149 0 R D 17114 6914 M -149 0 R D 17114 7337 M -149 0 R D
17114 8184 M -149 0 R D 17114 8608 M -149 0 R D 17114 9031 M -149 0 R D
17114 9455 M -149 0 R D 17114 10302 M -149 0 R D 17114 10726 M -149 0 R D
17114 11149 M -149 0 R D 17114 11573 M -149 0 R D 3867 3272 M 95 0 R
0 -1822 R 96 0 R 95 0 R 0 127 R 96 0 R 95 0 R 0 -169 R 96 0 R 95 0 R 0 169 R
96 0 R 95 0 R 0 -42 R 96 0 R 95 0 R 0 127 R 96 0 R 95 0 R 0 -42 R 96 0 R
95 0 R 0 127 R 96 0 R 95 0 R 0 -127 R 96 0 R 95 0 R 0 -85 R 96 0 R 95 0 R
0 297 R 96 0 R 95 0 R 0 -43 R 96 0 R 95 0 R 0 85 R 96 0 R 95 0 R 0 -85 R
96 0 R 95 0 R 96 0 R 95 0 R 0 339 R 96 0 R 95 0 R 0 -127 R 96 0 R 95 0 R
0 424 R 96 0 R 95 0 R 96 0 R 95 0 R 96 0 R 95 0 R 0 465 R 96 0 R 95 0 R
0 170 R 96 0 R 95 0 R 0 550 R 96 0 R 95 0 R 0 593 R 96 0 R 95 0 R 0 170 R
96 0 R 95 0 R 0 1482 R 96 0 R 95 0 R 0 932 R 96 0 R 95 0 R 0 2414 R 96 0 R
95 0 R 0 1694 R 96 0 R 95 0 R 0 -4616 R 96 0 R 95 0 R 0 -2415 R 96 0 R
95 0 R 0 -254 R 96 0 R 95 0 R 0 -974 R 96 0 R 95 0 R 0 -211 R 96 0 R 95 0 R
0 254 R 96 0 R 95 0 R 0 -382 R 96 0 R 95 0 R 0 -42 R 96 0 R 95 0 R 0 -85 R
96 0 R 95 0 R 0 -338 R 96 0 R 95 0 R 0 127 R 96 0 R 95 0 R 0 -170 R 96 0 R
95 0 R 0 -169 R 96 0 R 95 0 R 0 -85 R 96 0 R 95 0 R 0 42 R 96 0 R 95 0 R
0 43 R 96 0 R 95 0 R 0 -43 R 96 0 R 95 0 R 96 0 R 95 0 R 96 0 R 96 0 R
95 0 R 96 0 R 0 -169 R 95 0 R 96 0 R 0 127 R 95 0 R 96 0 R 0 -85 R 95 0 R
96 0 R 95 0 R 96 0 R 95 0 R 96 0 R 0 1525 R 95 0 R D 3910 1407 M 52 52 R D
3962 1709 M -191 -191 R D 3771 1768 M 191 191 R D 3962 2210 M -191 -191 R D
3771 2269 M 191 191 R D 3962 2710 M -191 -191 R D 3771 2770 M 191 191 R D
3962 3211 M -191 -191 R D 3771 3270 M 1 1 R D 4330 1576 M -169 -169 R D
4661 1407 M 65 64 R D 4580 1576 M -45 -44 R D 4912 1407 M 5 5 R D
4789 1534 M -63 -63 R D 4917 1413 M 191 191 R D 5298 1544 M -135 -136 R D
5108 1604 M 16 15 R D 5490 1485 M -77 -77 R D 5299 1544 M 191 191 R D
5681 1426 M -18 -18 R D 5491 1486 M 133 133 R D 5789 1534 M -108 -108 R D
5913 1407 M 150 151 R D 6063 1808 M -190 -191 R D 6163 1407 M 91 91 R D
6254 1748 M -191 -190 R D 6413 1407 M 32 31 R D 6445 1689 M -191 -191 R D
6254 1749 M 125 124 R D 6635 1629 M -190 -190 R D 6445 1689 M 99 99 R D
6826 1570 M -162 -163 R D 6636 1630 M 159 158 R D 7018 1511 M -104 -104 R D
6827 1570 M 191 191 R D 7018 2012 M -191 -191 R D 6827 2071 M 56 56 R D
7209 1452 M -45 -45 R D 7018 1511 M 191 191 R D 7209 1952 M -191 -191 R D
7209 1452 M 191 191 R D 7400 1893 M -191 -191 R D 7209 1952 M 191 191 R D
7400 2394 M -191 -191 R D 7415 1407 M 176 176 R D 7591 1834 M -191 -191 R D
7400 1893 M 191 191 R D 7591 2334 M -191 -191 R D 7400 2394 M 30 30 R D
7782 1524 M -117 -117 R D 7591 1583 M 191 191 R D 7782 2024 M -191 -190 R D
7591 2084 M 191 191 R D 7681 2424 M -90 -90 R D 7915 1407 M 58 57 R D
7973 1715 M -191 -191 R D 7782 1774 M 191 191 R D 7973 2215 M -191 -191 R D
7782 2275 M 191 191 R D 7973 2716 M -191 -191 R D 7782 2775 M 114 114 R D
8164 1655 M -191 -190 R D 7973 1715 M 191 191 R D 8164 2156 M -191 -190 R D
7973 2216 M 191 190 R D 8164 2657 M -191 -191 R D 7973 2717 M 191 191 R D
8066 3060 M -92 -92 R D 8166 1407 M 188 189 R D 8354 1846 M -190 -191 R D
8164 1906 M 190 191 R D 8354 2347 M -190 -191 R D 8164 2406 M 190 191 R D
8354 2848 M -190 -191 R D 8164 2907 M 190 191 R D 8354 3348 M -190 -191 R D
8164 3408 M 190 190 R D 8546 1537 M -129 -129 R D 8355 1597 M 191 191 R D
8546 2038 M -191 -191 R D 8355 2097 M 191 191 R D 8546 2539 M -191 -191 R D
8355 2598 M 191 191 R D 8546 3039 M -191 -191 R D 8355 3099 M 191 190 R D
8546 3540 M -191 -191 R D 8355 3599 M 191 191 R D 8546 4040 M -190 -190 R D
8356 4101 M 102 101 R D 8737 1478 M -70 -70 R D 8546 1537 M 191 191 R D
8737 1978 M -191 -190 R D 8546 2038 M 191 191 R D 8737 2479 M -191 -191 R D
8546 2539 M 191 190 R D 8737 2980 M -191 -191 R D 8546 3039 M 191 191 R D
8737 3480 M -191 -191 R D 8546 3540 M 191 191 R D 8737 3981 M -191 -191 R D
8546 4040 M 191 191 R D 8627 4372 M -81 -81 R D 8917 1408 M 11 10 R D
8928 1669 M -191 -191 R D 8737 1728 M 191 191 R D 8928 2169 M -191 -191 R D
8737 2229 M 191 191 R D 8928 2670 M -191 -191 R D 8737 2729 M 191 191 R D
8928 3171 M -191 -191 R D 8737 3230 M 191 191 R D 8928 3671 M -191 -191 R D
8737 3731 M 191 191 R D 8928 4172 M -191 -191 R D 8737 4231 M 191 191 R D
8928 4673 M -191 -191 R D 8737 4732 M 191 191 R D 8928 5173 M -191 -191 R D
8737 5233 M 191 191 R D 8928 5674 M -191 -191 R D 8737 5733 M 121 121 R D
9119 1609 M -191 -191 R D 8928 1669 M 191 191 R D 9119 2110 M -191 -191 R D
8928 2169 M 191 191 R D 9119 2611 M -191 -191 R D 8928 2670 M 191 191 R D
9119 3111 M -191 -191 R D 8928 3171 M 191 191 R D 9119 3612 M -191 -191 R D
8928 3671 M 191 191 R D 9119 4113 M -191 -191 R D 8928 4172 M 191 191 R D
9119 4613 M -191 -191 R D 8928 4673 M 191 190 R D 9119 5114 M -191 -191 R D
8928 5173 M 191 191 R D 9119 5614 M -191 -190 R D 8928 5674 M 191 191 R D
9119 6115 M -191 -191 R D 8928 6174 M 191 191 R D 9119 6616 M -191 -191 R D
8928 6675 M 111 111 R D 9310 1551 M -143 -144 R D 9120 1610 M 190 191 R D
9310 2051 M -190 -191 R D 9120 2111 M 190 191 R D 9310 2552 M -190 -191 R D
9120 2611 M 190 191 R D 9310 3053 M -190 -191 R D 9120 3112 M 190 191 R D
9310 3553 M -190 -191 R D 9120 3613 M 190 191 R D 9310 4054 M -190 -191 R D
9120 4113 M 190 191 R D 9310 4554 M -190 -190 R D 9120 4614 M 190 191 R D
9310 5055 M -190 -191 R D 9120 5115 M 190 190 R D 9310 5556 M -190 -191 R D
9120 5615 M 190 191 R D 9310 6056 M -190 -191 R D 9120 6116 M 190 191 R D
9310 6557 M -190 -191 R D 9120 6616 M 190 191 R D 9310 7058 M -190 -191 R D
9120 7117 M 190 191 R D 9310 7558 M -190 -191 R D 9120 7618 M 190 191 R D
9310 8059 M -190 -191 R D 9120 8118 M 190 191 R D 9310 8560 M -190 -191 R D
9120 8619 M 190 191 R D 9310 9060 M -190 -191 R D 9120 9120 M 80 80 R D
9501 1491 M -84 -84 R D 9310 1551 M 191 191 R D 9501 1992 M -191 -191 R D
9310 2051 M 191 191 R D 9501 2493 M -191 -191 R D 9310 2552 M 191 191 R D
9501 2993 M -191 -191 R D 9310 3053 M 191 190 R D 9501 3494 M -191 -191 R D
9310 3553 M 191 191 R D 9501 3994 M -191 -190 R D 9310 4054 M 191 191 R D
9501 4495 M -191 -191 R D 9310 4554 M 191 191 R D 9501 4996 M -191 -191 R D
9310 5055 M 191 191 R D 9501 5496 M -191 -191 R D 9310 5556 M 191 191 R D
9501 5997 M -191 -191 R D 9310 6056 M 191 191 R D 9501 6498 M -191 -191 R D
9310 6557 M 191 191 R D 9501 6998 M -191 -191 R D 9310 7058 M 191 191 R D
9501 7499 M -191 -191 R D 9310 7558 M 191 191 R D 9501 7999 M -191 -190 R D
9310 8059 M 191 191 R D 9501 8500 M -191 -191 R D 9310 8560 M 191 190 R D
9501 9001 M -191 -191 R D 9310 9060 M 191 191 R D 9501 9501 M -191 -191 R D
9310 9561 M 191 191 R D 9501 10002 M -191 -191 R D 9310 10061 M 191 191 R D
9501 10503 M -191 -191 R D 9310 10562 M 191 191 R D 9392 10894 M -82 -82 R D
9668 1407 M 24 24 R D 9692 1681 M -191 -190 R D 9501 1742 M 191 190 R D
9692 2182 M -191 -190 R D 9501 2242 M 191 190 R D 9692 2683 M -191 -190 R D
9501 2743 M 191 190 R D 9692 3183 M -191 -190 R D 9501 3243 M 191 191 R D
9692 3684 M -191 -190 R D 9501 3744 M 191 190 R D 9692 4185 M -191 -191 R D
9501 4245 M 191 190 R D 9692 4685 M -191 -190 R D 9501 4745 M 191 191 R D
9692 5186 M -191 -190 R D 9501 5246 M 191 190 R D 9692 5687 M -191 -191 R D
9501 5747 M 191 190 R D 9692 6187 M -191 -190 R D 9501 6247 M 32 31 R D
9883 1623 M -191 -191 R D 9692 1682 M 191 191 R D 9883 2123 M -191 -190 R D
9692 2183 M 191 191 R D 9883 2624 M -191 -191 R D 9692 2683 M 191 191 R D
9883 3125 M -191 -191 R D 9692 3184 M 191 191 R D 9883 3625 M -191 -191 R D
9692 3685 M 179 179 R D 10074 1563 M -156 -156 R D 9883 1623 M 191 191 R D
10074 2064 M -191 -191 R D 9883 2123 M 191 191 R D 10074 2565 M -191 -191 R
D 9883 2624 M 191 191 R D 10074 3065 M -191 -191 R D 9883 3125 M 191 191 R D
10074 3566 M -191 -191 R D 10168 1407 M 97 97 R D 10265 1754 M -191 -191 R D
10074 1814 M 191 191 R D 10265 2255 M -191 -191 R D 10074 2314 M 191 191 R D
10144 2635 M -70 -70 R D 10419 1407 M 37 38 R D 10456 1695 M -191 -191 R D
10265 1754 M 191 191 R D 10456 2196 M -191 -191 R D 10265 2255 M 169 169 R D
10647 1636 M -191 -191 R D 10456 1695 M 191 191 R D 10647 2136 M -191 -191 R
D 10456 2196 M 191 190 R D 10647 2637 M -191 -191 R D 10669 1407 M 169 169 R
D 10838 1826 M -191 -190 R D 10647 1886 M 191 191 R D 10807 2297 M
-160 -161 R D 10919 1407 M 110 110 R D 11029 1767 M -191 -191 R D
10838 1826 M 191 191 R D 11015 2254 M -177 -177 R D 11169 1407 M 51 50 R D
11220 1708 M -191 -191 R D 11029 1767 M 191 191 R D 11181 2169 M -152 -152 R
D 11220 1457 M 191 191 R D 11343 1831 M -123 -123 R D 11420 1407 M 182 182 R
D 11602 1839 M -191 -190 R D 11412 1900 M 58 58 R D 11793 1530 M -122 -122 R
D 11602 1590 M 191 190 R D 11983 1470 M -62 -62 R D 11793 1530 M 89 89 R D
12175 1411 M -4 -3 R D 11984 1471 M 63 63 R D 12340 1576 M -165 -165 R D
12422 1408 M 136 136 R D 12383 1619 M -16 -16 R D 12671 1407 M 77 77 R D
12590 1576 M -32 -32 R D 12922 1407 M 17 17 R D 12840 1576 M -92 -92 R D
12939 1425 M 152 151 R D 13322 1557 M -149 -149 R D 13673 1407 M 31 32 R D
13550 1534 M -36 -36 R D 13704 1439 M 10 10 R D 13965 1450 M -42 -43 R D
14173 1407 M 43 43 R D 14468 1452 M -44 -45 R D 14277 1511 M 191 191 R D
14468 1952 M -191 -191 R D 14277 2012 M 191 191 R D 14468 2453 M -191 -191 R
D 14277 2512 M 191 191 R D 14468 2954 M -191 -191 R D 3771 1408 M 54 0 R
54 0 R 53 0 R 54 0 R 54 0 R 54 0 R 53 0 R 54 0 R 54 0 R 54 0 R 53 0 R 54 0 R
54 0 R 54 0 R 53 0 R 54 0 R 54 0 R 54 0 R 53 0 R 54 0 R 54 0 R 54 0 R 53 0 R
54 0 R 54 0 R 54 0 R 53 0 R 54 0 R 54 0 R 54 0 R 53 0 R 54 0 R 54 0 R 54 0 R
53 0 R 54 0 R 54 0 R 54 0 R 53 0 R 54 0 R 54 0 R 54 0 R 53 0 R 54 0 R 54 0 R
54 0 R 53 0 R 54 0 R 54 0 R 54 0 R 53 0 R 54 0 R 54 0 R 54 0 R 53 0 R 54 0 R
54 0 R 54 0 R 53 0 R 54 0 R 54 1 R 54 0 R 53 1 R 54 0 R 54 2 R 54 1 R 53 3 R
54 4 R 54 5 R 54 8 R 53 10 R 54 14 R 54 20 R 54 25 R 53 35 R 54 44 R 54 57 R
54 73 R 53 91 R 54 112 R 54 137 R 54 166 R 53 196 R 54 230 R 54 266 R
54 301 R 53 339 R 54 373 R 54 405 R 54 432 R 53 452 R 54 465 R 54 468 R
54 460 R 53 439 R 54 409 R 54 364 R 54 311 R 53 245 R 54 173 R 54 95 R
54 14 R 53 -68 R 54 -148 R 54 -223 R 54 -289 R 53 -348 R 54 -395 R 54 -431 R
54 -454 R 53 -467 R 54 -467 R 54 -457 R 54 -440 R 53 -414 R 54 -384 R
54 -350 R 54 -314 R 53 -278 R 54 -242 R 54 -207 R 54 -175 R 54 -146 R
53 -121 R 54 -97 R 54 -79 R 54 -62 R 53 -48 R 54 -37 R 54 -29 R 54 -21 R
53 -16 R 54 -11 R 54 -9 R 54 -6 R 53 -4 R 54 -3 R 54 -2 R 54 -1 R 53 -1 R
54 -1 R 54 0 R 54 0 R 53 -1 R 54 0 R 54 0 R 54 0 R 53 0 R 54 0 R 54 0 R
54 0 R 53 0 R 54 0 R 54 0 R 54 0 R 53 0 R 54 0 R 54 0 R 54 0 R 53 0 R 54 0 R
54 0 R 54 0 R 53 0 R 54 0 R 54 0 R 54 0 R 53 0 R 54 0 R 54 0 R 54 0 R 53 0 R
54 0 R 54 0 R 54 0 R 53 0 R 54 0 R 54 0 R 54 0 R 53 0 R 54 0 R 54 0 R 54 0 R
53 0 R 54 0 R 54 0 R 54 0 R 53 0 R 54 0 R 54 0 R 54 0 R 53 0 R 54 0 R 54 0 R
54 0 R 53 0 R 54 0 R 54 0 R 54 0 R D 3061 11737 M -67 -278 R D 3118 11737 M
-67 -278 R D 2994 11632 M 134 0 R D 2984 11574 M 134 0 R D 3204 11536 M
-9 9 R 9 10 R 10 -10 R 0 -28 R -10 -20 R -9 -9 R D 3473 11670 M -58 -211 R D
3482 11670 M -57 -211 R D 3473 11641 M -10 -57 R 0 -29 R 19 -19 R 19 0 R
19 9 R 20 19 R 19 29 R D 3578 11670 M -29 -106 R 0 -19 R 10 -9 R 29 0 R
19 19 R 9 19 R D 3588 11670 M -29 -106 R 0 -19 R 9 -9 R D 3674 11536 M
-10 9 R 10 10 R 9 -10 R 0 -28 R -9 -20 R -10 -9 R D 4057 11670 M -96 0 R
-29 -10 R -19 -28 R -9 -29 R 0 -29 R 9 -19 R 10 -10 R 19 -9 R 19 0 R 29 9 R
19 29 R 10 29 R 0 29 R -10 19 R -9 9 R -20 10 R D 3961 11670 M -19 -10 R
-19 -28 R -10 -29 R 0 -39 R 10 -19 R D 3961 11536 M 19 9 R 20 29 R 9 29 R
0 38 R -9 19 R 57 0 R D 4115 11651 M 172 0 R D 4115 11593 M 172 0 R D
4689 11699 M 20 9 R 28 29 R 0 -201 R D 4977 11708 M -10 19 R -29 10 R
-19 0 R -28 -10 R -20 -28 R -9 -48 R 0 -48 R 9 -39 R 20 -19 R 28 -9 R 10 0 R
29 9 R 19 19 R 9 29 R 0 10 R -9 29 R -19 19 R -29 9 R -10 0 R -28 -9 R
-20 -19 R -9 -29 R D 5073 11699 M 19 9 R 29 29 R 0 -201 R D 5264 11699 M
19 9 R 29 29 R 0 -201 R D 5456 11545 M -10 -9 R -9 9 R 9 10 R 10 -10 R
0 -28 R -10 -20 R -9 -9 R D 6040 11737 M -28 -10 R -20 -28 R -9 -48 R
0 -29 R 9 -48 R 20 -29 R 28 -9 R 19 0 R 29 9 R 19 29 R 10 48 R 0 29 R
-10 48 R -19 28 R -29 10 R -19 0 R D 6194 11555 M -10 -10 R 10 -9 R 9 9 R
-9 10 R D 6395 11670 M -10 -29 R -19 -19 R -29 -10 R -9 0 R -29 10 R
-19 19 R -10 29 R 0 9 R 10 29 R 19 19 R 29 10 R 9 0 R 29 -10 R 19 -19 R
10 -38 R 0 -48 R -10 -48 R -19 -29 R -29 -9 R -19 0 R -29 9 R -9 19 R D
6586 11708 M -9 19 R -29 10 R -19 0 R -29 -10 R -19 -28 R -10 -48 R 0 -48 R
10 -39 R 19 -19 R 29 -9 R 10 0 R 28 9 R 19 19 R 10 29 R 0 10 R -10 29 R
-19 19 R -28 9 R -10 0 R -29 -9 R -19 -19 R -10 -29 R D 6768 11737 M -95 0 R
-10 -86 R 10 9 R 28 10 R 29 0 R 29 -10 R 19 -19 R 10 -29 R 0 -19 R -10 -29 R
-19 -19 R -29 -9 R -29 0 R -28 9 R -10 10 R -10 19 R D 6855 11689 M 0 10 R
9 19 R 10 9 R 19 10 R 38 0 R 20 -10 R 9 -9 R 10 -19 R 0 -20 R -10 -19 R
-19 -28 R -96 -96 R 134 0 R D 7065 11545 M -9 -9 R -10 9 R 10 10 R 9 -10 R
0 -28 R -9 -20 R -10 -9 R D 7650 11737 M -29 -10 R -19 -28 R -10 -48 R
0 -29 R 10 -48 R 19 -29 R 29 -9 R 19 0 R 29 9 R 19 29 R 10 48 R 0 29 R
-10 48 R -19 28 R -29 10 R -19 0 R D 7803 11555 M -9 -10 R 9 -9 R 10 9 R
-10 10 R D 7937 11737 M -28 -10 R -20 -28 R -9 -48 R 0 -29 R 9 -48 R
20 -29 R 28 -9 R 20 0 R 28 9 R 19 29 R 10 48 R 0 29 R -10 48 R -19 28 R
-28 10 R -20 0 R D 8167 11737 M -96 -134 R 144 0 R D 8167 11737 M 0 -201 R D
8321 11737 M -29 -10 R -19 -28 R -10 -48 R 0 -29 R 10 -48 R 19 -29 R 29 -9 R
19 0 R 29 9 R 19 29 R 9 48 R 0 29 R -9 48 R -19 28 R -29 10 R -19 0 R D
8589 11737 M -96 -201 R D 8455 11737 M 134 0 R D
%%PageTrailer
end
%%PageResources: font Helvetica
%%Trailer
%%Pages: 1
%%DocumentNeededResources: font Helvetica
%%EOF
